<?xml version="1.0" encoding="UTF-8"?>
<jasperReport xmlns="http://jasperreports.sourceforge.net/jasperreports" xmlns:xsi="http://www.w3.org/2001/XMLSchema-instance" xsi:schemaLocation="http://jasperreports.sourceforge.net/jasperreports http://jasperreports.sourceforge.net/xsd/jasperreport.xsd" name="test" pageWidth="735" pageHeight="872" orientation="Landscape" whenNoDataType="AllSectionsNoDetail" columnWidth="552" leftMargin="30" rightMargin="30" topMargin="20" bottomMargin="20" isFloatColumnFooter="true" uuid="4d328091-2aa5-4490-858b-26b6afd49bdc">
	<property name="com.jaspersoft.ji.adhoc.data.adapter" value="true"/>
	<property name="com.jaspersoft.ji.adhoc" value="1"/>
	<property name="com.jaspersoft.ji.adhoc.preferredDataStrategy" value="domainDataStrategy"/>
	<property name="net.sf.jasperreports.export.pdf.tagged" value="true"/>
	<property name="net.sf.jasperreports.export.pdf.tag.language" value="EN-US"/>
	<property name="net.sf.jasperreports.text.truncate.suffix" value="..."/>
	<property name="net.sf.jasperreports.print.keep.full.text" value="true"/>
	<property name="net.sf.jasperreports.export.xls.collapse.row.span" value="false"/>
	<import value="com.jaspersoft.ji.adhoc.service.AdhocEngineServiceImpl"/>
	<import value="com.jaspersoft.ji.adhoc.jr.AdhocReportUtils"/>
	<style name="ReportDefault" isDefault="true" mode="Transparent" forecolor="#666666" backcolor="#FFFFFF" hAlign="Left" vAlign="Middle" fontName="SansSerif" fontSize="11" pdfFontName="Helvetica">
		<box>
			<pen lineColor="#AAAAAA"/>
		</box>
	</style>
	<style name="TableBaseFrameStyle" mode="Transparent">
		<box padding="0">
			<pen lineWidth="0.0"/>
		</box>
	</style>
	<style name="TableColumnHeaderFrameStyle" style="TableBaseFrameStyle">
		<box>
			<topPen lineWidth="1.0" lineColor="#AAAAAA"/>
			<leftPen lineWidth="1.0" lineColor="#AAAAAA"/>
			<bottomPen lineWidth="1.0" lineColor="#AAAAAA"/>
			<rightPen lineWidth="1.0" lineColor="#AAAAAA"/>
		</box>
	</style>
	<style name="TableColumnFooterFrameStyle" style="TableBaseFrameStyle">
		<box>
			<topPen lineWidth="1.0" lineColor="#AAAAAA"/>
		</box>
	</style>
	<style name="TableColumnHeaderTextStyle" style="ReportDefault" mode="Opaque" forecolor="#666666" backcolor="#D5DEE8" hAlign="Left" vAlign="Middle" fontName="SansSerif" fontSize="11" isBold="true" pdfFontName="Helvetica-Bold">
		<box leftPadding="5" rightPadding="5">
			<pen lineWidth="1.0" lineStyle="Solid"/>
			<topPen lineWidth="1.0" lineColor="#FFFFFF"/>
			<leftPen lineWidth="1.0" lineColor="#FFFFFF"/>
			<bottomPen lineWidth="1.0" lineColor="#B1B6BB"/>
			<rightPen lineWidth="1.0" lineColor="#B1B6BB"/>
		</box>
	</style>
	<style name="TableGroupFrameStyle" style="TableBaseFrameStyle">
		<box>
			<leftPen lineWidth="1.0" lineColor="#AAAAAA"/>
			<rightPen lineWidth="1.0" lineColor="#AAAAAA"/>
		</box>
	</style>
	<style name="TableGroupTextStyle" style="ReportDefault" mode="Opaque" forecolor="#666666" backcolor="#E7ECF2" hAlign="Left" vAlign="Middle" fontName="SansSerif" fontSize="11" isBold="true" pdfFontName="Helvetica-Bold">
		<box leftPadding="5" rightPadding="5">
			<topPen lineWidth="0.0"/>
			<leftPen lineWidth="0.0"/>
			<bottomPen lineWidth="0.0"/>
			<rightPen lineWidth="0.0"/>
		</box>
	</style>
	<style name="TableSummaryFrameStyle" style="TableBaseFrameStyle">
		<box>
			<leftPen lineWidth="1.0" lineColor="#AAAAAA"/>
			<rightPen lineWidth="1.0" lineColor="#AAAAAA"/>
		</box>
	</style>
	<style name="TableSummaryTextNoBorderStyle" style="ReportDefault" mode="Opaque" forecolor="#666666" fontName="SansSerif" isBold="true" pdfFontName="Helvetica-Bold">
		<box leftPadding="5" rightPadding="5"/>
	</style>
	<style name="TableSummaryTextStyle" style="TableSummaryTextNoBorderStyle">
		<box>
			<pen lineWidth="1.0"/>
		</box>
	</style>
	<style name="TableTitleTextStyle" style="ReportDefault" mode="Opaque" forecolor="#333333" backcolor="#FFFFFF" hAlign="Center" fontSize="18" isBold="false" pdfFontName="Helvetica">
		<box>
			<pen lineColor="#000000"/>
			<topPen lineWidth="0.0"/>
		</box>
	</style>
	<style name="TableDetailFrameStyle" style="TableBaseFrameStyle">
		<box>
			<leftPen lineWidth="1.0" lineColor="#AAAAAA"/>
			<rightPen lineWidth="1.0" lineColor="#AAAAAA"/>
		</box>
	</style>
	<style name="TableDetailTextStyle" style="ReportDefault" mode="Opaque" forecolor="#666666" backcolor="#FFFFFF" hAlign="Left" vAlign="Middle" fontName="SansSerif" fontSize="11" isBold="false" pdfFontName="Helvetica">
		<box leftPadding="5" rightPadding="5">
			<pen lineWidth="1.0" lineStyle="Solid"/>
			<topPen lineWidth="1.0" lineColor="#E3E9EF"/>
			<leftPen lineWidth="1.0" lineColor="#E3E9EF"/>
			<bottomPen lineWidth="1.0" lineColor="#E3E9EF"/>
			<rightPen lineWidth="1.0" lineColor="#E3E9EF"/>
		</box>
	</style>
	<style name="ChartReportTitle" style="ReportDefault" mode="Opaque" forecolor="#333333" backcolor="#FFFFFF" hAlign="Center" fontSize="18" isBold="false" pdfFontName="Helvetica">
		<box>
			<pen lineColor="#000000"/>
			<topPen lineWidth="0.0" lineStyle="Solid"/>
		</box>
	</style>
	<style name="ChartTitle" forecolor="#000000" fontName="SansSerif" fontSize="12" isBold="true" pdfFontName="Helvetica-Bold"/>
	<style name="ChartSubtitle" forecolor="#000000" fontName="SansSerif" fontSize="9" isBold="false" pdfFontName="Helvetica"/>
	<style name="ChartLegend" forecolor="#000000" backcolor="#FFFFFF" fontName="SansSerif" fontSize="9" isBold="false" pdfFontName="Helvetica"/>
	<style name="ChartSeriesColor0" backcolor="#87C4FE"/>
	<style name="ChartSeriesColor1" backcolor="#E96270"/>
	<style name="ChartSeriesColor2" backcolor="#D1D1D1"/>
	<style name="ChartSeriesColor3" backcolor="#FFEE99"/>
	<style name="ChartSeriesColor4" backcolor="#6164FF"/>
	<style name="ChartSeriesColor5" backcolor="#B0E992"/>
	<style name="ChartSeriesColor6" backcolor="#AE9CEA"/>
	<style name="ChartSeriesColor7" backcolor="#F5B05E"/>
	<style name="ChartSeriesColor8" backcolor="#589EE1"/>
	<style name="ChartSeriesColor9" backcolor="#AE4E59"/>
	<style name="ChartSeriesColor10" backcolor="#747474"/>
	<style name="ChartSeriesColor11" backcolor="#E2DC77"/>
	<style name="ChartSeriesColor12" backcolor="#4749A5"/>
	<style name="ChartSeriesColor13" backcolor="#81B963"/>
	<style name="ChartSeriesColor14" backcolor="#7764B4"/>
	<style name="ChartSeriesColor15" backcolor="#F27B4C"/>
	<style name="ChartCategoryAxisLabelFormat" forecolor="#000000" fontName="SansSerif" fontSize="11" isBold="true" pdfFontName="Helvetica-Bold"/>
	<style name="ChartCategoryAxisTickFormat" forecolor="#000000" fontName="SansSerif" fontSize="9" isBold="false" pdfFontName="Helvetica"/>
	<style name="ChartValueAxisLabelFormat" forecolor="#000000" fontName="SansSerif" fontSize="11" isBold="true" pdfFontName="Helvetica-Bold"/>
	<style name="ChartValueAxisTickFormat" forecolor="#000000" fontName="SansSerif" fontSize="9" isBold="false" pdfFontName="Helvetica"/>
	<style name="ChartContext" backcolor="#D1CA67"/>
	<style name="CrosstabElementStyle" mode="Transparent" forecolor="#000033" backcolor="#FFFFFF" hAlign="Center" vAlign="Middle" fontName="SansSerif" fontSize="11" pdfFontName="Helvetica">
		<box>
			<topPen lineWidth="0.0"/>
			<leftPen lineWidth="0.0"/>
			<bottomPen lineWidth="1.0" lineColor="#AAAAAA"/>
			<rightPen lineWidth="1.0" lineColor="#AAAAAA"/>
		</box>
	</style>
	<style name="CrosstabBaseCellStyle" mode="Transparent">
		<box padding="0">
			<pen lineWidth="0.0"/>
		</box>
	</style>
	<style name="CrosstabBaseTextStyle" mode="Opaque" forecolor="#666666" backcolor="#FFFFFF" hAlign="Left" vAlign="Top" fontName="SansSerif" fontSize="11" isBold="true" pdfFontName="Helvetica-Bold">
		<box topPadding="3" leftPadding="5" bottomPadding="3" rightPadding="5">
			<topPen lineWidth="1.0" lineColor="#FFFFFF"/>
			<leftPen lineWidth="1.0" lineColor="#FFFFFF"/>
			<bottomPen lineWidth="1.0" lineColor="#B1B6BB"/>
			<rightPen lineWidth="1.0" lineColor="#B1B6BB"/>
		</box>
	</style>
	<style name="CrosstabTitleTextStyle" style="CrosstabBaseTextStyle" forecolor="#333333" fontSize="18" isBold="false" pdfFontName="Helvetica">
		<box>
			<pen lineWidth="0.0" lineColor="#000000"/>
		</box>
	</style>
	<style name="CrosstabHeaderTextStyle" style="CrosstabBaseTextStyle" backcolor="#D5DEE8"/>
	<style name="CrosstabMeasureHeaderTextStyle" style="CrosstabBaseTextStyle" backcolor="#D3C8EB"/>
	<style name="CrosstabColumnMeasureHeaderTextStyle" style="CrosstabMeasureHeaderTextStyle"/>
	<style name="CrosstabRowMeasureHeaderTextStyle" style="CrosstabMeasureHeaderTextStyle" isBold="false" pdfFontName="Helvetica"/>
	<style name="CrosstabDimensionHeaderTextStyle" style="CrosstabBaseTextStyle" backcolor="#E7ECF2" isBold="false" pdfFontName="Helvetica"/>
	<style name="CrosstabDetailTextStyle" style="CrosstabBaseTextStyle" backcolor="#FFFFFF" hAlign="Right" isBold="false" pdfFontName="Helvetica">
		<box>
			<pen lineWidth="1.0" lineColor="#E3E9EF"/>
		</box>
		<conditionalStyle>
			<conditionExpression><![CDATA[$V{CROSSTAB_TOTAL_DISCRIMINATOR}]]></conditionExpression>
			<style backcolor="#F0F4F8" hAlign="Right" isBold="true" pdfFontName="Helvetica-Bold">
				<box>
					<topPen lineWidth="1.0" lineColor="#E3E9EF"/>
					<leftPen lineWidth="1.0" lineColor="#E3E9EF"/>
					<bottomPen lineWidth="1.0" lineColor="#E3E9EF"/>
					<rightPen lineWidth="1.0" lineColor="#E3E9EF"/>
				</box>
			</style>
		</conditionalStyle>
	</style>
	<subDataset name="tableDataset">
		<property name="net.sf.jasperreports.create.sort.fields.for.groups" value="true"/>
		<parameter name="audit_event_date_2" class="java.util.Date">
			<defaultValueExpression><![CDATA[null]]></defaultValueExpression>
		</parameter>
		<parameter name="audit_event_date_1" class="java.util.Date">
			<defaultValueExpression><![CDATA[null]]></defaultValueExpression>
		</parameter>
		<parameter name="username_1" class="java.util.Collection" nestedType="java.lang.String">
			<defaultValueExpression><![CDATA[java.util.Arrays.asList(new java.lang.String[] {})]]></defaultValueExpression>
		</parameter>
		<parameter name="resource_org_type_1" class="java.util.Collection" nestedType="java.lang.String">
			<defaultValueExpression><![CDATA[java.util.Arrays.asList(new java.lang.String[] {})]]></defaultValueExpression>
		</parameter>
		<queryString language="domain">
			<![CDATA[<?xml version="1.0" encoding="UTF-8"?>
<query xmlns="http://www.jaspersoft.com/2007/SL/XMLSchema">
  <queryFields>
    <queryField id="audit_join1.audit_event_group.event_type" />
    <queryField id="audit_join1.user_group.username" />
    <queryField id="audit_join1.audit_event_group.audit_event_time" />
    <queryField id="audit_join1.audit_event_group.audit_event_date" />
    <queryField id="audit_join1.audit_event_group.resource_org_uri" />
    <queryField id="audit_join1.audit_event_group.resource_org_type" />
  </queryFields>
</query>

]]>
		</queryString>
		<field name="audit_join1.audit_event_group.event_type" class="java.lang.String">
			<fieldDescription><![CDATA[audit_join1.audit_event_group.event_type]]></fieldDescription>
		</field>
		<field name="audit_join1.user_group.username" class="java.lang.String">
			<fieldDescription><![CDATA[audit_join1.user_group.username]]></fieldDescription>
		</field>
		<field name="audit_join1.audit_event_group.audit_event_time" class="java.sql.Timestamp">
			<fieldDescription><![CDATA[audit_join1.audit_event_group.audit_event_time]]></fieldDescription>
		</field>
		<field name="audit_join1.audit_event_group.resource_org_uri" class="java.lang.String">
			<fieldDescription><![CDATA[audit_join1.audit_event_group.resource_org_uri]]></fieldDescription>
		</field>
		<field name="audit_join1.audit_event_group.audit_event_date" class="java.util.Date">
			<fieldDescription><![CDATA[audit_join1.audit_event_group.audit_event_date]]></fieldDescription>
		</field>
		<field name="audit_join1.audit_event_group.resource_org_type" class="java.lang.String">
			<fieldDescription><![CDATA[audit_join1.audit_event_group.resource_org_type]]></fieldDescription>
		</field>
		<variable name="InnerRowCount" class="java.lang.Integer" resetType="None">
			<variableExpression><![CDATA[$V{audit_join1.user_group.username_COUNT}]]></variableExpression>
		</variable>
		<group name="audit_join1.audit_event_group.audit_event_date" minHeightToStartNewPage="60">
			<groupExpression><![CDATA[$F{audit_join1.audit_event_group.audit_event_date}]]></groupExpression>
		</group>
		<group name="audit_join1.user_group.username" minHeightToStartNewPage="60">
			<groupExpression><![CDATA[$F{audit_join1.user_group.username}]]></groupExpression>
		</group>
	</subDataset>
	<parameter name="audit_event_date_2" class="java.util.Date">
		<defaultValueExpression><![CDATA[null]]></defaultValueExpression>
	</parameter>
	<parameter name="audit_event_date_1" class="java.util.Date">
		<defaultValueExpression><![CDATA[null]]></defaultValueExpression>
	</parameter>
	<parameter name="username_1" class="java.util.Collection" nestedType="java.lang.String">
		<defaultValueExpression><![CDATA[java.util.Arrays.asList(new java.lang.String[] {})]]></defaultValueExpression>
	</parameter>
	<parameter name="resource_org_type_1" class="java.util.Collection" nestedType="java.lang.String">
		<defaultValueExpression><![CDATA[java.util.Arrays.asList(new java.lang.String[] {})]]></defaultValueExpression>
	</parameter>
	<parameter name="REPORT_TITLE" class="java.lang.String" isForPrompting="false">
		<property name="net.sf.jasperreports.data.cache.included" value="true"/>
		<defaultValueExpression><![CDATA[null]]></defaultValueExpression>
	</parameter>
	<title>
		<band splitType="Stretch">
			<textField isStretchWithOverflow="true">
				<reportElement uuid="5de2be0a-1550-4850-9136-e4ddefc1d383" key="staticText" style="TableTitleTextStyle" x="0" y="0" width="675" height="0">
					<printWhenExpression><![CDATA[$P{REPORT_TITLE} != null && $P{REPORT_TITLE}.length() > 0]]></printWhenExpression>
				</reportElement>
				<textElement textAlignment="Center"/>
				<textFieldExpression><![CDATA[$P{REPORT_TITLE}]]></textFieldExpression>
			</textField>
		</band>
	</title>
	<summary>
		<band height="25" splitType="Stretch">
			<componentElement>
				<reportElement uuid="15def9a9-dfd2-4eba-937a-927bbdc81552" style="TableColumnHeaderFrameStyle" x="0" y="0" width="675" height="25"/>
				<c:table xmlns:c="http://jasperreports.sourceforge.net/jasperreports/components" xsi:schemaLocation="http://jasperreports.sourceforge.net/jasperreports/components http://jasperreports.sourceforge.net/xsd/components.xsd" whenNoDataType="AllSectionsNoDetail">
					<datasetRun subDataset="tableDataset" uuid="0a1f356c-621d-4337-83a6-39b1e2d863ba">
						<dataSourceExpression><![CDATA[$P{REPORT_PARAMETERS_MAP}.get("com.jaspersoft.ji.adhoc.report.data.source")]]></dataSourceExpression>
					</datasetRun>
					<c:columnGroup uuid="9a1c4b74-60fe-44bf-b69c-83e0bb235651" width="675">
						<c:groupHeader groupName="audit_join1.audit_event_group.audit_event_date">
							<c:cell height="25">
								<frame>
									<reportElement uuid="da3cd5cf-d609-41fc-a904-f201363896d1" style="TableBaseFrameStyle" x="0" y="0" width="675" height="25">
										<property name="net.sf.jasperreports.export.pdf.tag.tr" value="full"/>
										<property name="net.sf.jasperreports.export.pdf.tag.td" value="full"/>
									</reportElement>
									<textField isStretchWithOverflow="true" isBlankWhenNull="true" bookmarkLevel="1">
										<reportElement uuid="37a61191-3652-4d70-aabb-b59c5bb8b0f9" style="TableGroupTextStyle" x="0" y="0" width="675" height="25"/>
										<textElement/>
										<textFieldExpression><![CDATA["Date" + ": " + AdhocEngineServiceImpl.getInstance().formatValue($F{audit_join1.audit_event_group.audit_event_date}, "short,hide","java.util.Date", $P{REPORT_LOCALE}, $P{REPORT_TIME_ZONE})]]></textFieldExpression>
									</textField>
								</frame>
							</c:cell>
						</c:groupHeader>
						<c:groupHeader groupName="audit_join1.user_group.username">
							<c:cell height="25">
								<frame>
									<reportElement uuid="95acda84-070e-4210-86b4-206a5ba5ef1f" style="TableBaseFrameStyle" x="0" y="0" width="675" height="25">
										<property name="net.sf.jasperreports.export.pdf.tag.tr" value="full"/>
										<property name="net.sf.jasperreports.export.pdf.tag.td" value="full"/>
									</reportElement>
									<textField isStretchWithOverflow="true" isBlankWhenNull="true" bookmarkLevel="1">
										<reportElement uuid="a57ecb02-cb5f-4278-90fc-51e41e29b69d" style="TableGroupTextStyle" x="0" y="0" width="675" height="25"/>
										<textElement/>
										<textFieldExpression><![CDATA["User Name" + ": " + AdhocEngineServiceImpl.getInstance().formatValue($F{audit_join1.user_group.username}, null,"java.lang.String", $P{REPORT_LOCALE}, $P{REPORT_TIME_ZONE})]]></textFieldExpression>
									</textField>
								</frame>
							</c:cell>
						</c:groupHeader>
						<c:groupFooter groupName="audit_join1.audit_event_group.audit_event_date">
							<c:cell height="25">
								<frame>
									<reportElement uuid="ade348ed-b7aa-4586-85f2-07cb85941775" style="TableBaseFrameStyle" x="0" y="0" width="675" height="25">
										<property name="net.sf.jasperreports.export.pdf.tag.tr" value="full"/>
									</reportElement>
									<textField isStretchWithOverflow="true" isBlankWhenNull="true">
										<reportElement uuid="d5ff03bc-885d-4f23-b76a-2f38aeb132b4" style="TableGroupTextStyle" stretchType="RelativeToBandHeight" x="0" y="0" width="675" height="25">
											<property name="net.sf.jasperreports.export.pdf.tag.td" value="full"/>
										</reportElement>
										<textElement/>
										<textFieldExpression><![CDATA["Date" + ": " + AdhocEngineServiceImpl.getInstance().formatValue($F{audit_join1.audit_event_group.audit_event_date}, "short,hide","java.util.Date", $P{REPORT_LOCALE}, $P{REPORT_TIME_ZONE})]]></textFieldExpression>
									</textField>
								</frame>
							</c:cell>
						</c:groupFooter>
						<c:groupFooter groupName="audit_join1.user_group.username">
							<c:cell height="25">
								<frame>
									<reportElement uuid="b1f3b028-8bf2-4959-a5f1-25c9dce2bf03" style="TableBaseFrameStyle" x="0" y="0" width="675" height="25">
										<property name="net.sf.jasperreports.export.pdf.tag.tr" value="full"/>
									</reportElement>
									<textField isStretchWithOverflow="true" isBlankWhenNull="true">
										<reportElement uuid="cf2cb459-c539-484d-98a6-bce7af691892" style="TableGroupTextStyle" stretchType="RelativeToBandHeight" x="0" y="0" width="675" height="25">
											<property name="net.sf.jasperreports.export.pdf.tag.td" value="full"/>
										</reportElement>
										<textElement/>
										<textFieldExpression><![CDATA["User Name" + ": " + AdhocEngineServiceImpl.getInstance().formatValue($F{audit_join1.user_group.username}, null,"java.lang.String", $P{REPORT_LOCALE}, $P{REPORT_TIME_ZONE})]]></textFieldExpression>
									</textField>
								</frame>
							</c:cell>
						</c:groupFooter>
						<c:column uuid="48a6d758-77fc-4886-a983-343e247c081a" width="81">
							<c:columnHeader height="25">
								<textField isStretchWithOverflow="true" isBlankWhenNull="true">
									<reportElement uuid="a92237bf-b30b-494c-8df6-e45973bc0467" style="TableColumnHeaderTextStyle" stretchType="RelativeToBandHeight" x="0" y="0" width="81" height="25">
										<property name="net.sf.jasperreports.export.pdf.tag.th" value="full"/>
									</reportElement>
									<textElement textAlignment="Left"/>
									<textFieldExpression><![CDATA["Time"]]></textFieldExpression>
								</textField>
							</c:columnHeader>
							<c:detailCell height="25">
								<textField isStretchWithOverflow="true" pattern="HH:mm:ss" isBlankWhenNull="true">
									<reportElement uuid="052f936f-a44f-4db0-81c1-1608026756a1" key="textField" style="TableDetailTextStyle" stretchType="RelativeToBandHeight" x="0" y="0" width="81" height="25">
										<property name="net.sf.jasperreports.export.pdf.tag.td" value="full"/>
									</reportElement>
									<textElement textAlignment="Left"/>
									<textFieldExpression><![CDATA[$F{audit_join1.audit_event_group.audit_event_time}]]></textFieldExpression>
								</textField>
							</c:detailCell>
						</c:column>
						<c:column uuid="92ff25dc-3f76-4b81-a153-4ea0417a1bca" width="152">
							<c:columnHeader height="25">
								<textField isStretchWithOverflow="true" isBlankWhenNull="true">
									<reportElement uuid="866cb7ca-5b00-4106-8224-d1de468ab35a" style="TableColumnHeaderTextStyle" stretchType="RelativeToBandHeight" x="0" y="0" width="152" height="25">
										<property name="net.sf.jasperreports.export.pdf.tag.th" value="full"/>
									</reportElement>
									<textElement textAlignment="Left"/>
									<textFieldExpression><![CDATA["Event Type"]]></textFieldExpression>
								</textField>
							</c:columnHeader>
							<c:detailCell height="25">
								<textField isStretchWithOverflow="true" isBlankWhenNull="true">
									<reportElement uuid="60ed49b7-5c88-4e53-8b3c-c5c6ddb8f4b2" key="textField" style="TableDetailTextStyle" stretchType="RelativeToBandHeight" x="0" y="0" width="152" height="25">
										<property name="net.sf.jasperreports.export.pdf.tag.td" value="full"/>
									</reportElement>
									<textElement textAlignment="Left"/>
									<textFieldExpression><![CDATA[$F{audit_join1.audit_event_group.event_type}]]></textFieldExpression>
									<patternExpression><![CDATA[AdhocEngineServiceImpl.getInstance().getDefaultMask("java.lang.Integer", $P{REPORT_LOCALE}, $P{REPORT_TIME_ZONE})]]></patternExpression>
								</textField>
							</c:detailCell>
						</c:column>
						<c:column uuid="6d634e90-b90e-4e9a-8a17-e2df4c57f0a7" width="125">
							<c:columnHeader height="25">
								<textField isStretchWithOverflow="true" isBlankWhenNull="true">
									<reportElement uuid="33398011-4154-4ef2-a822-09b7959f2b11" style="TableColumnHeaderTextStyle" stretchType="RelativeToBandHeight" x="0" y="0" width="125" height="25">
										<property name="net.sf.jasperreports.export.pdf.tag.th" value="full"/>
									</reportElement>
									<textElement textAlignment="Left"/>
									<textFieldExpression><![CDATA["Resource Type"]]></textFieldExpression>
								</textField>
							</c:columnHeader>
							<c:detailCell height="25">
								<textField isStretchWithOverflow="true" isBlankWhenNull="true">
									<reportElement uuid="dc07f394-29ba-4443-878c-828934d24cf6" key="textField" style="TableDetailTextStyle" stretchType="RelativeToBandHeight" x="0" y="0" width="125" height="25">
										<property name="net.sf.jasperreports.export.pdf.tag.td" value="full"/>
									</reportElement>
									<textElement textAlignment="Left"/>
									<textFieldExpression><![CDATA[$F{audit_join1.audit_event_group.resource_org_type}]]></textFieldExpression>
									<patternExpression><![CDATA[AdhocEngineServiceImpl.getInstance().getDefaultMask("java.lang.Integer", $P{REPORT_LOCALE}, $P{REPORT_TIME_ZONE})]]></patternExpression>
								</textField>
							</c:detailCell>
						</c:column>
						<c:column uuid="a5e2ccfa-1909-461a-b317-8ec9a4264ebb" width="25">
							<c:columnHeader height="25">
								<textField isStretchWithOverflow="true" isBlankWhenNull="true">
									<reportElement uuid="686bd7dd-b29e-4c82-8e14-315b760d0d11" style="TableColumnHeaderTextStyle" stretchType="RelativeToBandHeight" x="0" y="0" width="25" height="25">
										<property name="net.sf.jasperreports.export.pdf.tag.th" value="full"/>
									</reportElement>
									<textElement textAlignment="Left"/>
									<textFieldExpression><![CDATA[]]></textFieldExpression>
								</textField>
							</c:columnHeader>
							<c:detailCell height="25">
								<textField isStretchWithOverflow="true" isBlankWhenNull="true">
									<reportElement uuid="1502cfe1-65d8-4448-af06-410ba00dc2d2" key="textField" style="TableDetailTextStyle" stretchType="RelativeToBandHeight" x="0" y="0" width="25" height="25">
										<property name="net.sf.jasperreports.export.pdf.tag.td" value="full"/>
									</reportElement>
									<textElement textAlignment="Left"/>
									<patternExpression><![CDATA[AdhocEngineServiceImpl.getInstance().getDefaultMask("java.lang.Integer", $P{REPORT_LOCALE}, $P{REPORT_TIME_ZONE})]]></patternExpression>
								</textField>
							</c:detailCell>
						</c:column>
						<c:column uuid="ea349bd9-c88a-4eb1-8ee6-49aeae56e930" width="292">
							<c:columnHeader height="25">
								<textField isStretchWithOverflow="true" isBlankWhenNull="true">
									<reportElement uuid="fc23fab7-886e-4380-9c42-5dcc69c9ad1d" style="TableColumnHeaderTextStyle" stretchType="RelativeToBandHeight" x="0" y="0" width="292" height="25">
										<property name="net.sf.jasperreports.export.pdf.tag.th" value="full"/>
									</reportElement>
									<textElement textAlignment="Left"/>
									<textFieldExpression><![CDATA["Resource URI"]]></textFieldExpression>
								</textField>
							</c:columnHeader>
							<c:detailCell height="25">
								<textField isStretchWithOverflow="true" isBlankWhenNull="true">
									<reportElement uuid="8d0a979c-2a25-4e22-b217-bd26802e4f14" key="textField" style="TableDetailTextStyle" stretchType="RelativeToBandHeight" x="0" y="0" width="292" height="25">
										<property name="net.sf.jasperreports.export.pdf.tag.td" value="full"/>
									</reportElement>
									<textElement textAlignment="Left"/>
									<textFieldExpression><![CDATA[$F{audit_join1.audit_event_group.resource_org_uri}]]></textFieldExpression>
									<patternExpression><![CDATA[AdhocEngineServiceImpl.getInstance().getDefaultMask("java.lang.Integer", $P{REPORT_LOCALE}, $P{REPORT_TIME_ZONE})]]></patternExpression>
								</textField>
							</c:detailCell>
						</c:column>
					</c:columnGroup>
				</c:table>
			</componentElement>
		</band>
	</summary>
</jasperReport>
