<?xml version="1.0" encoding="UTF-8"?>
<jasperReport xmlns="http://jasperreports.sourceforge.net/jasperreports" xmlns:xsi="http://www.w3.org/2001/XMLSchema-instance" xsi:schemaLocation="http://jasperreports.sourceforge.net/jasperreports http://jasperreports.sourceforge.net/xsd/jasperreport.xsd" name="adhocReport" pageWidth="595" pageHeight="842" columnWidth="555" leftMargin="20" rightMargin="20" topMargin="30" bottomMargin="30" uuid="d4bb4a8e-e262-434c-84cd-560303aa9ffd">
	<property name="com.jaspersoft.jasperserver.api.metadata.jasperreports.domain.TopicReportUnit" value="/temp/sl_topic_fee9c46b-117c-40ba-9e87-303559c6d445"/>
	<queryString language="domain">
		<![CDATA[<?xml version="1.0" encoding="UTF-8"?>
<query xmlns="http://www.jaspersoft.com/2007/SL/XMLSchema">
  <queryFields>
    <queryField id="customers.Address" />
    <queryField id="customers.City" />
    <queryField id="customers.CompanyName" />
    <queryField id="customers.ContactName" />
    <queryField id="customers.ContactTitle" />
    <queryField id="customers.Country" />
    <queryField id="customers.CustomerID" />
    <queryField id="customers.Fax" />
    <queryField id="customers.Phone" />
    <queryField id="customers.PostalCode" />
    <queryField id="customers.Region" />
  </queryFields>
</query>]]>
	</queryString>
	<field name="customers.Address" class="java.lang.String">
		<property name="semantic.tree.sort.order" value="{&quot;Phone&quot;:10,&quot;PostalCode&quot;:11,&quot;Region&quot;:12,&quot;ContactName&quot;:5,&quot;Address&quot;:2,&quot;CustomerID&quot;:8,&quot;Fax&quot;:9,&quot;CompanyName&quot;:4,&quot;customers&quot;:1,&quot;Country&quot;:7,&quot;City&quot;:3,&quot;ContactTitle&quot;:6}"/>
		<property name="defaultAgg"/>
		<property name="adhoc.display" value="Address"/>
		<property name="semantic.item.desc" value="Address"/>
		<property name="defaultMask"/>
		<property name="slIsTableAsList" value="false"/>
		<property name="adhoc.tree.labels" value="[{&quot;resourceId&quot;:&quot;customers&quot;,&quot;label&quot;:&quot;customers&quot;,&quot;uri&quot;:&quot;/customers&quot;,&quot;labelId&quot;:&quot;&quot;}]"/>
		<property name="kind" value="DIMENSION"/>
		<property name="adhoc.tree.uri" value="/customers/Address"/>
		<property name="semantic.tree.uri" value="/customers/Address"/>
		<property name="dimensionOrMeasure"/>
		<property name="resourceId" value="customers.Address"/>
		<property name="semantic.item.desc.id" value=""/>
		<fieldDescription><![CDATA[customers.Address]]></fieldDescription>
	</field>
	<field name="customers.City" class="java.lang.String">
		<property name="semantic.tree.uri" value="/customers/City"/>
		<property name="adhoc.tree.uri" value="/customers/City"/>
		<property name="resourceId" value="customers.City"/>
		<property name="semantic.tree.sort.order" value="1"/>
		<property name="dimensionOrMeasure"/>
		<property name="semantic.item.desc.id" value=""/>
		<property name="defaultAgg"/>
		<property name="adhoc.display" value="City"/>
		<property name="semantic.item.desc" value="City"/>
		<property name="defaultMask"/>
		<property name="kind" value="DIMENSION"/>
		<fieldDescription><![CDATA[customers.City]]></fieldDescription>
	</field>
	<field name="customers.CompanyName" class="java.lang.String">
		<property name="semantic.tree.uri" value="/customers/CompanyName"/>
		<property name="adhoc.tree.uri" value="/customers/CompanyName"/>
		<property name="resourceId" value="customers.CompanyName"/>
		<property name="semantic.tree.sort.order" value="2"/>
		<property name="dimensionOrMeasure"/>
		<property name="semantic.item.desc.id" value=""/>
		<property name="defaultAgg"/>
		<property name="adhoc.display" value="CompanyName"/>
		<property name="semantic.item.desc" value="CompanyName"/>
		<property name="defaultMask"/>
		<property name="kind" value="DIMENSION"/>
		<fieldDescription><![CDATA[customers.CompanyName]]></fieldDescription>
	</field>
	<field name="customers.ContactName" class="java.lang.String">
		<property name="semantic.tree.uri" value="/customers/ContactName"/>
		<property name="adhoc.tree.uri" value="/customers/ContactName"/>
		<property name="resourceId" value="customers.ContactName"/>
		<property name="semantic.tree.sort.order" value="3"/>
		<property name="dimensionOrMeasure"/>
		<property name="semantic.item.desc.id" value=""/>
		<property name="defaultAgg"/>
		<property name="adhoc.display" value="ContactName"/>
		<property name="semantic.item.desc" value="ContactName"/>
		<property name="defaultMask"/>
		<property name="kind" value="DIMENSION"/>
		<fieldDescription><![CDATA[customers.ContactName]]></fieldDescription>
	</field>
	<field name="customers.ContactTitle" class="java.lang.String">
		<property name="semantic.tree.uri" value="/customers/ContactTitle"/>
		<property name="adhoc.tree.uri" value="/customers/ContactTitle"/>
		<property name="resourceId" value="customers.ContactTitle"/>
		<property name="semantic.tree.sort.order" value="4"/>
		<property name="dimensionOrMeasure"/>
		<property name="semantic.item.desc.id" value=""/>
		<property name="defaultAgg"/>
		<property name="adhoc.display" value="ContactTitle"/>
		<property name="semantic.item.desc" value="ContactTitle"/>
		<property name="defaultMask"/>
		<property name="kind" value="DIMENSION"/>
		<fieldDescription><![CDATA[customers.ContactTitle]]></fieldDescription>
	</field>
	<field name="customers.Country" class="java.lang.String">
		<property name="semantic.tree.uri" value="/customers/Country"/>
		<property name="adhoc.tree.uri" value="/customers/Country"/>
		<property name="resourceId" value="customers.Country"/>
		<property name="semantic.tree.sort.order" value="5"/>
		<property name="dimensionOrMeasure"/>
		<property name="semantic.item.desc.id" value=""/>
		<property name="defaultAgg"/>
		<property name="adhoc.display" value="Country"/>
		<property name="semantic.item.desc" value="Country"/>
		<property name="defaultMask"/>
		<property name="kind" value="DIMENSION"/>
		<fieldDescription><![CDATA[customers.Country]]></fieldDescription>
	</field>
	<field name="customers.CustomerID" class="java.lang.String">
		<property name="semantic.tree.uri" value="/customers/CustomerID"/>
		<property name="adhoc.tree.uri" value="/customers/CustomerID"/>
		<property name="resourceId" value="customers.CustomerID"/>
		<property name="semantic.tree.sort.order" value="6"/>
		<property name="dimensionOrMeasure"/>
		<property name="semantic.item.desc.id" value=""/>
		<property name="defaultAgg"/>
		<property name="adhoc.display" value="CustomerID"/>
		<property name="semantic.item.desc" value="CustomerID"/>
		<property name="defaultMask"/>
		<property name="kind" value="DIMENSION"/>
		<fieldDescription><![CDATA[customers.CustomerID]]></fieldDescription>
	</field>
	<field name="customers.Fax" class="java.lang.String">
		<property name="semantic.tree.uri" value="/customers/Fax"/>
		<property name="adhoc.tree.uri" value="/customers/Fax"/>
		<property name="resourceId" value="customers.Fax"/>
		<property name="semantic.tree.sort.order" value="7"/>
		<property name="dimensionOrMeasure"/>
		<property name="semantic.item.desc.id" value=""/>
		<property name="defaultAgg"/>
		<property name="adhoc.display" value="Fax"/>
		<property name="semantic.item.desc" value="Fax"/>
		<property name="defaultMask"/>
		<property name="kind" value="DIMENSION"/>
		<fieldDescription><![CDATA[customers.Fax]]></fieldDescription>
	</field>
	<field name="customers.Phone" class="java.lang.String">
		<property name="semantic.tree.uri" value="/customers/Phone"/>
		<property name="adhoc.tree.uri" value="/customers/Phone"/>
		<property name="resourceId" value="customers.Phone"/>
		<property name="semantic.tree.sort.order" value="8"/>
		<property name="dimensionOrMeasure"/>
		<property name="semantic.item.desc.id" value=""/>
		<property name="defaultAgg"/>
		<property name="adhoc.display" value="Phone"/>
		<property name="semantic.item.desc" value="Phone"/>
		<property name="defaultMask"/>
		<property name="kind" value="DIMENSION"/>
		<fieldDescription><![CDATA[customers.Phone]]></fieldDescription>
	</field>
	<field name="customers.PostalCode" class="java.lang.String">
		<property name="semantic.tree.uri" value="/customers/PostalCode"/>
		<property name="adhoc.tree.uri" value="/customers/PostalCode"/>
		<property name="resourceId" value="customers.PostalCode"/>
		<property name="semantic.tree.sort.order" value="9"/>
		<property name="dimensionOrMeasure"/>
		<property name="semantic.item.desc.id" value=""/>
		<property name="defaultAgg"/>
		<property name="adhoc.display" value="PostalCode"/>
		<property name="semantic.item.desc" value="PostalCode"/>
		<property name="defaultMask"/>
		<property name="kind" value="DIMENSION"/>
		<fieldDescription><![CDATA[customers.PostalCode]]></fieldDescription>
	</field>
	<field name="customers.Region" class="java.lang.String">
		<property name="semantic.tree.uri" value="/customers/Region"/>
		<property name="adhoc.tree.uri" value="/customers/Region"/>
		<property name="resourceId" value="customers.Region"/>
		<property name="semantic.tree.sort.order" value="10"/>
		<property name="dimensionOrMeasure"/>
		<property name="semantic.item.desc.id" value=""/>
		<property name="defaultAgg"/>
		<property name="adhoc.display" value="Region"/>
		<property name="semantic.item.desc" value="Region"/>
		<property name="defaultMask"/>
		<property name="kind" value="DIMENSION"/>
		<fieldDescription><![CDATA[customers.Region]]></fieldDescription>
	</field>
</jasperReport>
