supermart.inventory_fact_ALL.label=Bestand
supermart.inventory_fact_ALL.description=Umsatz und Kosten f\u00fcr Lager.\\nBestellte und versendete Einheiten.\\nLieferzeit und Rechnung der Filiale.
supermart.inventory_fact_2012.units_ordered.label=Bestellte Einheiten 2012
supermart.inventory_fact_2012.units_ordered.description=Bestellte Einheiten 2012
supermart.inventory_fact_2012.units_shipped.label=Versendete Einheiten 2012
supermart.inventory_fact_2012.units_shipped.description=Versendete Einheiten 2012
supermart.inventory_fact_2012.warehouse_sales.label=Lagerumsatz 2012
supermart.inventory_fact_2012.warehouse_sales.description=Lagerumsatz 2012
supermart.inventory_fact_2012.warehouse_cost.label=Lagerkosten 2012
supermart.inventory_fact_2012.warehouse_cost.description=Lagerkosten 2012
supermart.inventory_fact_2012.supply_time.label=Lieferzeit 2012
supermart.inventory_fact_2012.supply_time.description=Lieferzeit 2012
supermart.inventory_fact_2012.store_invoice.label=Rechnung der Filiale 2012
supermart.inventory_fact_2012.store_invoice.description=Rechnung der Filiale 2012
supermart.inventory_fact_2013.units_ordered.label=Bestellte Einheiten 2013
supermart.inventory_fact_2013.units_ordered.description=Bestellte Einheiten 2013
supermart.inventory_fact_2013.units_shipped.label=Versendete Einheiten 2013
supermart.inventory_fact_2013.units_shipped.description=Versendete Einheiten 2013
supermart.inventory_fact_2013.warehouse_sales.label=Lagerumsatz 2013
supermart.inventory_fact_2013.warehouse_sales.description=Lagerumsatz 2013
supermart.inventory_fact_2013.warehouse_cost.label=Lagerkosten 2013
supermart.inventory_fact_2013.warehouse_cost.description=Lagerkosten 2013
supermart.inventory_fact_2013.warehouse_profit.label=Lagergewinne 2013
supermart.inventory_fact_2013.warehouse_profit.description=Lagergewinne 2013
supermart.inventory_fact_2013.supply_time.label=Lieferzeit 2013
supermart.inventory_fact_2013.supply_time.description=Lieferzeit 2013
supermart.inventory_fact_2013.store_invoice.label=Rechnung der Filiale 2013
supermart.inventory_fact_2013.store_invoice.description=Rechnung der Filiale 2013
supermart.salary.label=Gehalt
supermart.salary.description=Gehalt, bezahlte \u00dcberstunden. Aufgelaufener und genommener Urlaub.
supermart.salary.pay_date.label=Zahlungsdatum
supermart.salary.pay_date.description=Zahlungsdatum
supermart.salary.salary_paid.label=Bezahltes Gehalt
supermart.salary.salary_paid.description=Bezahltes Gehalt
supermart.salary.overtime_paid.label=Bezahlte \u00dcberstunden
supermart.salary.overtime_paid.description=Bezahlte \u00dcberstunden
supermart.salary.vacation_accrued.label=Aufgelaufener Urlaub
supermart.salary.vacation_accrued.description=Aufgelaufener Urlaub
supermart.salary.vacation_used.label=Genommener Urlaub
supermart.salary.vacation_used.description=Genommener Urlaub
supermart.expense_fact.label=Ausgaben
supermart.expense_fact.description=Betrag und Datum der Ausgaben.
supermart.expense_fact.exp_date.label=Datum der Ausgaben
supermart.expense_fact.exp_date.description=Datum der Ausgaben
supermart.expense_fact.amount.label=Betrag der Ausgaben
supermart.expense_fact.amount.description=Betrag der Ausgaben
supermart.sales_fact_ALL.label=Umsatz
supermart.sales_fact_ALL.description=Umsatz
supermart.sales_fact_2012.store_sales.label=Filialumsatz 2012
supermart.sales_fact_2012.store_sales.description=Filialumsatz 2012
supermart.sales_fact_2012.store_cost.label=Filialkosten 2012
supermart.sales_fact_2012.store_cost.description=Filialkosten 2012
supermart.sales_fact_2012.unit_sales.label=Umsatzst\u00fcckzahlen 2012
supermart.sales_fact_2012.unit_sales.description=Umsatzst\u00fcckzahlen 2012
supermart.sales_fact_2013.store_sales.label=Filialumsatz 2013
supermart.sales_fact_2013.store_sales.description=Filialumsatz 2013
supermart.sales_fact_2013.store_cost.label=Filialkosten 2013
supermart.sales_fact_2013.store_cost.description=Filialkosten 2013
supermart.sales_fact_2013.unit_sales.label=Umsatzst\u00fcckzahlen 2013
supermart.sales_fact_2013.unit_sales.description=Umsatzst\u00fcckzahlen 2013
supermart.time_by_day.label=Zeit
supermart.time_by_day.description=Zeit nach Tag und Periode
supermart.time_by_day.the_date.label=Datum
supermart.time_by_day.the_date.description=Datum
supermart.time_by_day.the_day.label=Wochentag
supermart.time_by_day.the_day.description=Wochentag (Montag bis Sonntag)
supermart.time_by_day.the_month.label=Monat
supermart.time_by_day.the_month.description=Name des Monats (Januar bis Dezember)
supermart.time_by_day.the_year.label=Jahr
supermart.time_by_day.the_year.description=Jahr
supermart.time_by_day.day_of_month.label=Tag des Monats
supermart.time_by_day.day_of_month.description=Tag des Monats (1 bis 31)
supermart.time_by_day.week_of_year.label=Woche des Jahres
supermart.time_by_day.week_of_year.description=Woche des Jahres (1 bis 52)
supermart.time_by_day.month_of_year.label=Monat des Jahres
supermart.time_by_day.month_of_year.description=Monat des Jahres (1 bis 12)
supermart.time_by_day.quarter.label=Quartal
supermart.time_by_day.quarter.description=Quartal (Q1, Q2, Q3, Q4)
supermart.time_by_day.fiscal_period.label=Rechnungsperiode
supermart.time_by_day.fiscal_period.description=Rechnungsperiode
supermart.time_by_day.day_of_week.label=Wochentag
supermart.time_by_day.day_of_week.description=Wochentag (1 bis 7)
supermart.store.label=Filialen
supermart.store.description=Filialen
supermart.store.store_type.label=Filialtyp
supermart.store.store_type.description=Filialtyp (Hauptsitz, Klein, Mittel, Deluxe, Feinkost-Supermarkt)
supermart.store.store_name.label=Filialname
supermart.store.store_name.description=Filialname (Hauptsitz, Filiale 1 bis Filiale 24)
supermart.store_contact.label=Kontakt f\u00fcr Filiale
supermart.store_contact.description=Kontaktinformationen f\u00fcr Filiale
supermart.store.store_number.description=Filialnummer
supermart.store.store_number.description=Filialnummer (1 bis 24)
supermart.store.store_street_address.label=Adresse der Filiale
supermart.store.store_street_address.description=Adresse der Filiale
supermart.store.store_city.label=Ort
supermart.store.store_city.description=Ort der Filiale
supermart.store.store_state.label=Bundesland/Kanton
supermart.store.store_state.description=Bundesland/Kanton der Filiale
supermart.store.store_postal_code.label=Postleitzahl
supermart.store.store_postal_code.description=Postleitzahl der Filiale
supermart.store.store_country.label=Land
supermart.store.store_country.description=Land der Filiale
supermart.store.store_manager.label=Gesch\u00e4ftsf\u00fchrer
supermart.store.store_manager.description=Gesch\u00e4ftsf\u00fchrer der Filiale
supermart.store.store_phone.label=Telefon
supermart.store.store_phone.description=Telefonnummer der Filiale
supermart.store.store_fax.label=Fax
supermart.store.store_fax.description=Faxnummer der Filiale
supermart.region.label=Regionen
supermart.region.description=Vertriebsregionen
supermart.region.sales_city.label=Ort
supermart.region.sales_city.description=Vertriebsort
supermart.region.sales_state_province.label=Bundesland
supermart.region.sales_state_province.description=Bundesland/Kanton f\u00fcr Vertrieb
supermart.region.sales_district.label=Gebiet
supermart.region.sales_district.description=Vertriebsgebiet
supermart.region.sales_region.label=Region
supermart.region.sales_region.description=Vertriebsregion
supermart.region.sales_country.label=Land
supermart.region.sales_country.description=Vertriebsland
supermart.store_features.label=Filialmerkmale
supermart.store_features.description=Spezielle Merkmale und Leistungen der Filiale
supermart.store.first_opened_date.label=Er\u00f6ffnungsdatum
supermart.store.first_opened_date.description=Datum der Er\u00f6ffnung der Filiale
supermart.store.last_remodel_date.label=Umbaudatum
supermart.store.last_remodel_date.description=Datum des letzten Umbaus der Filiale
supermart.store.store_sqft.label=Quadratfu\u00df
supermart.store.store_sqft.description=Gesamtfl\u00e4che der Filiale in Quadratfu\u00df
supermart.store.grocery_sqft.label=Quadratfu\u00df Lebensmittel
supermart.store.grocery_sqft.description=Fl\u00e4che der Lebensmittelabteilung in Quadratfu\u00df
supermart.store.frozen_sqft.label=Quadratfu\u00df TK-Kost
supermart.store.frozen_sqft.description=Fl\u00e4che der Tiefk\u00fchlabteilung in Quadratfu\u00df
supermart.store.meat_sqft.label=Quadratfu\u00df Fleisch
supermart.store.meat_sqft.description=Fl\u00e4che der Fleischwarenabteilung in Quadratfu\u00df
supermart.store.coffee_bar.label=Caf\u00e9
supermart.store.coffee_bar.description=Caf\u00e9 (Nein=0, Ja=1)
supermart.store.video_store.label=Videothek
supermart.store.video_store.description=Videothek (Nein=0, Ja=1)
supermart.store.salad_bar.label=Salattheke
supermart.store.salad_bar.description=Salattheke (Nein=0, Ja=1)
supermart.store.prepared_food.label=Fertiggerichte
supermart.store.prepared_food.description=Fertiggerichte (Nein=0, Ja=1)
supermart.store.florist.label=Florist
supermart.store.florist.description=Florist (Nein=0, Ja=1)
supermart.account.label=Buchhaltung
supermart.account.description=Buchungsarten und Beschreibungen
supermart.account.account_description.label=Kontenbeschreibung
supermart.account.account_description.description=Beschreibungen f\u00fcr Aktivkonto, Passivkonto, Ertragskonto und Aufwandskonto
supermart.account.account_type.label=Kontotyp
supermart.account.account_type.description=Kontotyp (Aktiv-, Passiv-, Ertrags-, Aufwandskonto)
supermart.category.category_id.label=Kategorie-ID
supermart.category.category_id.description=Buchungskategorie-ID (Ist, Korrektur, Haushalt, Prognose)
supermart.category.category_description.label=Kategoriebeschreibung
supermart.category.category_description.description=Kategoriebeschreibung
supermart.currency.date.label=W\u00e4hrungsdatum
supermart.currency.date.description=Datum des W\u00e4hrungsumtauschs zum Wechselkurs
supermart.currency.currency.label=W\u00e4hrung
supermart.currency.currency.description=W\u00e4hrung (US-Dollar, Euro, Kanadischer Dollar)
supermart.currency.conversion_ratio.label=Wechselkurs
supermart.currency.conversion_ratio.description=Wechselkurs (1=1 US-Dollar)
supermart.employee.label=Mitarbeiter
supermart.employee.description=Informationen zu Mitarbeiterkontakt und Personalwesen
supermart.employee.employee_id.label=Mitarbeiter-ID
supermart.employee.employee_id.description=Mitarbeiter-ID
supermart.employee.full_name.label=Vollst\u00e4ndiger Name
supermart.employee.full_name.description=Vollst\u00e4ndiger Name des Mitarbeiters
supermart.employee.first_name.label=Vorname
supermart.employee.first_name.description=Vorname des Mitarbeiters
supermart.employee.last_name.label=Nachname
supermart.employee.last_name.description=Nachname des Mitarbeiters
supermart.department.department_description.label=Abteilung
supermart.department.department_description.description=Abteilung
supermart.employee.position_title.label=Position
supermart.employee.position_title.description=Position
supermart.employee.management_role.label=Managementposition
supermart.employee.management_role.description=Managementposition (Unternehmensf\u00fchrung/Filiale/Mittleres Management; Vollzeit/Teilzeit und Zeitarbeit)
supermart.employee.hire_date.label=Einstellungsdatum
supermart.employee.hire_date.description=Einstellungsdatum des Mitarbeiters
supermart.employee.end_date.label=Enddatum
supermart.employee.end_date.description=Datum des Ausscheidens des Mitarbeiters
supermart.employee_private.label=Angaben zur Person
supermart.employee_private.labeldescription=Pers\u00f6nliche Informationen zum Mitarbeiter f\u00fcr Personalverwaltung
supermart.employee.birth_date.label=Geburtsdatum
supermart.employee.birth_date.description=Geburtsdatum des Mitarbeiters
supermart.employee.salary.label=Gehalt
supermart.employee.salary.description=Gehalt des Mitarbeiters
supermart.employee.education_level.label=Ausbildung
supermart.employee.education_level.description=Ausbildung/Abschl\u00fcsse des Mitarbeiters
supermart.employee.marital_status.label=Ehestand
supermart.employee.marital_status.description=Ehestand des Mitarbeiters
supermart.employee.gender.label=Geschlecht
supermart.employee.gender.description=Geschlecht des Mitarbeiters
supermart.position.pay_type.label=Zahlungsmodus
supermart.position.pay_type.description=Zahlungsmodus f\u00fcr Gehalt (Monatlich)
supermart.position.min_scale.label=Mindesttarif
supermart.position.min_scale.description=Tarif f\u00fcr Position - Mindesttarif
supermart.position.max_scale.label=H\u00f6chsttarif
supermart.position.max_scale.description=Tarif f\u00fcr Position - H\u00f6chsttarif
supermart.currency.date.label=W\u00e4hrungsdatum
supermart.currency.date.description=W\u00e4hrungsdatum
supermart.currency.currency.label=W\u00e4hrung
supermart.currency.currency.description=W\u00e4hrung (US-Dollar, Euro, Kanadischer Dollar)
supermart.currency.conversion_ratio.label=Wechselkurs
supermart.currency.conversion_ratio.description=Wechselkurs f\u00fcr W\u00e4hrung (1=1 US-Dollar)
supermart.warehouse.label=Lager
supermart.warehouse.description=Lager
supermart.warehouse.warehouse_name.label=Name
supermart.warehouse.warehouse_name.description=Name des Lagers
supermart.warehouse_class.description.label=Klassenbeschreibung
supermart.warehouse_class.description.description=Beschreibung der Lagerklasse
supermart.warehouse_contact.label=Kontakt f\u00fcr Lager
supermart.warehouse_contact.description=Kontaktinformationen f\u00fcr Lager
supermart.warehouse.wa_address1.label=Adresse1 
supermart.warehouse.wa_address1.description=Lageradresse 1
supermart.warehouse.wa_address2.label=Adresse2
supermart.warehouse.wa_address2.description=Lageradresse 2
supermart.warehouse.wa_address3.label=Adresse3
supermart.warehouse.wa_address3.description=Lageradresse 3
supermart.warehouse.wa_address4.label=Adresse4
supermart.warehouse.wa_address4.description=Lageradresse 4
supermart.warehouse.warehouse_city.label=Ort
supermart.warehouse.warehouse_city.description=Ort des Lagers
supermart.warehouse.warehouse_state_province.label=Bundesland/Kanton
supermart.warehouse.warehouse_state_province.description=Bundesland/Kanton des Lagers
supermart.warehouse.warehouse_postal_code.label=Postleitzahl
supermart.warehouse.warehouse_postal_code.description=Postleitzahl des Lagers
supermart.warehouse.warehouse_country.label=Land
supermart.warehouse.warehouse_country.description=Land des Lagers
supermart.warehouse.warehouse_owner_name.label=Besitzer
supermart.warehouse.warehouse_owner_name.description=Name des Lagerbesitzers
supermart.warehouse.warehouse_phone.label=Telefon
supermart.warehouse.warehouse_phone.description=Telefonnummer f\u00fcr das Lager
supermart.warehouse.warehouse_fax.label=Fax
supermart.warehouse.warehouse_fax.description=Faxnummer f\u00fcr das Lager
supermart.customer.label=Kunden
supermart.customer.description=Kunden
supermart.customer.account_num.label=Kontonummer
supermart.customer.account_num.description=Kontonummer des Kunden
supermart.customer.lname.label=Nachname
supermart.customer.lname.description=Nachname des Kunden
supermart.customer.fname.label=Vorname
supermart.customer.fname.description=Vorname des Kunden
supermart.customer.mi.label=MI
supermart.customer.mi.description=Mittelinitiale des Kunden
supermart.customer.customer_contact.label=Kundenkontakt
supermart.customer.customer_contact.description=Kontaktinformationen f\u00fcr den Kunden
supermart.customer.address1.label=Adresse1
supermart.customer.address1.description=Kundenadresse 1
supermart.customer.address2.label=Adresse2
supermart.customer.address2.description=Kundenadresse 2
supermart.customer.address3.label=Adresse3
supermart.customer.address3.description=Kundenadresse 3
supermart.customer.address4.label=Adresse4
supermart.customer.address4.description=Kundenadresse 4
supermart.customer.city.label=Ort
supermart.customer.city.description=Ort des Kunden
supermart.customer.state_province.label=Bundesland/Kanton
supermart.customer.state_province.description=Bundesland/Kanton des Kunden
supermart.customer.postal_code.label=Postleitzahl
supermart.customer.postal_code.description=Postleitzahl des Kunden
supermart.customer.country.label=Land
supermart.customer.country.description=Land des Kunden
supermart.customer.phone1.label=Telefon1
supermart.customer.phone1.description=Kundentelefonnummer 1
supermart.customer.phone2.label=Telefon2
supermart.customer.phone2.description=Kundentelefonnummer 2
supermart.customer.birthdate.label=Geburtsdatum
supermart.customer.birthdate.description=Geburtsdatum des Kunden
supermart.customer.marital_status.label=Ehestand
supermart.customer.marital_status.description=Ehestand des Kunden
supermart.customer.yearly_income.label=Jahreseinkommen
supermart.customer.yearly_income.description=Jahreseinkommen des Kunden
supermart.customer.gender.label=Geschlecht
supermart.customer.gender.description=Geschlecht des Kunden
supermart.customer.total_children.label=Anzahl der Kinder
supermart.customer.total_children.description=Gesamtzahl der Kinder des Kunden
supermart.customer.num_children_at_home.label=Kinder im Haushalt
supermart.customer.num_children_at_home.description=Anzahl der Kinder im Haushalt des Kunden
supermart.customer.education.label=Ausbildung
supermart.customer.education.description=Ausbildung/Abschl\u00fcsse des Kunden
supermart.customer.date_accnt_opened.label=Datum der Kontoer\u00f6ffnung
supermart.customer.date_accnt_opened.description=Datum der Kontoer\u00f6ffnung f\u00fcr den Kunden
supermart.customer.member_card.label=Mitgliedskarte
supermart.customer.member_card.description=Stufe der Mitgliedskarte (Normal, Bronze, Silber, Gold)
supermart.customer.occupation.label=Beruf
supermart.customer.occupation.description=Beruf/Erwerbst\u00e4tigkeit des Kunden
supermart.customer.houseowner.label=Hausbesitzer
supermart.customer.houseowner.description=Kunde ist Hausbesitzer (J | N)
supermart.customer.num_cars_owned.label=Anzahl KFZ
supermart.customer.num_cars_owned.description=Anzahl der KFZ des Kunden
supermart.customer.fullname.label=Vollst\u00e4ndiger Name
supermart.customer.fullname.description=Vollst\u00e4ndiger Name des Kunden
supermart.product.label=Produkte
supermart.product.description=Produkte
supermart.product.brand_name.label=Marke
supermart.product.brand_name.description=Markenname
supermart.product.product_name.label=Produktname
supermart.product.product_name.description=Produktname
supermart.product.SKU.label=SKU
supermart.product.SKU.description=Bestandseinheit
supermart.product.SRP.label=UVP
supermart.product.SRP.description=Unverbindlicher Verkaufspreis
supermart.product.gross_weight.label=Bruttogewicht
supermart.product.gross_weight.description=Bruttogewicht
supermart.product.net_weight.label=Nettogewicht
supermart.product.net_weight.description=Nettogewicht
supermart.product.recyclable_package.label=Wiederverwertbare Verpackung
supermart.product.recyclable_package.description=Wiederverwertbare Verpackung (Nein=0, Ja=1)
supermart.product.low_fat.label=Fettarm
supermart.product.low_fat.description=Fettarmes Produkt (Nein=0, Ja=1)
supermart.product.units_per_case.label=St\u00fcck pro Karton
supermart.product.units_per_case.description=St\u00fcck pro Karton
supermart.product.cases_per_pallet.label=Kartons pro Palette
supermart.product.cases_per_pallet.description=Kartons pro Palette
supermart.product.shelf_width.label=Regalbreite
supermart.product.shelf_width.description=Regalbreite
supermart.product.shelf_height.label=Regalh\u00f6he
supermart.product.shelf_height.description=Regalh\u00f6he
supermart.product.shelf_depth.label=Regaltiefe
supermart.product.shelf_depth.description=Regaltiefe
supermart.product_class.label=Produktklasse
supermart.product_class.description=Produktklassifikation nach Produktfamilie, -abteilung, -kategorie und -unterkategorie
supermart.product_class.product_subcategory.label=Unterkategorie
supermart.product_class.product_subcategory.description=Produktunterkategorie (Milch, Joghurt, Sahne, K\u00e4se usw.)
supermart.product_class.product_category.label=Kategorie
supermart.product_class.product_category.description=Produktkategorie (Molkereiprodukte, Obst usw.) verdichtet bis zur Abteilung
supermart.product_class.product_department.label=Abteilung
supermart.product_class.product_department.description=Produktabteilung (Molkereiprodukte, Konserven usw.) verdichtet bis zur Produktfamilie
supermart.product_class.product_family.label=Produktfamilie
supermart.product_class.product_family.description=Produktfamilie (Nahrungsmittel, Getr\u00e4nke, Verbrauchsartikel), h\u00f6chste Ebene
supermart.promotion.label=Aktionen
supermart.promotion.description=Aktionen
supermart.promotion.promotion_name.label=Aktionsname
supermart.promotion.promotion_name.description=Aktionsname
supermart.promotion.media_type.label=Medientyp
supermart.promotion.media_type.description=Medientyp f\u00fcr verkaufsf\u00f6rdernde Aktion (Fernsehen, Radio, Zeitung, Gutschein in Filiale usw.)
supermart.promotion.cost.label=Kosten
supermart.promotion.cost.description=Kosten der Aktion
supermart.promotion.start_date.label=Startdatum
supermart.promotion.start_date.description=Startdatum des Aktionszeitraums
supermart.promotion.end_date.label=Enddatum
supermart.promotion.end_date.description=Enddatum des Aktionszeitraums
