AUDIT_JOIN1.LABEL=General Audit
AUDIT_JOIN1.DESCR=General Audit
AUDIT_JOIN1.AUDIT_EVENT_GROUP.LABEL=Audit Events
AUDIT_JOIN1.AUDIT_EVENT_GROUP.DESCR=Audit Events
AUDIT_JOIN1.AUDIT_EVENT_GROUP.EVENT_DATE.DESCR=Date
AUDIT_JOIN1.AUDIT_EVENT_GROUP.EVENT_DATE.LABEL=Date
AUDIT_JOIN1.AUDIT_EVENT_GROUP.EVENT_DATE_BETWEEN.LABEL=Date between
AUDIT_JOIN1.AUDIT_EVENT_GROUP.EVENT_TIME.DESCR=Time
AUDIT_JOIN1.AUDIT_EVENT_GROUP.EVENT_TIME.LABEL=Time
AUDIT_JOIN1.AUDIT_EVENT_GROUP.EVENT_TYPE.DESCR=Event Type
AUDIT_JOIN1.AUDIT_EVENT_GROUP.EVENT_TYPE.LABEL=Event Type
AUDIT_JOIN1.AUDIT_EVENT_GROUP.REQUEST_TYPE.DESCR=Request Type
AUDIT_JOIN1.AUDIT_EVENT_GROUP.REQUEST_TYPE.LABEL=Request Type
AUDIT_JOIN1.AUDIT_EVENT_GROUP.RESOURCE_URI.DESCR=Resource URI
AUDIT_JOIN1.AUDIT_EVENT_GROUP.RESOURCE_URI.LABEL=Resource URI
AUDIT_JOIN1.AUDIT_EVENT_GROUP.RESOURCE_TYPE.DESCR=Resource Type
AUDIT_JOIN1.AUDIT_EVENT_GROUP.RESOURCE_TYPE.LABEL=Resource Type
AUDIT_JOIN1.AUDIT_EVENT_GROUP.PROPERTY_TYPE.DESCR=Prop Type
AUDIT_JOIN1.AUDIT_EVENT_GROUP.PROPERTY_TYPE.LABEL=Prop Type
AUDIT_JOIN1.AUDIT_EVENT_GROUP.PROPERTY_VALUE.DESCR=Prop Value
AUDIT_JOIN1.AUDIT_EVENT_GROUP.PROPERTY_VALUE.LABEL=Prop Value
AUDIT_JOIN1.AUDIT_EVENT_GROUP.PROPERTY_CLOB_VALUE.DESCR=Prop Long Value
AUDIT_JOIN1.AUDIT_EVENT_GROUP.PROPERTY_CLOB_VALUE.LABEL=Prop Long Value
AUDIT_JOIN1.USER_GROUP.DESCR=User
AUDIT_JOIN1.USER_GROUP.LABEL=User
AUDIT_JOIN1.USER_GROUP.USERNAME.DESCR=User Name
AUDIT_JOIN1.USER_GROUP.USERNAME.LABEL=User Name
AUDIT_JOIN1.USER_GROUP.TENANT_ID.DESCR=Organization
AUDIT_JOIN1.USER_GROUP.TENANT_ID.LABEL=Organization
AUDIT_JOIN1.USER_GROUP.FULLNAME.DESCR=Full Name
AUDIT_JOIN1.USER_GROUP.FULLNAME.LABEL=Full Name
AUDIT_JOIN1.USER_GROUP.ENABLED.DESCR=Enabled
AUDIT_JOIN1.USER_GROUP.ENABLED.LABEL=Enabled
AUDIT_JOIN1.USER_GROUP.EMAIL.DESCR=E-mail
AUDIT_JOIN1.USER_GROUP.EMAIL.LABEL=E-mail
AUDIT_JOIN1.USER_GROUP.EXTERNALLY_DEFINED.DESCR=External
AUDIT_JOIN1.USER_GROUP.EXTERNALLY_DEFINED.LABEL=External
AUDIT_JOIN1.USER_GROUP.PASSWORD_CHANGE_TIME.DESCR=Password Changed
AUDIT_JOIN1.USER_GROUP.PASSWORD_CHANGE_TIME.LABEL=Password Changed
AUDIT_JOIN1.ROLES_GROUP.DESCR=Role
AUDIT_JOIN1.ROLES_GROUP.LABEL=Role
AUDIT_JOIN1.ROLES_GROUP.ROLENAME.DESCR=Role Name
AUDIT_JOIN1.ROLES_GROUP.ROLENAME.LABEL=Role Name
AUDIT_JOIN1.ROLES_GROUP.TENANT_ID.DESCR=Organization
AUDIT_JOIN1.ROLES_GROUP.TENANT_ID.LABEL=Organization
AUDIT_JOIN1.ROLES_GROUP.EXTERNALLY_DEFINED.DESCR=External
AUDIT_JOIN1.ROLES_GROUP.EXTERNALLY_DEFINED.LABEL=External
AUDIT_JOIN2.DESCR=Audit for running reports
AUDIT_JOIN2.LABEL=Audit for running reports
AUDIT_JOIN2.DATE.DESCR=Date
AUDIT_JOIN2.DATE.LABEL=Date
AUDIT_JOIN2.TIME.DESCR=Time
AUDIT_JOIN2.TIME.LABEL=Time
AUDIT_JOIN2.RESOURCE_URI.DESCR=Resource URI
AUDIT_JOIN2.RESOURCE_URI.LABEL=Resource URI
AUDIT_JOIN2.RESOURCE_TYPE.DESCR=Resource Type
AUDIT_JOIN2.RESOURCE_TYPE.LABEL=Resource Type
AUDIT_JOIN2.DATASOURCE_URI.DESCR=Datasource URI
AUDIT_JOIN2.DATASOURCE_URI.LABEL=Datasource URI
AUDIT_JOIN2.QUERY_EXEC_TIME.DESCR=Query Execution Time
AUDIT_JOIN2.QUERY_EXEC_TIME.LABEL=Query Execution Time
AUDIT_JOIN2.REPORT_RENDER_TIME.DESCR=Report Rendering Time
AUDIT_JOIN2.REPORT_RENDER_TIME.LABEL=Report Rendering Time
AUDIT_JOIN2.REPORT_EXEC_TIME.DESCR=Report Execution Time
AUDIT_JOIN2.REPORT_EXEC_TIME.LABEL=Report Execution Time
AUDIT_JOIN2.QUERY.DESCR=Query
AUDIT_JOIN2.QUERY.LABEL=Query
AUDIT_JOIN2.USERNAME.DESCR=User Name
AUDIT_JOIN2.USERNAME.LABEL=User Name
AUDIT_JOIN2.TENANT_ID.DESCR=Organization
AUDIT_JOIN2.TENANT_ID.LABEL=Organization
AUDIT_JOIN2.CROSSTABGROUP.DESCR=Crosstab Group Field
AUDIT_JOIN2.CROSSTABGROUP.LABEL=Crosstab Group Field