<unifiedState filterPanelShowing="true" hasMargins="true" ignoreMaxRows="true" initedSubFilterList="true" launchType="ADH_045a_DOMAIN" maxDisplayColumns="0" maxDisplayRows="0" maxRowChoices="0" maxRows="100" mode="crosstab" pageOrientation="Landscape" paperSize="letter" showTableDetails="true" theme="default" titleBarShowing="true" titleHeight="40" topicName="Audit Archive Domain">
  <chartState availableChartHeight="0" availableChartWidth="0" backgroundFilled="true" chartHeight="0" chartIsVertical="true" chartWidth="0" displayXAxisLabel="true" displayYAxisLabel="false" offsetX="0" offsetY="0">
    <chartTitle />
    <chartType>1_bar</chartType>
    <displayLegendMap>
      <entry key="3_line">
        <boolean>true</boolean>
      </entry>
      <entry key="6_timeSeries">
        <boolean>true</boolean>
      </entry>
      <entry key="2_pie">
        <boolean>false</boolean>
      </entry>
      <entry key="1_bar">
        <boolean>true</boolean>
      </entry>
      <entry key="5_scatter">
        <boolean>true</boolean>
      </entry>
      <entry key="4_area">
        <boolean>true</boolean>
      </entry>
    </displayLegendMap>
    <gradient>topDown</gradient>
    <hasLinesMap>
      <entry key="3_line">
        <boolean>true</boolean>
      </entry>
      <entry key="6_timeSeries">
        <boolean>true</boolean>
      </entry>
      <entry key="2_pie">
        <boolean>false</boolean>
      </entry>
      <entry key="1_bar">
        <boolean>false</boolean>
      </entry>
      <entry key="5_scatter">
        <boolean>false</boolean>
      </entry>
      <entry key="4_area">
        <boolean>false</boolean>
      </entry>
    </hasLinesMap>
    <hasPointsMap>
      <entry key="3_line">
        <boolean>true</boolean>
      </entry>
      <entry key="6_timeSeries">
        <boolean>false</boolean>
      </entry>
      <entry key="2_pie">
        <boolean>false</boolean>
      </entry>
      <entry key="1_bar">
        <boolean>false</boolean>
      </entry>
      <entry key="5_scatter">
        <boolean>true</boolean>
      </entry>
      <entry key="4_area">
        <boolean>false</boolean>
      </entry>
    </hasPointsMap>
    <stackedMap>
      <entry key="3_line">
        <boolean>false</boolean>
      </entry>
      <entry key="6_timeSeries">
        <boolean>false</boolean>
      </entry>
      <entry key="2_pie">
        <boolean>false</boolean>
      </entry>
      <entry key="1_bar">
        <boolean>false</boolean>
      </entry>
      <entry key="5_scatter">
        <boolean>false</boolean>
      </entry>
      <entry key="4_area">
        <boolean>false</boolean>
      </entry>
    </stackedMap>
    <threeDMap>
      <entry key="3_line">
        <boolean>true</boolean>
      </entry>
      <entry key="6_timeSeries">
        <boolean>true</boolean>
      </entry>
      <entry key="2_pie">
        <boolean>true</boolean>
      </entry>
      <entry key="1_bar">
        <boolean>true</boolean>
      </entry>
      <entry key="5_scatter">
        <boolean>true</boolean>
      </entry>
      <entry key="4_area">
        <boolean>true</boolean>
      </entry>
    </threeDMap>
  </chartState>
  <crosstabState numberOfColumns="3" safeColumnMode="true" safeRowMode="true" showLabels="true">
    <columnGroups>
      <queryDimension categorizerName="all" fieldDisplay="Crosstab Group Field" fieldDisplayExpression="$R{AUDIT_JOIN2.CROSSTABGROUP.LABEL}" includeAll="true" name="audit_join2.crosstabGroupField" type="java.lang.String" uniqueName="audit_join2.crosstabGroupField">
        <visibleLevels>
          <string>audit_join2.crosstabGroupField</string>
        </visibleLevels>
      </queryDimension>
    </columnGroups>
    <rowGroups>
      <queryDimension categorizerName="all" fieldDisplay="Resource URI" fieldDisplayExpression="Resource URI" includeAll="true" name="audit_join2.resource_org_uri2" type="java.lang.String" uniqueName="audit_join2.resource_org_uri2">
        <visibleLevels>
          <string>audit_join2.resource_org_uri2</string>
        </visibleLevels>
      </queryDimension>
      <queryDimension fieldDisplay="Measures" fieldDisplayExpression="Measures" includeAll="true" name="Measures" type="java.lang.String" uniqueName="Measures">
        <visibleLevels>
          <string>Measures</string>
        </visibleLevels>
      </queryDimension>
    </rowGroups>
  </crosstabState>
  <groups>
    <queryDimension categorizerName="all" fieldDisplay="Resource URI" fieldDisplayExpression="Resource URI" includeAll="true" name="audit_join2.resource_org_uri2" type="java.lang.String" uniqueName="audit_join2.resource_org_uri2">
      <visibleLevels>
        <string>audit_join2.resource_org_uri2</string>
      </visibleLevels>
    </queryDimension>
    <queryDimension fieldDisplay="Measures" fieldDisplayExpression="Measures" includeAll="true" name="Measures" type="java.lang.String" uniqueName="Measures">
      <visibleLevels>
        <string>Measures</string>
      </visibleLevels>
    </queryDimension>
  </groups>
  <measures>
    <measure function="Sum" functionMask="#,##0" mask="#,##0" name="audit_join2.queryExecutionTime" type="java.lang.Integer" width="125" />
    <measure function="Sum" functionMask="#,##0" mask="#,##0" name="audit_join2.reportExecutionTime" type="java.lang.Integer" width="125" />
    <measure function="Sum" functionMask="#,##0" mask="#,##0" name="audit_join2.reportRenderingTime" type="java.lang.Integer" width="125" />
  </measures>
  <propertyMap>
    <entry key="EnableUnrolledDimensionDataStrategy">
      <string>true</string>
    </entry>
    <entry key="hideEmptyRows">
      <string>false</string>
    </entry>
    <entry key="ADHOC_VERSION">
      <string>4.5.0</string>
    </entry>
    <entry key="hasMargins">
      <string>true</string>
    </entry>
  </propertyMap>
  <subFilterList>
    <subFilter id="filter_1" sourceString="DYNAMIC">
      <expressionString>isAnyValue(audit_join2.resource_org_type2)</expressionString>
      <parameterizedExpressionString>audit_join2.resource_org_type2 in resource_org_type2_1</parameterizedExpressionString>
    </subFilter>
  </subFilterList>
  <title>Performance Crosstab Report</title>
</unifiedState>