<?xml version="1.0" encoding="UTF-8"?>
<schema xmlns="http://www.jaspersoft.com/2007/SL/XMLSchema" version="1.0">
  <itemGroups>
    <itemGroup description="customers" descriptionId="" id="customers" label="customers" labelId="" resourceId="customers">
      <items>
        <item description="Address" descriptionId="" id="Address" label="Address" labelId="" resourceId="customers.Address" />
        <item description="City" descriptionId="" id="City" label="City" labelId="" resourceId="customers.City" />
        <item description="CompanyName" descriptionId="" id="CompanyName" label="CompanyName" labelId="" resourceId="customers.CompanyName" />
        <item description="ContactName" descriptionId="" id="ContactName" label="ContactName" labelId="" resourceId="customers.ContactName" />
        <item description="ContactTitle" descriptionId="" id="ContactTitle" label="ContactTitle" labelId="" resourceId="customers.ContactTitle" />
        <item description="Country" descriptionId="" id="Country" label="Country" labelId="" resourceId="customers.Country" />
        <item description="CustomerID" descriptionId="" id="CustomerID" label="CustomerID" labelId="" resourceId="customers.CustomerID" />
        <item description="Fax" descriptionId="" id="Fax" label="Fax" labelId="" resourceId="customers.Fax" />
        <item description="Phone" descriptionId="" id="Phone" label="Phone" labelId="" resourceId="customers.Phone" />
        <item description="PostalCode" descriptionId="" id="PostalCode" label="PostalCode" labelId="" resourceId="customers.PostalCode" />
        <item description="Region" descriptionId="" id="Region" label="Region" labelId="" resourceId="customers.Region" />
      </items>
    </itemGroup>
  </itemGroups>
  <resources>
    <jdbcTable id="customers" datasourceId="genfare" tableName="customers">
      <fieldList>
        <field id="Address" type="java.lang.String" />
        <field id="City" type="java.lang.String" />
        <field id="CompanyName" type="java.lang.String" />
        <field id="ContactName" type="java.lang.String" />
        <field id="ContactTitle" type="java.lang.String" />
        <field id="Country" type="java.lang.String" />
        <field id="CustomerID" type="java.lang.String" />
        <field id="Fax" type="java.lang.String" />
        <field id="Phone" type="java.lang.String" />
        <field id="PostalCode" type="java.lang.String" />
        <field id="Region" type="java.lang.String" />
      </fieldList>
    </jdbcTable>
  </resources>
</schema>

