<unifiedState filterPanelShowing="true" hasMargins="true" ignoreMaxRows="true" initedSubFilterList="true" launchType="ADH_045a_DOMAIN" maxDisplayColumns="0" maxDisplayRows="0" maxRowChoices="0" maxRows="100" mode="crosstab" pageOrientation="Landscape" paperSize="content" showTableDetails="true" showTableTotals="false" summaryRowTitle="Totals" theme="default" titleBarShowing="true" titleHeight="40" topicName="Report Monitoring Domain">
  <chartState availableChartHeight="0" availableChartWidth="0" backgroundFilled="false" chartHeight="0" chartIsVertical="true" chartWidth="0" displayXAxisLabel="true" displayYAxisLabel="false" offsetX="0" offsetY="0">
    <chartTitle />
    <chartType>1_bar</chartType>
    <displayLegendMap>
      <entry key="5_scatter">
        <boolean>true</boolean>
      </entry>
      <entry key="2_pie">
        <boolean>false</boolean>
      </entry>
      <entry key="6_timeSeries">
        <boolean>true</boolean>
      </entry>
      <entry key="3_line">
        <boolean>true</boolean>
      </entry>
      <entry key="1_bar">
        <boolean>true</boolean>
      </entry>
      <entry key="4_area">
        <boolean>true</boolean>
      </entry>
    </displayLegendMap>
    <gradient>topDown</gradient>
    <hasLinesMap>
      <entry key="5_scatter">
        <boolean>false</boolean>
      </entry>
      <entry key="2_pie">
        <boolean>false</boolean>
      </entry>
      <entry key="6_timeSeries">
        <boolean>true</boolean>
      </entry>
      <entry key="3_line">
        <boolean>true</boolean>
      </entry>
      <entry key="1_bar">
        <boolean>false</boolean>
      </entry>
      <entry key="4_area">
        <boolean>false</boolean>
      </entry>
    </hasLinesMap>
    <hasPointsMap>
      <entry key="5_scatter">
        <boolean>true</boolean>
      </entry>
      <entry key="2_pie">
        <boolean>false</boolean>
      </entry>
      <entry key="6_timeSeries">
        <boolean>false</boolean>
      </entry>
      <entry key="3_line">
        <boolean>true</boolean>
      </entry>
      <entry key="1_bar">
        <boolean>false</boolean>
      </entry>
      <entry key="4_area">
        <boolean>false</boolean>
      </entry>
    </hasPointsMap>
    <stackedMap>
      <entry key="5_scatter">
        <boolean>false</boolean>
      </entry>
      <entry key="2_pie">
        <boolean>false</boolean>
      </entry>
      <entry key="6_timeSeries">
        <boolean>false</boolean>
      </entry>
      <entry key="3_line">
        <boolean>false</boolean>
      </entry>
      <entry key="1_bar">
        <boolean>false</boolean>
      </entry>
      <entry key="4_area">
        <boolean>false</boolean>
      </entry>
    </stackedMap>
    <threeDMap>
      <entry key="5_scatter">
        <boolean>true</boolean>
      </entry>
      <entry key="2_pie">
        <boolean>true</boolean>
      </entry>
      <entry key="6_timeSeries">
        <boolean>true</boolean>
      </entry>
      <entry key="3_line">
        <boolean>true</boolean>
      </entry>
      <entry key="1_bar">
        <boolean>true</boolean>
      </entry>
      <entry key="4_area">
        <boolean>true</boolean>
      </entry>
    </threeDMap>
  </chartState>
  <crosstabState numberOfColumns="4" safeColumnMode="true" safeRowMode="true" showLabels="true">
    <columnGroups>
      <queryDimension fieldDisplay="Measures" fieldDisplayExpression="Measures" includeAll="true" name="Measures" sortStatus="0" type="java.lang.String">
        <visibleLevels>
          <string>Measures</string>
        </visibleLevels>
      </queryDimension>
    </columnGroups>
    <rowGroups>
      <queryDimension categorizerName="all" fieldDisplay="Report URI" fieldDisplayExpression="Report URI" includeAll="true" name="jireportmonitoringfact.report_uri" sortStatus="0" type="java.lang.String">
        <visibleLevels>
          <string>jireportmonitoringfact.report_uri</string>
        </visibleLevels>
      </queryDimension>
    </rowGroups>
    <sortingState />
  </crosstabState>
  <groups>
    <queryDimension categorizerName="all" fieldDisplay="Report URI" fieldDisplayExpression="Report URI" includeAll="true" name="jireportmonitoringfact.report_uri" sortStatus="0" type="java.lang.String">
      <visibleLevels>
        <string>jireportmonitoringfact.report_uri</string>
      </visibleLevels>
    </queryDimension>
  </groups>
  <intelligentChartState typeString="column" />
  <measures>
    <measure function="Average" mask="#,##0" measure="true" name="jireportmonitoringfact.total_report_execution_time" type="java.lang.Integer" width="125" />
    <measure function="Highest" mask="#,##0" measure="true" name="jireportmonitoringfact.total_report_execution_time" type="java.lang.Integer" width="125" />
    <measure function="Lowest" mask="#,##0" measure="true" name="jireportmonitoringfact.total_report_execution_time" type="java.lang.Integer" width="125" />
  </measures>
  <propertyMap>
    <entry key="hideEmptyRows">
      <string>false</string>
    </entry>
    <entry key="modFlags">
      <string />
    </entry>
    <entry key="typeOfViewChange">
      <string>unexpectedBehavior</string>
    </entry>
  </propertyMap>
  <sortFields>
    <sortField ascending="false" fieldName="jireportmonitoringfact.total_report_execution_time" path="/Total+Report+Execution+Time+%28Average%29" />
  </sortFields>
  <title>Report Monitoring Resources</title>
</unifiedState>