<unifiedState filterPanelShowing="true" hasMargins="true" ignoreMaxRows="false" initedSubFilterList="true" launchType="ADH_045a_DOMAIN" maxDisplayColumns="0" maxDisplayRows="0" maxRowChoices="0" maxRows="15" mode="table" pageOrientation="Landscape" paperSize="content" showTableDetails="true" theme="default" titleBarShowing="true" titleHeight="40" topicName="Audit Domain">
  <chartState availableChartHeight="0" availableChartWidth="0" backgroundFilled="true" chartHeight="0" chartIsVertical="true" chartWidth="0" displayXAxisLabel="true" displayYAxisLabel="false" offsetX="0" offsetY="0">
    <chartTitle />
    <chartType>1_bar</chartType>
    <displayLegendMap>
      <entry key="3_line">
        <boolean>true</boolean>
      </entry>
      <entry key="6_timeSeries">
        <boolean>true</boolean>
      </entry>
      <entry key="2_pie">
        <boolean>false</boolean>
      </entry>
      <entry key="1_bar">
        <boolean>true</boolean>
      </entry>
      <entry key="5_scatter">
        <boolean>true</boolean>
      </entry>
      <entry key="4_area">
        <boolean>true</boolean>
      </entry>
    </displayLegendMap>
    <gradient>topDown</gradient>
    <hasLinesMap>
      <entry key="3_line">
        <boolean>true</boolean>
      </entry>
      <entry key="6_timeSeries">
        <boolean>true</boolean>
      </entry>
      <entry key="2_pie">
        <boolean>false</boolean>
      </entry>
      <entry key="1_bar">
        <boolean>false</boolean>
      </entry>
      <entry key="5_scatter">
        <boolean>false</boolean>
      </entry>
      <entry key="4_area">
        <boolean>false</boolean>
      </entry>
    </hasLinesMap>
    <hasPointsMap>
      <entry key="3_line">
        <boolean>true</boolean>
      </entry>
      <entry key="6_timeSeries">
        <boolean>false</boolean>
      </entry>
      <entry key="2_pie">
        <boolean>false</boolean>
      </entry>
      <entry key="1_bar">
        <boolean>false</boolean>
      </entry>
      <entry key="5_scatter">
        <boolean>true</boolean>
      </entry>
      <entry key="4_area">
        <boolean>false</boolean>
      </entry>
    </hasPointsMap>
    <stackedMap>
      <entry key="3_line">
        <boolean>false</boolean>
      </entry>
      <entry key="6_timeSeries">
        <boolean>false</boolean>
      </entry>
      <entry key="2_pie">
        <boolean>false</boolean>
      </entry>
      <entry key="1_bar">
        <boolean>false</boolean>
      </entry>
      <entry key="5_scatter">
        <boolean>false</boolean>
      </entry>
      <entry key="4_area">
        <boolean>false</boolean>
      </entry>
    </stackedMap>
    <threeDMap>
      <entry key="3_line">
        <boolean>true</boolean>
      </entry>
      <entry key="6_timeSeries">
        <boolean>true</boolean>
      </entry>
      <entry key="2_pie">
        <boolean>true</boolean>
      </entry>
      <entry key="1_bar">
        <boolean>true</boolean>
      </entry>
      <entry key="5_scatter">
        <boolean>true</boolean>
      </entry>
      <entry key="4_area">
        <boolean>true</boolean>
      </entry>
    </threeDMap>
  </chartState>
  <crosstabState numberOfColumns="0" safeColumnMode="true" safeRowMode="true" showLabels="true" />
  <measures>
    <measure mask="short,hide" name="audit_join1.audit_event_group.audit_event_date" type="java.util.Date" width="73" />
    <measure mask="HH:mm:ss" name="audit_join1.audit_event_group.audit_event_time" type="java.sql.Timestamp" width="78" />
    <measure name="audit_join1.audit_event_group.resource_org_type" type="java.lang.String" width="145" />
    <spacer width="25" />
    <measure name="audit_join1.audit_event_group.resource_org_uri" type="java.lang.String" width="273" />
    <measure name="audit_join1.user_group.tenant_id" type="java.lang.String" width="125" />
    <measure name="audit_join1.user_group.username" type="java.lang.String" width="109" />
  </measures>
  <propertyMap>
    <entry key="EnableUnrolledDimensionDataStrategy">
      <string>false</string>
    </entry>
    <entry key="ADHOC_VERSION">
      <string>4.5.0</string>
    </entry>
    <entry key="hasMargins">
      <string>true</string>
    </entry>
  </propertyMap>
  <sortFields>
    <sortField ascending="false" fieldName="audit_join1.audit_event_group.audit_event_date" />
    <sortField ascending="false" fieldName="audit_join1.audit_event_group.audit_event_time" />
  </sortFields>
  <subFilterList>
    <subFilter id="filter_1" sourceString="DYNAMIC">
      <expressionString>betweenDates(audit_join1.audit_event_group.audit_event_date, 'MONTH', 'DAY')</expressionString>
      <parameterizedExpressionString>betweenDates(audit_join1.audit_event_group.audit_event_date, audit_event_date_1, audit_event_date_2)</parameterizedExpressionString>
    </subFilter>
    <subFilter id="filter_2" sourceString="DYNAMIC">
      <expressionString>isAnyValue(audit_join1.audit_event_group.resource_org_type)</expressionString>
      <parameterizedExpressionString>audit_join1.audit_event_group.resource_org_type in resource_org_type_1</parameterizedExpressionString>
    </subFilter>
  </subFilterList>
  <title>Resource Execution Report</title>
</unifiedState>