# Strings for SuperMart reports
Dashboard.Explore=Explore on Your Own
Dashboard.Create=Create a New Report
Dashboard.Browse=Browse More SuperMart Files
Dashboard.MyReports=My Saved Reports
FooterPageNum=Page {0} of 
ReportTitle=Report Title
LastRunBy=Last run by: {0}
NumRecordsFooter=Total number of records: {0}
Num=#
CurrencySymbol=$
Key=Key: 
Total=Total
ProfitGrowth=Profit Growth
Profit=Profit
Revenue=Revenue
Sales=Sales
ShoppingDays=Shopping Days
BrandPreferences=Brand Preference
AverageSale=Average Sales
CountsAndTotals=Counts and Totals
UniqueProducts=Unique Products
Promotional=Promotional
PurchaseDetail=Product details for customer {0}
CustomerCardNumber=Customer Card Number: {0}
RevenueByCity=Revenue by City
Revenue.ByLocation.ByProductFamily=Revenue by Location and Product Family
Profit.ByLocation.ByProductFamily=Profit by Location and Product Family
RowTotals=Row Totals
ColumnTotals=Column Totals
SubtotalState=Subtotal State
Subtotal=Subtotal
RevenueByStoreType=Revenue by Store Type

SalesGauges.ReportTitle=Key Indicators
SalesGauge.Tooltip.Revenue=Analyze revenue over time by product type
SalesGauge.Tooltip.Profit=Analyze profit by location and product type

MonthlySales.Title=Sales Performance
MonthlySales.LowValue=Low Value
MonthlySales.HighValue=High Value
ChangeView=Select a state to change the report view
AllStates=All States
California=California
Oregon=Oregon
Washington=Washington
MonthlySales.Subtitle=For State = {0}
MonthlySales.Tooltip.AllStates=Show data for all states
MonthlySales.Tooltip.ShowState=Show data for {0}
MonthlySales.Tooltip.Chart=Analyze Revenue for {0} and State = {1}
MonthlySales.Tooltip.Table=Analyze Revenue for State = {0}

Drilldown.Tooltip=Drill down into {0}

Time.TimeId=Time ID
Customer.CustomerId=Customer ID
Promotion.PromotionId=Promotion ID
Store.StoreId=Store ID
Product.ProductId=Product ID

StoreSales=Store Sales
store_sales=Sales
StoreCost=Store Cost
UnitSales=Unit Sales
unit_sales=Unit Sales
StoreCount=Store Count
store_count=Store Count
store_cost=Store Cost

Sales.Region=Region
sales_region=Region
sales_district=District

StoreType.ReportTitle=Revenue by Store Type
Store.StoreType=Store Type
Store.RegionId=Region ID
Store.StoreName=Store Name
Store.StoreNumber=Store Number
Store.StreetAddress=Address
Store.City=City
Store.State=State
Store.PostalCode=ZIP
Store.Country=Country
Store.Phone=Phone
Store.Fax=Fax
Store.FirstOpenedDate=First Opened
Store.LastRemodelDate=Last Remodel
Store.SQFT=SQFT
Store.GrocerySQFT=Grocery SQFT
Store.FrozenSQFT=Frozen SQFT
Store.MeatSQFT=Meat SQFT
Store.CoffeeBar=Coffee Bar
Store.VideoStore=Video Store
Store.SaladBar=Salad Bar
Store.PreparedFood=Prepared Food
Store.Florist=Florist


store_store_manager=Store Manager
store_store_type=Store Type
store_region_id=Region ID
store_store_name=Store Name
store_store_number=Store Number
store_store_street_address=Address
store_store_city=City
store_store_state=State
store_store_postal_code=ZIP
store_store_country=Country
store_store_phone=Phone
store_store_fax=Fax
store_first_opened_date=First Opened
store_last_remodel_date=Last Remodel
store_store_sqft=SQFT
store_grocery_sqft=Grocery SQFT
store_frozen_sqft=Frozen SQFT
store_meat_sqft=Meat SQFT
store_coffee_bar=Coffee Bar
store_video_store=Video Store
store_salad_bar=Salad Bar
store_prepared_food=Prepared Food
store_florist=Florist
store_store_id=Store ID

Time.TheDate=Date
Time.TheDay=Day
Time.TheMonth=Month
Time.TheYear=Year
Time.DayOfMonth=Day of Month
Time.WeekOfYear=Week of Year
Time.MonthOfYear=Month of Year
Time.Quarter=Quarter
Time.FiscalPeriod=Fiscal Period
time_by_day_the_date=Date
time_by_day_the_day=Day
time_by_day_the_month=Month
time_by_day_the_year=Year
time_by_day_week_of_year=Week of Year
time_by_day_month_of_year=Month of Year
time_by_day_quarter=Quarter


Top5.Title=TOP 5
Top5.CustomersTitle=CUSTOMERS
Top5.ProductsTitle=PRODUCTS
Top5.PromotionsTitle=Promotions
Top5.Tooltip.DetailAllCustomers=Retrieve detail for all customers - long report
Top5.Tooltip.DetailAllProducts=Retrieve detail for all products - long report
Top5.Tooltip.DetailAllPromotions=Retrieve detail for all promotions - long report
Top5.Tooltip.Detail=Retrieve detail for {0}

CityState={0}, {1}
CustomerDetail.ReportTitle=SuperMart Customer Detail

Customer.FullName=Name
customer_account_num=Account Num
customer_fullname=Name
customer_lname=Last Name
customer_fname=First Name
customer_mi=Middle Initial
customer_address1=Address 1
customer_address2=Address 2
customer_address3=Address 3
customer_address4=Address 4
customer_city=City
customer_state_province=State
customer_postal_code=ZIP
customer_country=Country
customer_customer_region_id=Region ID
customer_phone1=Phone 1
customer_phone2=Phone 2
customer_birthdate=Birth Date
customer_marital_status=Marital Status
customer_yearly_income=Yearly Income
customer_gender=Gender
customer_total_children=Total Children
customer_num_children_at_home=Children at Home
customer_education=Education
customer_date_accnt_opened=Date Accnt Opened
customer_member_card=Member Card
customer_occupation=Occupation
customer_houseowner=Homeowner
customer_num_cars_owned=Num Cars Owned


Product.ReportTitle=SuperMart Product Detail
product_product_name=Product Name
product_brand_name=Brand Name
product_SKU=SKU
product_SRP=SRP
product_gross_weight=Gross Weight
product_net_weight=Net Weight
product_recyclable_package=Recyclable Package
product_low_fat=Low Fat
product_units_per_case=Units Per Case
product_cases_per_pallet=Cases Per Pallet
product_shelf_Width=Shelf Width
product_shelf_Height=Shelf Height
product_class_product_subcategory=Sub Category
product_class_product_category=Category
product_class_product_department=Department
product_class_product_family=Product Family
product_gross_weight=Gross Weight
product_net_weight=Net Weight
product_recyclable_package=Recyclable Package
product_low_fat=Low Fat
product_units_per_case=Units per Case
product_cases_per_pallet=Cases per Pallet
product_shelf_width=Shelf Width
product_shelf_height=Shelf Height
product_shelf_depth=Shelf Depth
product_product_id=Product ID

Promotion.ReportTitle=Promotion Details
promotion_promotion_name=Promotion Name
promotion_media_type=Media Type
promotion_cost=Cost
promotion_start_date=Start Date
promotion_end_date=End Date
promotion_promotion_district_id=District ID
promotion_promotion_id=Promotion ID
Promotion.Name=Promotion
Promotion.MediaType=Media

# Strings for input controls
net.sf.jasperreports.prompt.label.productFamily=Product Family
net.sf.jasperreports.prompt.label.districtID=District
net.sf.jasperreports.prompt.label.promotionSalesMinThreshold=Only products costing more than
net.sf.jasperreports.prompt.label.promotionName=Promotion Name
net.sf.jasperreports.prompt.label.customerState=State
Top5.GeographiesTitle=GEOGRAPHIES
SalesTrend.Title=SALES
Demographics.Title=DEMOGRAPHICS
ActualvsPlan.Title=ACTUAL VS. PREDICTED
PerformanceSummary.Title=Performance Summary Dashboard
ChartLegend.Low=LOW
ChartLegend.Medium=MEDIUM
ChartLegend.High=HIGH
ChartLegend.StoreSalesF=FEMALE
ChartLegend.StoreSalesM=MALE
ChartLabel.Jan=Jan
ChartLabel.Feb=Feb
ChartLabel.Mar=Mar
ChartLabel.Apr=Apr
ChartLabel.May=May
ChartLabel.Jun=Jun
ChartLabel.Jul=Jul
ChartLabel.Aug=Aug
ChartLabel.Sep=Sep
ChartLabel.Oct=Oct
ChartLabel.Nov=Nov
ChartLabel.Dec=Dec
Supermart.Dashboard.Title=SuperMart Performance
Quantity_Sold=Units Sold
ProfitDetails.Title=Profit Detail Report
KPI.Profit=Profit
ColumnHeading.Department=Department
ColumnHeading.Male=Male
ColumnHeading.Female=Female
RevenueDetails.Title=Revenue Detail Report
KPI.Revenue=Revenue
UnitSalesDetails.Title=Unit Sales Detail Report
KPI.UnitSales=Unit Sales
State=State
Month=Month
StatePerformance.Title=State Performance
StoreType=Store Type
SalesTrend=Sales Trend
AvgSale=Average Sale
Growth=Growth
Customers=Customers
SalesvsCost.Title=SALES VS. COST
Statistics.Title=STATISTICS
StatisticsProfit.Title=PROFIT
StatisticsAvgSales.Title=AVERAGE SALES
StatisticsGrowth.Title=GROWTH
StatisticsCustomers.Title=CUSTOMERS
PSDashboard.title=2. Performance Summary Dashboard
Legend.High=High
Legend.Medium=Medium
Legend.Low=Low
Legend.Male=Male
Legend.Female=Female
AxisTitle.Sales=Sales
Geographies=Geographies
customer_phone1_green=PHONE 1
customer_phone2_green=PHONE 2
customer_marital_status_green=MARITAL STATUS
customer_yearly_income_green=YEARLY INCOME
customer_gender_green=GENDER
customer_total_children_green=TOTAL CHILDREN
customer_num_children_at_home_green=CHILDREN AT HOME
customer_date_accnt_opened_green=DATE ACCNT OPENED
customer_member_card_green=MEMBER CARD
customer_birthdate_green=BIRTH DATE
customer_education_green=EDUCATION
customer_occupation_green=OCCUPATION
customer_houseowner_green=HOMEOWNER
customer_num_cars_owned_green=NUM CARS OWNED
ShoppingDays_green=SHOPPING DAYS
AverageSale_green=AVERAGE SALES
BrandPreferences_green=BRAND PREFERENCE
CustomerCardNumber_green=CUSTOMER CARD NUMBER: {0}
PurchaseDetail_green=PRODUCT DETAILS FOR CUSTOMER {0} :
ActualvsPlan=ACTUAL VS. PLAN
Promotion.ReportTitle.Green=PROMOTION DETAILS
promotion_promotion_name_green=PROMOTION NAME
store_sales_green=SALES
unit_sales_green=UNIT SALES
promotion_media_type_green=MEDIA TYPE
promotion_cost_green=COST
promotion_start_date_green=START DATE
promotion_end_date_green=END DATE
promotion_promotion_district_id_green=DISTRICT ID
promotion_promotion_id_green=PROMOTION ID
ProfitDetails.Title.Green=PROFIT DETAIL REPORT
ColumnHeading.Department.Green=DEPARTMENT
Total.Green=TOTAL
ColumnHeading.Female.Green=FEMALE
ColumnHeading.Male.Green=MALE
RevenueDetails.Title.Green=REVENUE  DETAIL REPORT
UnitSalesDetails.Title.Green=UNIT SALES  DETAIL REPORT
Products=Products
Promotions_green=PROMOTIONS
StatePerformance.Title.green=STATE PERFORMANCE
State.green=STATE
Month.green=MONTH
StoreType.green=STORE TYPE
MonthlySales.Title.Green=SALES PERFORMANCE
ChangeView.Green=SELECT A STATE TO CHANGE THE REPORT VIEW
AllStates.Green=ALL STATES
California.Green=CALIFORNIA
Oregon.Green=OREGON
Washington.Green=WASHINGTON
Key.Green=KEY:
MonthlySales.LowValue.Green=LOW VALUE
MonthlySales.HighValue.Green=HIGH VALUE
Top5.Title.Blue=Top 5
SalesGauges.ReportTitle.Green=KEY INDICATORS
Supermart.Dashboard.Title.Green=SUPERMART PERFORMANCE
