<?xml version="1.0" encoding="UTF-8"?>
<jasperReport xmlns="http://jasperreports.sourceforge.net/jasperreports" xmlns:xsi="http://www.w3.org/2001/XMLSchema-instance" xsi:schemaLocation="http://jasperreports.sourceforge.net/jasperreports http://jasperreports.sourceforge.net/xsd/jasperreport.xsd" name="test" pageWidth="1473" pageHeight="872" orientation="Landscape" whenNoDataType="AllSectionsNoDetail" columnWidth="552" leftMargin="30" rightMargin="30" topMargin="20" bottomMargin="20" isFloatColumnFooter="true" uuid="57c95c05-81cb-4af5-849d-bc4535ee293f">
	<property name="com.jaspersoft.ji.adhoc.data.adapter" value="true"/>
	<property name="com.jaspersoft.ji.adhoc" value="1"/>
	<property name="com.jaspersoft.ji.adhoc.preferredDataStrategy" value="domainDataStrategy"/>
	<property name="net.sf.jasperreports.export.pdf.tagged" value="true"/>
	<property name="net.sf.jasperreports.export.pdf.tag.language" value="EN-US"/>
	<property name="net.sf.jasperreports.text.truncate.suffix" value="..."/>
	<property name="net.sf.jasperreports.print.keep.full.text" value="true"/>
	<property name="net.sf.jasperreports.export.xls.collapse.row.span" value="false"/>
	<import value="com.jaspersoft.ji.adhoc.service.AdhocEngineServiceImpl"/>
	<import value="com.jaspersoft.ji.adhoc.jr.AdhocReportUtils"/>
	<style name="ReportDefault" isDefault="true" mode="Transparent" forecolor="#666666" backcolor="#FFFFFF" hAlign="Left" vAlign="Middle" fontName="SansSerif" fontSize="11" pdfFontName="Helvetica">
		<box>
			<pen lineColor="#AAAAAA"/>
		</box>
	</style>
	<style name="TableBaseFrameStyle" mode="Transparent">
		<box padding="0">
			<pen lineWidth="0.0"/>
		</box>
	</style>
	<style name="TableColumnHeaderFrameStyle" style="TableBaseFrameStyle">
		<box>
			<topPen lineWidth="1.0" lineColor="#AAAAAA"/>
			<leftPen lineWidth="1.0" lineColor="#AAAAAA"/>
			<bottomPen lineWidth="1.0" lineColor="#AAAAAA"/>
			<rightPen lineWidth="1.0" lineColor="#AAAAAA"/>
		</box>
	</style>
	<style name="TableColumnFooterFrameStyle" style="TableBaseFrameStyle">
		<box>
			<topPen lineWidth="1.0" lineColor="#AAAAAA"/>
		</box>
	</style>
	<style name="TableColumnHeaderTextStyle" style="ReportDefault" mode="Opaque" forecolor="#666666" backcolor="#D5DEE8" hAlign="Left" vAlign="Middle" fontName="SansSerif" fontSize="11" isBold="true" pdfFontName="Helvetica-Bold">
		<box leftPadding="5" rightPadding="5">
			<pen lineWidth="1.0" lineStyle="Solid"/>
			<topPen lineWidth="1.0" lineColor="#FFFFFF"/>
			<leftPen lineWidth="1.0" lineColor="#FFFFFF"/>
			<bottomPen lineWidth="1.0" lineColor="#B1B6BB"/>
			<rightPen lineWidth="1.0" lineColor="#B1B6BB"/>
		</box>
	</style>
	<style name="TableGroupFrameStyle" style="TableBaseFrameStyle">
		<box>
			<leftPen lineWidth="1.0" lineColor="#AAAAAA"/>
			<rightPen lineWidth="1.0" lineColor="#AAAAAA"/>
		</box>
	</style>
	<style name="TableGroupTextStyle" style="ReportDefault" mode="Opaque" forecolor="#666666" backcolor="#E7ECF2" hAlign="Left" vAlign="Middle" fontName="SansSerif" fontSize="11" isBold="true" pdfFontName="Helvetica-Bold">
		<box leftPadding="5" rightPadding="5">
			<topPen lineWidth="0.0"/>
			<leftPen lineWidth="0.0"/>
			<bottomPen lineWidth="0.0"/>
			<rightPen lineWidth="0.0"/>
		</box>
	</style>
	<style name="TableSummaryFrameStyle" style="TableBaseFrameStyle">
		<box>
			<leftPen lineWidth="1.0" lineColor="#AAAAAA"/>
			<rightPen lineWidth="1.0" lineColor="#AAAAAA"/>
		</box>
	</style>
	<style name="TableSummaryTextNoBorderStyle" style="ReportDefault" mode="Opaque" forecolor="#666666" fontName="SansSerif" isBold="true" pdfFontName="Helvetica-Bold">
		<box leftPadding="5" rightPadding="5"/>
	</style>
	<style name="TableSummaryTextStyle" style="TableSummaryTextNoBorderStyle">
		<box>
			<pen lineWidth="1.0"/>
		</box>
	</style>
	<style name="TableTitleTextStyle" style="ReportDefault" mode="Opaque" forecolor="#333333" backcolor="#FFFFFF" hAlign="Center" fontSize="18" isBold="false" pdfFontName="Helvetica">
		<box>
			<pen lineColor="#000000"/>
			<topPen lineWidth="0.0"/>
		</box>
	</style>
	<style name="TableDetailFrameStyle" style="TableBaseFrameStyle">
		<box>
			<leftPen lineWidth="1.0" lineColor="#AAAAAA"/>
			<rightPen lineWidth="1.0" lineColor="#AAAAAA"/>
		</box>
	</style>
	<style name="TableDetailTextStyle" style="ReportDefault" mode="Opaque" forecolor="#666666" backcolor="#FFFFFF" hAlign="Left" vAlign="Middle" fontName="SansSerif" fontSize="11" isBold="false" pdfFontName="Helvetica">
		<box leftPadding="5" rightPadding="5">
			<pen lineWidth="1.0" lineStyle="Solid"/>
			<topPen lineWidth="1.0" lineColor="#E3E9EF"/>
			<leftPen lineWidth="1.0" lineColor="#E3E9EF"/>
			<bottomPen lineWidth="1.0" lineColor="#E3E9EF"/>
			<rightPen lineWidth="1.0" lineColor="#E3E9EF"/>
		</box>
	</style>
	<style name="ChartReportTitle" style="ReportDefault" mode="Opaque" forecolor="#333333" backcolor="#FFFFFF" hAlign="Center" fontSize="18" isBold="false" pdfFontName="Helvetica">
		<box>
			<pen lineColor="#000000"/>
			<topPen lineWidth="0.0" lineStyle="Solid"/>
		</box>
	</style>
	<style name="ChartTitle" forecolor="#000000" fontName="SansSerif" fontSize="12" isBold="true" pdfFontName="Helvetica-Bold"/>
	<style name="ChartSubtitle" forecolor="#000000" fontName="SansSerif" fontSize="9" isBold="false" pdfFontName="Helvetica"/>
	<style name="ChartLegend" forecolor="#000000" backcolor="#FFFFFF" fontName="SansSerif" fontSize="9" isBold="false" pdfFontName="Helvetica"/>
	<style name="ChartSeriesColor0" backcolor="#87C4FE"/>
	<style name="ChartSeriesColor1" backcolor="#E96270"/>
	<style name="ChartSeriesColor2" backcolor="#D1D1D1"/>
	<style name="ChartSeriesColor3" backcolor="#FFEE99"/>
	<style name="ChartSeriesColor4" backcolor="#6164FF"/>
	<style name="ChartSeriesColor5" backcolor="#B0E992"/>
	<style name="ChartSeriesColor6" backcolor="#AE9CEA"/>
	<style name="ChartSeriesColor7" backcolor="#F5B05E"/>
	<style name="ChartSeriesColor8" backcolor="#589EE1"/>
	<style name="ChartSeriesColor9" backcolor="#AE4E59"/>
	<style name="ChartSeriesColor10" backcolor="#747474"/>
	<style name="ChartSeriesColor11" backcolor="#E2DC77"/>
	<style name="ChartSeriesColor12" backcolor="#4749A5"/>
	<style name="ChartSeriesColor13" backcolor="#81B963"/>
	<style name="ChartSeriesColor14" backcolor="#7764B4"/>
	<style name="ChartSeriesColor15" backcolor="#F27B4C"/>
	<style name="ChartCategoryAxisLabelFormat" forecolor="#000000" fontName="SansSerif" fontSize="11" isBold="true" pdfFontName="Helvetica-Bold"/>
	<style name="ChartCategoryAxisTickFormat" forecolor="#000000" fontName="SansSerif" fontSize="9" isBold="false" pdfFontName="Helvetica"/>
	<style name="ChartValueAxisLabelFormat" forecolor="#000000" fontName="SansSerif" fontSize="11" isBold="true" pdfFontName="Helvetica-Bold"/>
	<style name="ChartValueAxisTickFormat" forecolor="#000000" fontName="SansSerif" fontSize="9" isBold="false" pdfFontName="Helvetica"/>
	<style name="ChartContext" backcolor="#D1CA67"/>
	<style name="CrosstabElementStyle" mode="Transparent" forecolor="#000033" backcolor="#FFFFFF" hAlign="Center" vAlign="Middle" fontName="SansSerif" fontSize="11" pdfFontName="Helvetica">
		<box>
			<topPen lineWidth="0.0"/>
			<leftPen lineWidth="0.0"/>
			<bottomPen lineWidth="1.0" lineColor="#AAAAAA"/>
			<rightPen lineWidth="1.0" lineColor="#AAAAAA"/>
		</box>
	</style>
	<style name="CrosstabBaseCellStyle" mode="Transparent">
		<box padding="0">
			<pen lineWidth="0.0"/>
		</box>
	</style>
	<style name="CrosstabBaseTextStyle" mode="Opaque" forecolor="#666666" backcolor="#FFFFFF" hAlign="Left" vAlign="Top" fontName="SansSerif" fontSize="11" isBold="true" pdfFontName="Helvetica-Bold">
		<box topPadding="3" leftPadding="5" bottomPadding="3" rightPadding="5">
			<topPen lineWidth="1.0" lineColor="#FFFFFF"/>
			<leftPen lineWidth="1.0" lineColor="#FFFFFF"/>
			<bottomPen lineWidth="1.0" lineColor="#B1B6BB"/>
			<rightPen lineWidth="1.0" lineColor="#B1B6BB"/>
		</box>
	</style>
	<style name="CrosstabTitleTextStyle" style="CrosstabBaseTextStyle" forecolor="#333333" fontSize="18" isBold="false" pdfFontName="Helvetica">
		<box>
			<pen lineWidth="0.0" lineColor="#000000"/>
		</box>
	</style>
	<style name="CrosstabHeaderTextStyle" style="CrosstabBaseTextStyle" backcolor="#D5DEE8"/>
	<style name="CrosstabMeasureHeaderTextStyle" style="CrosstabBaseTextStyle" backcolor="#D3C8EB"/>
	<style name="CrosstabColumnMeasureHeaderTextStyle" style="CrosstabMeasureHeaderTextStyle"/>
	<style name="CrosstabRowMeasureHeaderTextStyle" style="CrosstabMeasureHeaderTextStyle" isBold="false" pdfFontName="Helvetica"/>
	<style name="CrosstabDimensionHeaderTextStyle" style="CrosstabBaseTextStyle" backcolor="#E7ECF2" isBold="false" pdfFontName="Helvetica"/>
	<style name="CrosstabDetailTextStyle" style="CrosstabBaseTextStyle" backcolor="#FFFFFF" hAlign="Right" isBold="false" pdfFontName="Helvetica">
		<box>
			<pen lineWidth="1.0" lineColor="#E3E9EF"/>
		</box>
		<conditionalStyle>
			<conditionExpression><![CDATA[$V{CROSSTAB_TOTAL_DISCRIMINATOR}]]></conditionExpression>
			<style backcolor="#F0F4F8" hAlign="Right" isBold="true" pdfFontName="Helvetica-Bold">
				<box>
					<topPen lineWidth="1.0" lineColor="#E3E9EF"/>
					<leftPen lineWidth="1.0" lineColor="#E3E9EF"/>
					<bottomPen lineWidth="1.0" lineColor="#E3E9EF"/>
					<rightPen lineWidth="1.0" lineColor="#E3E9EF"/>
				</box>
			</style>
		</conditionalStyle>
	</style>
	<subDataset name="tableDataset">
		<property name="net.sf.jasperreports.create.sort.fields.for.groups" value="true"/>
		<parameter name="audit_event_date_2" class="java.util.Date">
			<defaultValueExpression><![CDATA[null]]></defaultValueExpression>
		</parameter>
		<parameter name="audit_event_date_1" class="java.util.Date">
			<defaultValueExpression><![CDATA[null]]></defaultValueExpression>
		</parameter>
		<parameter name="event_type_1" class="java.util.Collection" nestedType="java.lang.String">
			<defaultValueExpression><![CDATA[java.util.Arrays.asList(new java.lang.String[] {})]]></defaultValueExpression>
		</parameter>
		<parameter name="resource_org_type_1" class="java.util.Collection" nestedType="java.lang.String">
			<defaultValueExpression><![CDATA[java.util.Arrays.asList(new java.lang.String[] {})]]></defaultValueExpression>
		</parameter>
		<queryString language="domain">
			<![CDATA[<?xml version="1.0" encoding="UTF-8"?>
<query xmlns="http://www.jaspersoft.com/2007/SL/XMLSchema">
  <queryFields>
    <queryField id="audit_join1.audit_event_group.audit_event_property_value" />
    <queryField id="audit_join1.audit_event_group.event_type" />
    <queryField id="audit_join1.user_group.username" />
    <queryField id="audit_join1.audit_event_group.audit_event_time" />
    <queryField id="audit_join1.user_group.tenant_id" />
    <queryField id="audit_join1.audit_event_group.audit_event_date" />
    <queryField id="audit_join1.audit_event_group.audit_event_property_type" />
    <queryField id="audit_join1.audit_event_group.resource_org_uri" />
    <queryField id="audit_join1.audit_event_group.request_type" />
    <queryField id="audit_join1.audit_event_group.resource_org_type" />
  </queryFields>
</query>

]]>
		</queryString>
		<field name="audit_join1.audit_event_group.audit_event_property_value" class="java.lang.String">
			<fieldDescription><![CDATA[audit_join1.audit_event_group.audit_event_property_value]]></fieldDescription>
		</field>
		<field name="audit_join1.audit_event_group.event_type" class="java.lang.String">
			<fieldDescription><![CDATA[audit_join1.audit_event_group.event_type]]></fieldDescription>
		</field>
		<field name="audit_join1.user_group.username" class="java.lang.String">
			<fieldDescription><![CDATA[audit_join1.user_group.username]]></fieldDescription>
		</field>
		<field name="audit_join1.user_group.tenant_id" class="java.lang.String">
			<fieldDescription><![CDATA[audit_join1.user_group.tenant_id]]></fieldDescription>
		</field>
		<field name="audit_join1.audit_event_group.audit_event_time" class="java.sql.Timestamp">
			<fieldDescription><![CDATA[audit_join1.audit_event_group.audit_event_time]]></fieldDescription>
		</field>
		<field name="audit_join1.audit_event_group.resource_org_uri" class="java.lang.String">
			<fieldDescription><![CDATA[audit_join1.audit_event_group.resource_org_uri]]></fieldDescription>
		</field>
		<field name="audit_join1.audit_event_group.audit_event_property_type" class="java.lang.String">
			<fieldDescription><![CDATA[audit_join1.audit_event_group.audit_event_property_type]]></fieldDescription>
		</field>
		<field name="audit_join1.audit_event_group.audit_event_date" class="java.util.Date">
			<fieldDescription><![CDATA[audit_join1.audit_event_group.audit_event_date]]></fieldDescription>
		</field>
		<field name="audit_join1.audit_event_group.request_type" class="java.lang.String">
			<fieldDescription><![CDATA[audit_join1.audit_event_group.request_type]]></fieldDescription>
		</field>
		<field name="audit_join1.audit_event_group.resource_org_type" class="java.lang.String">
			<fieldDescription><![CDATA[audit_join1.audit_event_group.resource_org_type]]></fieldDescription>
		</field>
		<variable name="InnerRowCount" class="java.lang.Integer" resetType="None">
			<variableExpression><![CDATA[$V{REPORT_COUNT}]]></variableExpression>
		</variable>
	</subDataset>
	<parameter name="audit_event_date_2" class="java.util.Date">
		<defaultValueExpression><![CDATA[null]]></defaultValueExpression>
	</parameter>
	<parameter name="audit_event_date_1" class="java.util.Date">
		<defaultValueExpression><![CDATA[null]]></defaultValueExpression>
	</parameter>
	<parameter name="event_type_1" class="java.util.Collection" nestedType="java.lang.String">
		<defaultValueExpression><![CDATA[java.util.Arrays.asList(new java.lang.String[] {})]]></defaultValueExpression>
	</parameter>
	<parameter name="resource_org_type_1" class="java.util.Collection" nestedType="java.lang.String">
		<defaultValueExpression><![CDATA[java.util.Arrays.asList(new java.lang.String[] {})]]></defaultValueExpression>
	</parameter>
	<parameter name="REPORT_TITLE" class="java.lang.String" isForPrompting="false">
		<property name="net.sf.jasperreports.data.cache.included" value="true"/>
		<defaultValueExpression><![CDATA[null]]></defaultValueExpression>
	</parameter>
	<title>
		<band splitType="Stretch">
			<textField isStretchWithOverflow="true">
				<reportElement uuid="0a7dbeef-33db-432b-b514-b4cf1a5f0e4d" key="staticText" style="TableTitleTextStyle" x="0" y="0" width="1413" height="0">
					<printWhenExpression><![CDATA[$P{REPORT_TITLE} != null && $P{REPORT_TITLE}.length() > 0]]></printWhenExpression>
				</reportElement>
				<textElement textAlignment="Center"/>
				<textFieldExpression><![CDATA[$P{REPORT_TITLE}]]></textFieldExpression>
			</textField>
		</band>
	</title>
	<summary>
		<band height="25" splitType="Stretch">
			<componentElement>
				<reportElement uuid="84aa2835-8d62-4b96-8202-0236bd48f318" style="TableColumnHeaderFrameStyle" x="0" y="0" width="1413" height="25"/>
				<c:table xmlns:c="http://jasperreports.sourceforge.net/jasperreports/components" xsi:schemaLocation="http://jasperreports.sourceforge.net/jasperreports/components http://jasperreports.sourceforge.net/xsd/components.xsd" whenNoDataType="AllSectionsNoDetail">
					<datasetRun subDataset="tableDataset" uuid="ff77bf6c-0a56-4694-ab15-11fe2ebc8820">
						<dataSourceExpression><![CDATA[$P{REPORT_PARAMETERS_MAP}.get("com.jaspersoft.ji.adhoc.report.data.source")]]></dataSourceExpression>
					</datasetRun>
					<c:columnGroup uuid="78f66d96-3d51-49fd-a8a7-9ebcb4b0db26" width="1413">
						<c:column uuid="7d249034-7b14-48ae-baaf-db3765334d30" width="70">
							<c:columnHeader height="25">
								<textField isStretchWithOverflow="true" isBlankWhenNull="true">
									<reportElement uuid="d3c55815-d26b-4f94-8832-f7c7feeb8916" style="TableColumnHeaderTextStyle" stretchType="RelativeToBandHeight" x="0" y="0" width="70" height="25">
										<property name="net.sf.jasperreports.export.pdf.tag.th" value="full"/>
									</reportElement>
									<textElement textAlignment="Left"/>
									<textFieldExpression><![CDATA["Date"]]></textFieldExpression>
								</textField>
							</c:columnHeader>
							<c:detailCell height="25">
								<textField isStretchWithOverflow="true" pattern="short,hide" isBlankWhenNull="true">
									<reportElement uuid="159ec50a-546d-460c-bfa5-9aac23c45a49" key="textField" style="TableDetailTextStyle" stretchType="RelativeToBandHeight" x="0" y="0" width="70" height="25">
										<property name="net.sf.jasperreports.export.pdf.tag.td" value="full"/>
									</reportElement>
									<textElement textAlignment="Left"/>
									<textFieldExpression><![CDATA[$F{audit_join1.audit_event_group.audit_event_date}]]></textFieldExpression>
								</textField>
							</c:detailCell>
						</c:column>
						<c:column uuid="b79c77db-2d07-42f1-a636-4bcd7a81cefb" width="69">
							<c:columnHeader height="25">
								<textField isStretchWithOverflow="true" isBlankWhenNull="true">
									<reportElement uuid="7700323a-5ff7-4565-87ef-4e94c82f7953" style="TableColumnHeaderTextStyle" stretchType="RelativeToBandHeight" x="0" y="0" width="69" height="25">
										<property name="net.sf.jasperreports.export.pdf.tag.th" value="full"/>
									</reportElement>
									<textElement textAlignment="Left"/>
									<textFieldExpression><![CDATA["Time"]]></textFieldExpression>
								</textField>
							</c:columnHeader>
							<c:detailCell height="25">
								<textField isStretchWithOverflow="true" pattern="HH:mm:ss" isBlankWhenNull="true">
									<reportElement uuid="aa41eae0-144e-4f76-b845-a162f161de85" key="textField" style="TableDetailTextStyle" stretchType="RelativeToBandHeight" x="0" y="0" width="69" height="25">
										<property name="net.sf.jasperreports.export.pdf.tag.td" value="full"/>
									</reportElement>
									<textElement textAlignment="Left"/>
									<textFieldExpression><![CDATA[$F{audit_join1.audit_event_group.audit_event_time}]]></textFieldExpression>
								</textField>
							</c:detailCell>
						</c:column>
						<c:column uuid="240f0158-accc-462b-8235-a4a370b41453" width="125">
							<c:columnHeader height="25">
								<textField isStretchWithOverflow="true" isBlankWhenNull="true">
									<reportElement uuid="8b796a3b-92c1-4986-9ca1-b362cfee7015" style="TableColumnHeaderTextStyle" stretchType="RelativeToBandHeight" x="0" y="0" width="125" height="25">
										<property name="net.sf.jasperreports.export.pdf.tag.th" value="full"/>
									</reportElement>
									<textElement textAlignment="Left"/>
									<textFieldExpression><![CDATA["Event Type"]]></textFieldExpression>
								</textField>
							</c:columnHeader>
							<c:detailCell height="25">
								<textField isStretchWithOverflow="true" isBlankWhenNull="true">
									<reportElement uuid="2a729fd7-00c8-4bc2-b5ba-0bdc589069a6" key="textField" style="TableDetailTextStyle" stretchType="RelativeToBandHeight" x="0" y="0" width="125" height="25">
										<property name="net.sf.jasperreports.export.pdf.tag.td" value="full"/>
									</reportElement>
									<textElement textAlignment="Left"/>
									<textFieldExpression><![CDATA[$F{audit_join1.audit_event_group.event_type}]]></textFieldExpression>
									<patternExpression><![CDATA[AdhocEngineServiceImpl.getInstance().getDefaultMask("java.lang.Integer", $P{REPORT_LOCALE}, $P{REPORT_TIME_ZONE})]]></patternExpression>
								</textField>
							</c:detailCell>
						</c:column>
						<c:column uuid="8321eee8-23f0-46e8-ac5b-a84e999754c1" width="118">
							<c:columnHeader height="25">
								<textField isStretchWithOverflow="true" isBlankWhenNull="true">
									<reportElement uuid="1b8b0f9c-0fa1-4a98-8855-5f6aae57fe26" style="TableColumnHeaderTextStyle" stretchType="RelativeToBandHeight" x="0" y="0" width="118" height="25">
										<property name="net.sf.jasperreports.export.pdf.tag.th" value="full"/>
									</reportElement>
									<textElement textAlignment="Left"/>
									<textFieldExpression><![CDATA["Request Type"]]></textFieldExpression>
								</textField>
							</c:columnHeader>
							<c:detailCell height="25">
								<textField isStretchWithOverflow="true" isBlankWhenNull="true">
									<reportElement uuid="679962e2-5675-48f7-86fc-db6880aca225" key="textField" style="TableDetailTextStyle" stretchType="RelativeToBandHeight" x="0" y="0" width="118" height="25">
										<property name="net.sf.jasperreports.export.pdf.tag.td" value="full"/>
									</reportElement>
									<textElement textAlignment="Left"/>
									<textFieldExpression><![CDATA[$F{audit_join1.audit_event_group.request_type}]]></textFieldExpression>
									<patternExpression><![CDATA[AdhocEngineServiceImpl.getInstance().getDefaultMask("java.lang.Integer", $P{REPORT_LOCALE}, $P{REPORT_TIME_ZONE})]]></patternExpression>
								</textField>
							</c:detailCell>
						</c:column>
						<c:column uuid="60a59ca0-64d8-4b87-b957-30cde8b7a994" width="125">
							<c:columnHeader height="25">
								<textField isStretchWithOverflow="true" isBlankWhenNull="true">
									<reportElement uuid="b56534b7-9750-4268-ac3b-5b4e8288f399" style="TableColumnHeaderTextStyle" stretchType="RelativeToBandHeight" x="0" y="0" width="125" height="25">
										<property name="net.sf.jasperreports.export.pdf.tag.th" value="full"/>
									</reportElement>
									<textElement textAlignment="Left"/>
									<textFieldExpression><![CDATA["Resource Type"]]></textFieldExpression>
								</textField>
							</c:columnHeader>
							<c:detailCell height="25">
								<textField isStretchWithOverflow="true" isBlankWhenNull="true">
									<reportElement uuid="b6439b84-6452-4242-a1f5-d1b75ea38165" key="textField" style="TableDetailTextStyle" stretchType="RelativeToBandHeight" x="0" y="0" width="125" height="25">
										<property name="net.sf.jasperreports.export.pdf.tag.td" value="full"/>
									</reportElement>
									<textElement textAlignment="Left"/>
									<textFieldExpression><![CDATA[$F{audit_join1.audit_event_group.resource_org_type}]]></textFieldExpression>
									<patternExpression><![CDATA[AdhocEngineServiceImpl.getInstance().getDefaultMask("java.lang.Integer", $P{REPORT_LOCALE}, $P{REPORT_TIME_ZONE})]]></patternExpression>
								</textField>
							</c:detailCell>
						</c:column>
						<c:column uuid="c8386d18-99ed-44c2-b3f5-4f65bb8292e2" width="25">
							<c:columnHeader height="25">
								<textField isStretchWithOverflow="true" isBlankWhenNull="true">
									<reportElement uuid="861c0beb-cf21-433e-a884-c69d0373a431" style="TableColumnHeaderTextStyle" stretchType="RelativeToBandHeight" x="0" y="0" width="25" height="25">
										<property name="net.sf.jasperreports.export.pdf.tag.th" value="full"/>
									</reportElement>
									<textElement textAlignment="Left"/>
									<textFieldExpression><![CDATA[]]></textFieldExpression>
								</textField>
							</c:columnHeader>
							<c:detailCell height="25">
								<textField isStretchWithOverflow="true" isBlankWhenNull="true">
									<reportElement uuid="e3aafa90-dd48-4174-8325-822fcb39bf42" key="textField" style="TableDetailTextStyle" stretchType="RelativeToBandHeight" x="0" y="0" width="25" height="25">
										<property name="net.sf.jasperreports.export.pdf.tag.td" value="full"/>
									</reportElement>
									<textElement textAlignment="Left"/>
									<patternExpression><![CDATA[AdhocEngineServiceImpl.getInstance().getDefaultMask("java.lang.Integer", $P{REPORT_LOCALE}, $P{REPORT_TIME_ZONE})]]></patternExpression>
								</textField>
							</c:detailCell>
						</c:column>
						<c:column uuid="9109b907-7891-4640-8a21-8b9f1d9ad12e" width="265">
							<c:columnHeader height="25">
								<textField isStretchWithOverflow="true" isBlankWhenNull="true">
									<reportElement uuid="0201c24f-0454-49c0-8415-16d9e40c3cbf" style="TableColumnHeaderTextStyle" stretchType="RelativeToBandHeight" x="0" y="0" width="265" height="25">
										<property name="net.sf.jasperreports.export.pdf.tag.th" value="full"/>
									</reportElement>
									<textElement textAlignment="Left"/>
									<textFieldExpression><![CDATA["Resource URI"]]></textFieldExpression>
								</textField>
							</c:columnHeader>
							<c:detailCell height="25">
								<textField isStretchWithOverflow="true" isBlankWhenNull="true">
									<reportElement uuid="457593ab-93c8-4393-a4ed-2390d1dde6e8" key="textField" style="TableDetailTextStyle" stretchType="RelativeToBandHeight" x="0" y="0" width="265" height="25">
										<property name="net.sf.jasperreports.export.pdf.tag.td" value="full"/>
									</reportElement>
									<textElement textAlignment="Left"/>
									<textFieldExpression><![CDATA[$F{audit_join1.audit_event_group.resource_org_uri}]]></textFieldExpression>
									<patternExpression><![CDATA[AdhocEngineServiceImpl.getInstance().getDefaultMask("java.lang.Integer", $P{REPORT_LOCALE}, $P{REPORT_TIME_ZONE})]]></patternExpression>
								</textField>
							</c:detailCell>
						</c:column>
						<c:column uuid="640ed033-d2f1-40b3-812d-4f9cbe35c405" width="25">
							<c:columnHeader height="25">
								<textField isStretchWithOverflow="true" isBlankWhenNull="true">
									<reportElement uuid="db574588-f3c7-45c0-97ad-39856621f340" style="TableColumnHeaderTextStyle" stretchType="RelativeToBandHeight" x="0" y="0" width="25" height="25">
										<property name="net.sf.jasperreports.export.pdf.tag.th" value="full"/>
									</reportElement>
									<textElement textAlignment="Left"/>
									<textFieldExpression><![CDATA[]]></textFieldExpression>
								</textField>
							</c:columnHeader>
							<c:detailCell height="25">
								<textField isStretchWithOverflow="true" isBlankWhenNull="true">
									<reportElement uuid="dd939b30-9f88-4693-8fda-82794475e6bc" key="textField" style="TableDetailTextStyle" stretchType="RelativeToBandHeight" x="0" y="0" width="25" height="25">
										<property name="net.sf.jasperreports.export.pdf.tag.td" value="full"/>
									</reportElement>
									<textElement textAlignment="Left"/>
									<patternExpression><![CDATA[AdhocEngineServiceImpl.getInstance().getDefaultMask("java.lang.Integer", $P{REPORT_LOCALE}, $P{REPORT_TIME_ZONE})]]></patternExpression>
								</textField>
							</c:detailCell>
						</c:column>
						<c:column uuid="d6d56277-8f45-459a-b430-f7b18cdce92b" width="114">
							<c:columnHeader height="25">
								<textField isStretchWithOverflow="true" isBlankWhenNull="true">
									<reportElement uuid="3c498eb8-6fb4-453e-bf3c-dc933740eefe" style="TableColumnHeaderTextStyle" stretchType="RelativeToBandHeight" x="0" y="0" width="114" height="25">
										<property name="net.sf.jasperreports.export.pdf.tag.th" value="full"/>
									</reportElement>
									<textElement textAlignment="Left"/>
									<textFieldExpression><![CDATA["User Name"]]></textFieldExpression>
								</textField>
							</c:columnHeader>
							<c:detailCell height="25">
								<textField isStretchWithOverflow="true" isBlankWhenNull="true">
									<reportElement uuid="83d22f7e-58ec-47a8-bd7e-3aa9b41a530b" key="textField" style="TableDetailTextStyle" stretchType="RelativeToBandHeight" x="0" y="0" width="114" height="25">
										<property name="net.sf.jasperreports.export.pdf.tag.td" value="full"/>
									</reportElement>
									<textElement textAlignment="Left"/>
									<textFieldExpression><![CDATA[$F{audit_join1.user_group.username}]]></textFieldExpression>
									<patternExpression><![CDATA[AdhocEngineServiceImpl.getInstance().getDefaultMask("java.lang.Integer", $P{REPORT_LOCALE}, $P{REPORT_TIME_ZONE})]]></patternExpression>
								</textField>
							</c:detailCell>
						</c:column>
						<c:column uuid="c8a58ba5-0dfb-4237-9613-c97fb4bed04d" width="122">
							<c:columnHeader height="25">
								<textField isStretchWithOverflow="true" isBlankWhenNull="true">
									<reportElement uuid="d0089775-b6a1-4e0e-bd43-19e90a632fb8" style="TableColumnHeaderTextStyle" stretchType="RelativeToBandHeight" x="0" y="0" width="122" height="25">
										<property name="net.sf.jasperreports.export.pdf.tag.th" value="full"/>
									</reportElement>
									<textElement textAlignment="Left"/>
									<textFieldExpression><![CDATA["Organization"]]></textFieldExpression>
								</textField>
							</c:columnHeader>
							<c:detailCell height="25">
								<textField isStretchWithOverflow="true" isBlankWhenNull="true">
									<reportElement uuid="8d9b7041-d3f4-44d7-ac81-1e2790700cc3" key="textField" style="TableDetailTextStyle" stretchType="RelativeToBandHeight" x="0" y="0" width="122" height="25">
										<property name="net.sf.jasperreports.export.pdf.tag.td" value="full"/>
									</reportElement>
									<textElement textAlignment="Left"/>
									<textFieldExpression><![CDATA[$F{audit_join1.user_group.tenant_id}]]></textFieldExpression>
									<patternExpression><![CDATA[AdhocEngineServiceImpl.getInstance().getDefaultMask("java.lang.Integer", $P{REPORT_LOCALE}, $P{REPORT_TIME_ZONE})]]></patternExpression>
								</textField>
							</c:detailCell>
						</c:column>
						<c:column uuid="4caa0875-2ed4-4d90-80ed-f75a75847721" width="166">
							<c:columnHeader height="25">
								<textField isStretchWithOverflow="true" isBlankWhenNull="true">
									<reportElement uuid="ed25d50f-101c-49c3-bf3b-4b403f7ce86b" style="TableColumnHeaderTextStyle" stretchType="RelativeToBandHeight" x="0" y="0" width="166" height="25">
										<property name="net.sf.jasperreports.export.pdf.tag.th" value="full"/>
									</reportElement>
									<textElement textAlignment="Left"/>
									<textFieldExpression><![CDATA["Prop Type"]]></textFieldExpression>
								</textField>
							</c:columnHeader>
							<c:detailCell height="25">
								<textField isStretchWithOverflow="true" isBlankWhenNull="true">
									<reportElement uuid="2142a708-2cd1-40cb-af86-287e05e45863" key="textField" style="TableDetailTextStyle" stretchType="RelativeToBandHeight" x="0" y="0" width="166" height="25">
										<property name="net.sf.jasperreports.export.pdf.tag.td" value="full"/>
									</reportElement>
									<textElement textAlignment="Left"/>
									<textFieldExpression><![CDATA[$F{audit_join1.audit_event_group.audit_event_property_type}]]></textFieldExpression>
									<patternExpression><![CDATA[AdhocEngineServiceImpl.getInstance().getDefaultMask("java.lang.Integer", $P{REPORT_LOCALE}, $P{REPORT_TIME_ZONE})]]></patternExpression>
								</textField>
							</c:detailCell>
						</c:column>
						<c:column uuid="4542abe3-ec3b-4692-a16d-1dce542d4ee1" width="189">
							<c:columnHeader height="25">
								<textField isStretchWithOverflow="true" isBlankWhenNull="true">
									<reportElement uuid="51d479f9-8f50-491d-b645-144dfaf0f05d" style="TableColumnHeaderTextStyle" stretchType="RelativeToBandHeight" x="0" y="0" width="189" height="25">
										<property name="net.sf.jasperreports.export.pdf.tag.th" value="full"/>
									</reportElement>
									<textElement textAlignment="Left"/>
									<textFieldExpression><![CDATA["Prop Value"]]></textFieldExpression>
								</textField>
							</c:columnHeader>
							<c:detailCell height="25">
								<textField isStretchWithOverflow="true" isBlankWhenNull="true">
									<reportElement uuid="1a16ff72-86d8-4e74-9fc3-2795aca3801c" key="textField" style="TableDetailTextStyle" stretchType="RelativeToBandHeight" x="0" y="0" width="189" height="25">
										<property name="net.sf.jasperreports.export.pdf.tag.td" value="full"/>
									</reportElement>
									<textElement textAlignment="Left"/>
									<textFieldExpression><![CDATA[$F{audit_join1.audit_event_group.audit_event_property_value}]]></textFieldExpression>
									<patternExpression><![CDATA[AdhocEngineServiceImpl.getInstance().getDefaultMask("java.lang.Integer", $P{REPORT_LOCALE}, $P{REPORT_TIME_ZONE})]]></patternExpression>
								</textField>
							</c:detailCell>
						</c:column>
					</c:columnGroup>
				</c:table>
			</componentElement>
		</band>
	</summary>
</jasperReport>
