<?xml version="1.0" encoding="UTF-8"?>
<jasperReport xmlns="http://jasperreports.sourceforge.net/jasperreports" xmlns:xsi="http://www.w3.org/2001/XMLSchema-instance" xsi:schemaLocation="http://jasperreports.sourceforge.net/jasperreports http://jasperreports.sourceforge.net/xsd/jasperreport.xsd" name="adhocReport" pageWidth="595" pageHeight="842" columnWidth="555" leftMargin="20" rightMargin="20" topMargin="30" bottomMargin="30" uuid="67db3717-7d30-4f5d-8e35-55fccea407dc">
	<property name="com.jaspersoft.jasperserver.api.metadata.jasperreports.domain.TopicReportUnit" value="/temp/sl_topic_a823fb34-6e21-4763-bd6e-b10ba4d02310"/>
	<queryString language="domain">
		<![CDATA[<?xml version="1.0" encoding="UTF-8"?>
<query xmlns="http://www.jaspersoft.com/2007/SL/XMLSchema">
  <queryFields>
    <queryField id="orderitems.Amount" />
    <queryField id="orderitems.AmountTax" />
    <queryField id="orderitems.DiscountTypeID" />
    <queryField id="orderitems.OfferingID" />
    <queryField id="orderitems.OrderID" />
    <queryField id="orderitems.OrderItemNumber" />
    <queryField id="orderitems.Quantity" />
    <queryField id="orderitems.Slot" />
    <queryField id="orderitems.Status" />
    <queryField id="orderitems.TicketID" />
    <queryField id="orderitems.TouchedAt" />
    <queryField id="orderitems.TouchedBy" />
    <queryField id="orderitems.UnitPrice" />
    <queryField id="orderitems.WalletID" />
    <queryField id="orders.AmountOrder" />
    <queryField id="orders.DateOrdered" />
    <queryField id="orders.Notes" />
    <queryField id="orders.OrderID1" />
    <queryField id="orders.OrganizationID" />
    <queryField id="orders.PersonID" />
    <queryField id="orders.Status1" />
    <queryField id="orders.TouchedAt1" />
    <queryField id="orders.TouchedBy1" />
    <queryField id="offerings.Description" />
    <queryField id="offerings.IsBulk" />
    <queryField id="offerings.IsSubscribable" />
    <queryField id="offerings.OfferingID1" />
    <queryField id="offerings.QuantityMax" />
    <queryField id="offerings.TaxRateID" />
    <queryField id="offerings.TouchedAt2" />
    <queryField id="offerings.TouchedBy2" />
    <queryField id="offerings.UnitCost" />
    <queryField id="offerings.UnitPrice1" />
  </queryFields>
</query>]]>
	</queryString>
	<field name="orderitems.Amount" class="java.math.BigDecimal">
		<property name="semantic.tree.sort.order" value="{&quot;WalletID&quot;:15,&quot;AmountTax&quot;:3,&quot;UnitPrice1&quot;:36,&quot;OrderID&quot;:6,&quot;TaxRateID&quot;:32,&quot;OrganizationID&quot;:21,&quot;OrderID1&quot;:20,&quot;IsSubscribable&quot;:29,&quot;DiscountTypeID&quot;:4,&quot;TouchedBy&quot;:13,&quot;Status1&quot;:23,&quot;PersonID&quot;:22,&quot;Slot&quot;:9,&quot;DateOrdered&quot;:18,&quot;offerings&quot;:26,&quot;OrderItemNumber&quot;:7,&quot;Description&quot;:27,&quot;Amount&quot;:2,&quot;Quantity&quot;:8,&quot;OfferingID&quot;:5,&quot;TouchedAt1&quot;:24,&quot;TouchedAt2&quot;:33,&quot;QuantityMax&quot;:31,&quot;orderitems&quot;:1,&quot;UnitPrice&quot;:14,&quot;AmountOrder&quot;:17,&quot;TicketID&quot;:11,&quot;Notes&quot;:19,&quot;Status&quot;:10,&quot;TouchedAt&quot;:12,&quot;TouchedBy2&quot;:34,&quot;TouchedBy1&quot;:25,&quot;orders&quot;:16,&quot;OfferingID1&quot;:30,&quot;IsBulk&quot;:28,&quot;UnitCost&quot;:35}"/>
		<property name="defaultAgg"/>
		<property name="adhoc.display" value="Amount"/>
		<property name="semantic.item.desc" value="Amount"/>
		<property name="defaultMask"/>
		<property name="adhoc.tree.labels" value="[{&quot;resourceId&quot;:&quot;JoinTree_1&quot;,&quot;label&quot;:&quot;orderitems&quot;,&quot;uri&quot;:&quot;/orderitems&quot;,&quot;labelId&quot;:&quot;&quot;},{&quot;resourceId&quot;:&quot;JoinTree_1&quot;,&quot;label&quot;:&quot;orders&quot;,&quot;uri&quot;:&quot;/orders&quot;,&quot;labelId&quot;:&quot;&quot;},{&quot;resourceId&quot;:&quot;JoinTree_1&quot;,&quot;label&quot;:&quot;offerings&quot;,&quot;uri&quot;:&quot;/offerings&quot;,&quot;labelId&quot;:&quot;&quot;}]"/>
		<property name="slIsTableAsList" value="false"/>
		<property name="kind" value="DIMENSION"/>
		<property name="adhoc.tree.uri" value="/orderitems/Amount"/>
		<property name="semantic.tree.uri" value="/orderitems/Amount"/>
		<property name="dimensionOrMeasure" value="Dimension"/>
		<property name="resourceId" value="JoinTree_1.orderitems.Amount"/>
		<property name="semantic.item.desc.id" value=""/>
		<fieldDescription><![CDATA[orderitems.Amount]]></fieldDescription>
	</field>
	<field name="orderitems.AmountTax" class="java.math.BigDecimal">
		<property name="adhoc.tree.uri" value="/orderitems/AmountTax"/>
		<property name="semantic.tree.uri" value="/orderitems/AmountTax"/>
		<property name="semantic.tree.sort.order" value="1"/>
		<property name="resourceId" value="JoinTree_1.orderitems.AmountTax"/>
		<property name="dimensionOrMeasure" value="Dimension"/>
		<property name="semantic.item.desc.id" value=""/>
		<property name="defaultAgg"/>
		<property name="adhoc.display" value="AmountTax"/>
		<property name="semantic.item.desc" value="AmountTax"/>
		<property name="defaultMask"/>
		<property name="kind" value="DIMENSION"/>
		<fieldDescription><![CDATA[orderitems.AmountTax]]></fieldDescription>
	</field>
	<field name="orderitems.DiscountTypeID" class="java.lang.Byte">
		<property name="adhoc.tree.uri" value="/orderitems/DiscountTypeID"/>
		<property name="semantic.tree.uri" value="/orderitems/DiscountTypeID"/>
		<property name="semantic.tree.sort.order" value="2"/>
		<property name="resourceId" value="JoinTree_1.orderitems.DiscountTypeID"/>
		<property name="dimensionOrMeasure"/>
		<property name="semantic.item.desc.id" value=""/>
		<property name="defaultAgg"/>
		<property name="adhoc.display" value="DiscountTypeID"/>
		<property name="semantic.item.desc" value="DiscountTypeID"/>
		<property name="defaultMask"/>
		<property name="kind" value="MEASURE"/>
		<fieldDescription><![CDATA[orderitems.DiscountTypeID]]></fieldDescription>
	</field>
	<field name="orderitems.OfferingID" class="java.lang.Byte">
		<property name="adhoc.tree.uri" value="/orderitems/OfferingID"/>
		<property name="semantic.tree.uri" value="/orderitems/OfferingID"/>
		<property name="semantic.tree.sort.order" value="3"/>
		<property name="resourceId" value="JoinTree_1.orderitems.OfferingID"/>
		<property name="dimensionOrMeasure"/>
		<property name="semantic.item.desc.id" value=""/>
		<property name="defaultAgg"/>
		<property name="adhoc.display" value="OfferingID"/>
		<property name="semantic.item.desc" value="OfferingID"/>
		<property name="defaultMask"/>
		<property name="kind" value="MEASURE"/>
		<fieldDescription><![CDATA[orderitems.OfferingID]]></fieldDescription>
	</field>
	<field name="orderitems.OrderID" class="java.lang.Integer">
		<property name="adhoc.tree.uri" value="/orderitems/OrderID"/>
		<property name="semantic.tree.uri" value="/orderitems/OrderID"/>
		<property name="semantic.tree.sort.order" value="4"/>
		<property name="resourceId" value="JoinTree_1.orderitems.OrderID"/>
		<property name="dimensionOrMeasure"/>
		<property name="semantic.item.desc.id" value=""/>
		<property name="defaultAgg"/>
		<property name="adhoc.display" value="OrderID"/>
		<property name="semantic.item.desc" value="OrderID"/>
		<property name="defaultMask"/>
		<property name="kind" value="MEASURE"/>
		<fieldDescription><![CDATA[orderitems.OrderID]]></fieldDescription>
	</field>
	<field name="orderitems.OrderItemNumber" class="java.lang.Byte">
		<property name="adhoc.tree.uri" value="/orderitems/OrderItemNumber"/>
		<property name="semantic.tree.uri" value="/orderitems/OrderItemNumber"/>
		<property name="semantic.tree.sort.order" value="5"/>
		<property name="resourceId" value="JoinTree_1.orderitems.OrderItemNumber"/>
		<property name="dimensionOrMeasure" value="Dimension"/>
		<property name="semantic.item.desc.id" value=""/>
		<property name="defaultAgg"/>
		<property name="adhoc.display" value="OrderItemNumber"/>
		<property name="semantic.item.desc" value="OrderItemNumber"/>
		<property name="defaultMask"/>
		<property name="kind" value="DIMENSION"/>
		<fieldDescription><![CDATA[orderitems.OrderItemNumber]]></fieldDescription>
	</field>
	<field name="orderitems.Quantity" class="java.lang.Short">
		<property name="adhoc.tree.uri" value="/orderitems/Quantity"/>
		<property name="semantic.tree.uri" value="/orderitems/Quantity"/>
		<property name="semantic.tree.sort.order" value="6"/>
		<property name="resourceId" value="JoinTree_1.orderitems.Quantity"/>
		<property name="dimensionOrMeasure" value="Dimension"/>
		<property name="semantic.item.desc.id" value=""/>
		<property name="defaultAgg"/>
		<property name="adhoc.display" value="Quantity"/>
		<property name="semantic.item.desc" value="Quantity"/>
		<property name="defaultMask"/>
		<property name="kind" value="DIMENSION"/>
		<fieldDescription><![CDATA[orderitems.Quantity]]></fieldDescription>
	</field>
	<field name="orderitems.Slot" class="java.lang.Byte">
		<property name="adhoc.tree.uri" value="/orderitems/Slot"/>
		<property name="semantic.tree.uri" value="/orderitems/Slot"/>
		<property name="semantic.tree.sort.order" value="7"/>
		<property name="resourceId" value="JoinTree_1.orderitems.Slot"/>
		<property name="dimensionOrMeasure"/>
		<property name="semantic.item.desc.id" value=""/>
		<property name="defaultAgg"/>
		<property name="adhoc.display" value="Slot"/>
		<property name="semantic.item.desc" value="Slot"/>
		<property name="defaultMask"/>
		<property name="kind" value="MEASURE"/>
		<fieldDescription><![CDATA[orderitems.Slot]]></fieldDescription>
	</field>
	<field name="orderitems.Status" class="java.lang.Byte">
		<property name="adhoc.tree.uri" value="/orderitems/Status"/>
		<property name="semantic.tree.uri" value="/orderitems/Status"/>
		<property name="semantic.tree.sort.order" value="8"/>
		<property name="resourceId" value="JoinTree_1.orderitems.Status"/>
		<property name="dimensionOrMeasure"/>
		<property name="semantic.item.desc.id" value=""/>
		<property name="defaultAgg"/>
		<property name="adhoc.display" value="Status"/>
		<property name="semantic.item.desc" value="Status"/>
		<property name="defaultMask"/>
		<property name="kind" value="MEASURE"/>
		<fieldDescription><![CDATA[orderitems.Status]]></fieldDescription>
	</field>
	<field name="orderitems.TicketID" class="java.lang.Integer">
		<property name="adhoc.tree.uri" value="/orderitems/TicketID"/>
		<property name="semantic.tree.uri" value="/orderitems/TicketID"/>
		<property name="semantic.tree.sort.order" value="9"/>
		<property name="resourceId" value="JoinTree_1.orderitems.TicketID"/>
		<property name="dimensionOrMeasure" value="Dimension"/>
		<property name="semantic.item.desc.id" value=""/>
		<property name="defaultAgg"/>
		<property name="adhoc.display" value="TicketID"/>
		<property name="semantic.item.desc" value="TicketID"/>
		<property name="defaultMask"/>
		<property name="kind" value="DIMENSION"/>
		<fieldDescription><![CDATA[orderitems.TicketID]]></fieldDescription>
	</field>
	<field name="orderitems.TouchedAt" class="java.sql.Timestamp">
		<property name="adhoc.tree.uri" value="/orderitems/TouchedAt"/>
		<property name="semantic.tree.uri" value="/orderitems/TouchedAt"/>
		<property name="semantic.tree.sort.order" value="10"/>
		<property name="resourceId" value="JoinTree_1.orderitems.TouchedAt"/>
		<property name="dimensionOrMeasure"/>
		<property name="semantic.item.desc.id" value=""/>
		<property name="defaultAgg"/>
		<property name="adhoc.display" value="TouchedAt"/>
		<property name="semantic.item.desc" value="TouchedAt"/>
		<property name="defaultMask"/>
		<property name="kind" value="DIMENSION"/>
		<fieldDescription><![CDATA[orderitems.TouchedAt]]></fieldDescription>
	</field>
	<field name="orderitems.TouchedBy" class="java.lang.String">
		<property name="adhoc.tree.uri" value="/orderitems/TouchedBy"/>
		<property name="semantic.tree.uri" value="/orderitems/TouchedBy"/>
		<property name="semantic.tree.sort.order" value="11"/>
		<property name="resourceId" value="JoinTree_1.orderitems.TouchedBy"/>
		<property name="dimensionOrMeasure"/>
		<property name="semantic.item.desc.id" value=""/>
		<property name="defaultAgg"/>
		<property name="adhoc.display" value="TouchedBy"/>
		<property name="semantic.item.desc" value="TouchedBy"/>
		<property name="defaultMask"/>
		<property name="kind" value="DIMENSION"/>
		<fieldDescription><![CDATA[orderitems.TouchedBy]]></fieldDescription>
	</field>
	<field name="orderitems.UnitPrice" class="java.math.BigDecimal">
		<property name="adhoc.tree.uri" value="/orderitems/UnitPrice"/>
		<property name="semantic.tree.uri" value="/orderitems/UnitPrice"/>
		<property name="semantic.tree.sort.order" value="12"/>
		<property name="resourceId" value="JoinTree_1.orderitems.UnitPrice"/>
		<property name="dimensionOrMeasure" value="Dimension"/>
		<property name="semantic.item.desc.id" value=""/>
		<property name="defaultAgg"/>
		<property name="adhoc.display" value="UnitPrice"/>
		<property name="semantic.item.desc" value="UnitPrice"/>
		<property name="defaultMask"/>
		<property name="kind" value="DIMENSION"/>
		<fieldDescription><![CDATA[orderitems.UnitPrice]]></fieldDescription>
	</field>
	<field name="orderitems.WalletID" class="java.lang.Long">
		<property name="adhoc.tree.uri" value="/orderitems/WalletID"/>
		<property name="semantic.tree.uri" value="/orderitems/WalletID"/>
		<property name="semantic.tree.sort.order" value="13"/>
		<property name="resourceId" value="JoinTree_1.orderitems.WalletID"/>
		<property name="dimensionOrMeasure"/>
		<property name="semantic.item.desc.id" value=""/>
		<property name="defaultAgg"/>
		<property name="adhoc.display" value="WalletID"/>
		<property name="semantic.item.desc" value="WalletID"/>
		<property name="defaultMask"/>
		<property name="kind" value="MEASURE"/>
		<fieldDescription><![CDATA[orderitems.WalletID]]></fieldDescription>
	</field>
	<field name="orders.AmountOrder" class="java.math.BigDecimal">
		<property name="adhoc.tree.uri" value="/orders/AmountOrder"/>
		<property name="semantic.tree.uri" value="/orders/AmountOrder"/>
		<property name="semantic.tree.sort.order" value="0"/>
		<property name="resourceId" value="JoinTree_1.orders.AmountOrder"/>
		<property name="dimensionOrMeasure" value="Dimension"/>
		<property name="semantic.item.desc.id" value=""/>
		<property name="defaultAgg"/>
		<property name="adhoc.display" value="AmountOrder"/>
		<property name="semantic.item.desc" value="AmountOrder"/>
		<property name="defaultMask" value="$#,##0.00;($#,##0.00)"/>
		<property name="kind" value="DIMENSION"/>
		<fieldDescription><![CDATA[orders.AmountOrder]]></fieldDescription>
	</field>
	<field name="orders.DateOrdered" class="java.sql.Timestamp">
		<property name="adhoc.tree.uri" value="/orders/DateOrdered"/>
		<property name="semantic.tree.uri" value="/orders/DateOrdered"/>
		<property name="semantic.tree.sort.order" value="1"/>
		<property name="resourceId" value="JoinTree_1.orders.DateOrdered"/>
		<property name="dimensionOrMeasure" value="Dimension"/>
		<property name="semantic.item.desc.id" value=""/>
		<property name="defaultAgg"/>
		<property name="adhoc.display" value="DateOrdered"/>
		<property name="semantic.item.desc" value="DateOrdered"/>
		<property name="defaultMask"/>
		<property name="kind" value="DIMENSION"/>
		<fieldDescription><![CDATA[orders.DateOrdered]]></fieldDescription>
	</field>
	<field name="orders.Notes" class="java.lang.String">
		<property name="adhoc.tree.uri" value="/orders/Notes"/>
		<property name="semantic.tree.uri" value="/orders/Notes"/>
		<property name="semantic.tree.sort.order" value="2"/>
		<property name="resourceId" value="JoinTree_1.orders.Notes"/>
		<property name="dimensionOrMeasure"/>
		<property name="semantic.item.desc.id" value=""/>
		<property name="defaultAgg"/>
		<property name="adhoc.display" value="Notes"/>
		<property name="semantic.item.desc" value="Notes"/>
		<property name="defaultMask"/>
		<property name="kind" value="DIMENSION"/>
		<fieldDescription><![CDATA[orders.Notes]]></fieldDescription>
	</field>
	<field name="orders.OrderID1" class="java.lang.Integer">
		<property name="adhoc.tree.uri" value="/orders/OrderID1"/>
		<property name="semantic.tree.uri" value="/orders/OrderID1"/>
		<property name="semantic.tree.sort.order" value="3"/>
		<property name="resourceId" value="JoinTree_1.orders.OrderID"/>
		<property name="dimensionOrMeasure" value="Dimension"/>
		<property name="semantic.item.desc.id" value=""/>
		<property name="defaultAgg"/>
		<property name="adhoc.display" value="OrderID"/>
		<property name="semantic.item.desc" value="OrderID1"/>
		<property name="defaultMask"/>
		<property name="kind" value="DIMENSION"/>
		<fieldDescription><![CDATA[orders.OrderID1]]></fieldDescription>
	</field>
	<field name="orders.OrganizationID" class="java.lang.Integer">
		<property name="adhoc.tree.uri" value="/orders/OrganizationID"/>
		<property name="semantic.tree.uri" value="/orders/OrganizationID"/>
		<property name="semantic.tree.sort.order" value="4"/>
		<property name="resourceId" value="JoinTree_1.orders.OrganizationID"/>
		<property name="dimensionOrMeasure"/>
		<property name="semantic.item.desc.id" value=""/>
		<property name="defaultAgg"/>
		<property name="adhoc.display" value="OrganizationID"/>
		<property name="semantic.item.desc" value="OrganizationID"/>
		<property name="defaultMask"/>
		<property name="kind" value="MEASURE"/>
		<fieldDescription><![CDATA[orders.OrganizationID]]></fieldDescription>
	</field>
	<field name="orders.PersonID" class="java.lang.Integer">
		<property name="adhoc.tree.uri" value="/orders/PersonID"/>
		<property name="semantic.tree.uri" value="/orders/PersonID"/>
		<property name="semantic.tree.sort.order" value="5"/>
		<property name="resourceId" value="JoinTree_1.orders.PersonID"/>
		<property name="dimensionOrMeasure"/>
		<property name="semantic.item.desc.id" value=""/>
		<property name="defaultAgg"/>
		<property name="adhoc.display" value="PersonID"/>
		<property name="semantic.item.desc" value="PersonID"/>
		<property name="defaultMask"/>
		<property name="kind" value="MEASURE"/>
		<fieldDescription><![CDATA[orders.PersonID]]></fieldDescription>
	</field>
	<field name="orders.Status1" class="java.lang.Byte">
		<property name="adhoc.tree.uri" value="/orders/Status1"/>
		<property name="semantic.tree.uri" value="/orders/Status1"/>
		<property name="semantic.tree.sort.order" value="6"/>
		<property name="resourceId" value="JoinTree_1.orders.Status"/>
		<property name="dimensionOrMeasure" value="Dimension"/>
		<property name="semantic.item.desc.id" value=""/>
		<property name="defaultAgg"/>
		<property name="adhoc.display" value="Status"/>
		<property name="semantic.item.desc" value="Status1"/>
		<property name="defaultMask"/>
		<property name="kind" value="DIMENSION"/>
		<fieldDescription><![CDATA[orders.Status1]]></fieldDescription>
	</field>
	<field name="orders.TouchedAt1" class="java.sql.Timestamp">
		<property name="adhoc.tree.uri" value="/orders/TouchedAt1"/>
		<property name="semantic.tree.uri" value="/orders/TouchedAt1"/>
		<property name="semantic.tree.sort.order" value="7"/>
		<property name="resourceId" value="JoinTree_1.orders.TouchedAt"/>
		<property name="dimensionOrMeasure"/>
		<property name="semantic.item.desc.id" value=""/>
		<property name="defaultAgg"/>
		<property name="adhoc.display" value="TouchedAt"/>
		<property name="semantic.item.desc" value="TouchedAt1"/>
		<property name="defaultMask"/>
		<property name="kind" value="DIMENSION"/>
		<fieldDescription><![CDATA[orders.TouchedAt1]]></fieldDescription>
	</field>
	<field name="orders.TouchedBy1" class="java.lang.String">
		<property name="adhoc.tree.uri" value="/orders/TouchedBy1"/>
		<property name="semantic.tree.uri" value="/orders/TouchedBy1"/>
		<property name="semantic.tree.sort.order" value="8"/>
		<property name="resourceId" value="JoinTree_1.orders.TouchedBy"/>
		<property name="dimensionOrMeasure"/>
		<property name="semantic.item.desc.id" value=""/>
		<property name="defaultAgg"/>
		<property name="adhoc.display" value="TouchedBy"/>
		<property name="semantic.item.desc" value="TouchedBy1"/>
		<property name="defaultMask"/>
		<property name="kind" value="DIMENSION"/>
		<fieldDescription><![CDATA[orders.TouchedBy1]]></fieldDescription>
	</field>
	<field name="offerings.Description" class="java.lang.String">
		<property name="adhoc.tree.uri" value="/offerings/Description"/>
		<property name="semantic.tree.uri" value="/offerings/Description"/>
		<property name="semantic.tree.sort.order" value="0"/>
		<property name="resourceId" value="JoinTree_1.offerings.Description"/>
		<property name="dimensionOrMeasure"/>
		<property name="semantic.item.desc.id" value=""/>
		<property name="defaultAgg"/>
		<property name="adhoc.display" value="Description"/>
		<property name="semantic.item.desc" value="Description"/>
		<property name="defaultMask"/>
		<property name="kind" value="DIMENSION"/>
		<fieldDescription><![CDATA[offerings.Description]]></fieldDescription>
	</field>
	<field name="offerings.IsBulk" class="java.lang.String">
		<property name="adhoc.tree.uri" value="/offerings/IsBulk"/>
		<property name="semantic.tree.uri" value="/offerings/IsBulk"/>
		<property name="semantic.tree.sort.order" value="1"/>
		<property name="resourceId" value="JoinTree_1.offerings.IsBulk"/>
		<property name="dimensionOrMeasure"/>
		<property name="semantic.item.desc.id" value=""/>
		<property name="defaultAgg"/>
		<property name="adhoc.display" value="IsBulk"/>
		<property name="semantic.item.desc" value="IsBulk"/>
		<property name="defaultMask"/>
		<property name="kind" value="DIMENSION"/>
		<fieldDescription><![CDATA[offerings.IsBulk]]></fieldDescription>
	</field>
	<field name="offerings.IsSubscribable" class="java.lang.String">
		<property name="adhoc.tree.uri" value="/offerings/IsSubscribable"/>
		<property name="semantic.tree.uri" value="/offerings/IsSubscribable"/>
		<property name="semantic.tree.sort.order" value="2"/>
		<property name="resourceId" value="JoinTree_1.offerings.IsSubscribable"/>
		<property name="dimensionOrMeasure"/>
		<property name="semantic.item.desc.id" value=""/>
		<property name="defaultAgg"/>
		<property name="adhoc.display" value="IsSubscribable"/>
		<property name="semantic.item.desc" value="IsSubscribable"/>
		<property name="defaultMask"/>
		<property name="kind" value="DIMENSION"/>
		<fieldDescription><![CDATA[offerings.IsSubscribable]]></fieldDescription>
	</field>
	<field name="offerings.OfferingID1" class="java.lang.Byte">
		<property name="adhoc.tree.uri" value="/offerings/OfferingID1"/>
		<property name="semantic.tree.uri" value="/offerings/OfferingID1"/>
		<property name="semantic.tree.sort.order" value="3"/>
		<property name="resourceId" value="JoinTree_1.offerings.OfferingID"/>
		<property name="dimensionOrMeasure"/>
		<property name="semantic.item.desc.id" value=""/>
		<property name="defaultAgg"/>
		<property name="adhoc.display" value="OfferingID"/>
		<property name="semantic.item.desc" value="OfferingID1"/>
		<property name="defaultMask"/>
		<property name="kind" value="MEASURE"/>
		<fieldDescription><![CDATA[offerings.OfferingID1]]></fieldDescription>
	</field>
	<field name="offerings.QuantityMax" class="java.lang.Short">
		<property name="adhoc.tree.uri" value="/offerings/QuantityMax"/>
		<property name="semantic.tree.uri" value="/offerings/QuantityMax"/>
		<property name="semantic.tree.sort.order" value="4"/>
		<property name="resourceId" value="JoinTree_1.offerings.QuantityMax"/>
		<property name="dimensionOrMeasure" value="Dimension"/>
		<property name="semantic.item.desc.id" value=""/>
		<property name="defaultAgg"/>
		<property name="adhoc.display" value="QuantityMax"/>
		<property name="semantic.item.desc" value="QuantityMax"/>
		<property name="defaultMask"/>
		<property name="kind" value="DIMENSION"/>
		<fieldDescription><![CDATA[offerings.QuantityMax]]></fieldDescription>
	</field>
	<field name="offerings.TaxRateID" class="java.lang.Short">
		<property name="adhoc.tree.uri" value="/offerings/TaxRateID"/>
		<property name="semantic.tree.uri" value="/offerings/TaxRateID"/>
		<property name="semantic.tree.sort.order" value="5"/>
		<property name="resourceId" value="JoinTree_1.offerings.TaxRateID"/>
		<property name="dimensionOrMeasure"/>
		<property name="semantic.item.desc.id" value=""/>
		<property name="defaultAgg"/>
		<property name="adhoc.display" value="TaxRateID"/>
		<property name="semantic.item.desc" value="TaxRateID"/>
		<property name="defaultMask"/>
		<property name="kind" value="MEASURE"/>
		<fieldDescription><![CDATA[offerings.TaxRateID]]></fieldDescription>
	</field>
	<field name="offerings.TouchedAt2" class="java.sql.Timestamp">
		<property name="adhoc.tree.uri" value="/offerings/TouchedAt2"/>
		<property name="semantic.tree.uri" value="/offerings/TouchedAt2"/>
		<property name="semantic.tree.sort.order" value="6"/>
		<property name="resourceId" value="JoinTree_1.offerings.TouchedAt"/>
		<property name="dimensionOrMeasure"/>
		<property name="semantic.item.desc.id" value=""/>
		<property name="defaultAgg"/>
		<property name="adhoc.display" value="TouchedAt"/>
		<property name="semantic.item.desc" value="TouchedAt2"/>
		<property name="defaultMask"/>
		<property name="kind" value="DIMENSION"/>
		<fieldDescription><![CDATA[offerings.TouchedAt2]]></fieldDescription>
	</field>
	<field name="offerings.TouchedBy2" class="java.lang.String">
		<property name="adhoc.tree.uri" value="/offerings/TouchedBy2"/>
		<property name="semantic.tree.uri" value="/offerings/TouchedBy2"/>
		<property name="semantic.tree.sort.order" value="7"/>
		<property name="resourceId" value="JoinTree_1.offerings.TouchedBy"/>
		<property name="dimensionOrMeasure"/>
		<property name="semantic.item.desc.id" value=""/>
		<property name="defaultAgg"/>
		<property name="adhoc.display" value="TouchedBy"/>
		<property name="semantic.item.desc" value="TouchedBy2"/>
		<property name="defaultMask"/>
		<property name="kind" value="DIMENSION"/>
		<fieldDescription><![CDATA[offerings.TouchedBy2]]></fieldDescription>
	</field>
	<field name="offerings.UnitCost" class="java.math.BigDecimal">
		<property name="adhoc.tree.uri" value="/offerings/UnitCost"/>
		<property name="semantic.tree.uri" value="/offerings/UnitCost"/>
		<property name="semantic.tree.sort.order" value="8"/>
		<property name="resourceId" value="JoinTree_1.offerings.UnitCost"/>
		<property name="dimensionOrMeasure" value="Dimension"/>
		<property name="semantic.item.desc.id" value=""/>
		<property name="defaultAgg"/>
		<property name="adhoc.display" value="UnitCost"/>
		<property name="semantic.item.desc" value="UnitCost"/>
		<property name="defaultMask"/>
		<property name="kind" value="DIMENSION"/>
		<fieldDescription><![CDATA[offerings.UnitCost]]></fieldDescription>
	</field>
	<field name="offerings.UnitPrice1" class="java.math.BigDecimal">
		<property name="adhoc.tree.uri" value="/offerings/UnitPrice1"/>
		<property name="semantic.tree.uri" value="/offerings/UnitPrice1"/>
		<property name="semantic.tree.sort.order" value="9"/>
		<property name="resourceId" value="JoinTree_1.offerings.UnitPrice"/>
		<property name="dimensionOrMeasure" value="Dimension"/>
		<property name="semantic.item.desc.id" value=""/>
		<property name="defaultAgg"/>
		<property name="adhoc.display" value="UnitPrice"/>
		<property name="semantic.item.desc" value="UnitPrice1"/>
		<property name="defaultMask"/>
		<property name="kind" value="DIMENSION"/>
		<fieldDescription><![CDATA[offerings.UnitPrice1]]></fieldDescription>
	</field>
</jasperReport>
