<?xml version="1.0" encoding="UTF-8"?>
<!-- Created with Jaspersoft Studio version last-->
<jasperReport xmlns="http://jasperreports.sourceforge.net/jasperreports" xmlns:xsi="http://www.w3.org/2001/XMLSchema-instance" xsi:schemaLocation="http://jasperreports.sourceforge.net/jasperreports http://jasperreports.sourceforge.net/xsd/jasperreport.xsd" name="AllAccounts" pageWidth="595" pageHeight="760" whenNoDataType="AllSectionsNoDetail" columnWidth="585" leftMargin="5" rightMargin="5" topMargin="10" bottomMargin="50" isSummaryWithPageHeaderAndFooter="true" uuid="2f7faf86-cd1f-4e11-a0ad-2f29cb5bab9f">
	<property name="net.sf.jasperreports.export.pdf.tag.language" value="EN-US"/>
	<property name="ireport.jasperserver.reportUnit" value="/public/Samples/Reports/AllAccounts"/>
	<property name="ireport.jasperserver.url" value="http://192.168.2.141:8102/jasperserver-pro/"/>
	<property name="ireport.zoom" value="1.0"/>
	<property name="ireport.x" value="0"/>
	<property name="ireport.y" value="0"/>
	<property name="ireport.jasperserver.report.resource" value="/public/Samples/Reports/AllAccounts_files/main_jrxml"/>
	<property name="com.jaspersoft.studio.data.defaultdataadapter" value="One Empty Record"/>
	<template><![CDATA["repo:SampleReportsStyles.jrtx"]]></template>
	<style name="Sans_Normal" isDefault="true" fontName="DejaVu Sans" fontSize="12"/>
	<style name="Sans_Bold" fontName="DejaVu Sans" fontSize="12" isBold="true"/>
	<style name="Sans_Italic" fontName="DejaVu Sans" fontSize="12" isItalic="true"/>
	<style name="PageHeader" style="Sans_Bold" forecolor="#FFFFFF" backcolor="#333333"/>
	<style name="detail" fontName="DejaVu Sans" fontSize="12">
		<conditionalStyle>
			<conditionExpression><![CDATA[new Boolean($V{CityGroup_COUNT}.intValue() % 2 == 0)]]></conditionExpression>
			<style mode="Opaque" backcolor="#EAEFDE"/>
		</conditionalStyle>
	</style>
	<style name="evenodd">
		<conditionalStyle>
			<conditionExpression><![CDATA[$V{REPORT_COUNT}%2==0]]></conditionExpression>
			<style mode="Transparent" forecolor="#58595B" backcolor="#DFE0E2" hAlign="Left" fontName="Calibri" fontSize="9"/>
		</conditionalStyle>
		<conditionalStyle>
			<conditionExpression><![CDATA[$V{REPORT_COUNT}%2!=0]]></conditionExpression>
			<style mode="Transparent" forecolor="#58595B" backcolor="#E9E9EB" hAlign="Left" fontName="Calibri" fontSize="9"/>
		</conditionalStyle>
	</style>
	<subDataset name="Table Dataset 1" uuid="49fa04cc-c488-4729-9e7d-6914ebb42321">
		<queryString>
			<![CDATA[SELECT name, phone_office, billing_address_city, billing_address_street, billing_address_country FROM accounts ORDER BY billing_address_country, billing_address_city]]>
		</queryString>
		<field name="name" class="java.lang.String"/>
		<field name="phone_office" class="java.lang.String"/>
		<field name="billing_address_city" class="java.lang.String"/>
		<field name="billing_address_street" class="java.lang.String"/>
		<field name="billing_address_country" class="java.lang.String"/>
		<sortField name="billing_address_country"/>
		<sortField name="billing_address_city"/>
		<variable name="CityyNumber" class="java.lang.Integer" incrementType="Group" incrementGroup="CityGroup" calculation="Count">
			<variableExpression><![CDATA[Boolean.TRUE]]></variableExpression>
			<initialValueExpression><![CDATA[]]></initialValueExpression>
		</variable>
		<group name="CityGroup">
			<groupExpression><![CDATA[$F{billing_address_city}]]></groupExpression>
		</group>
	</subDataset>
	<parameter name="LoggedInUsername" class="java.lang.String" isForPrompting="false"/>
	<background>
		<band/>
	</background>
	<title>
		<band height="35" splitType="Stretch">
			<image scaleImage="RetainShape" hAlign="Right" vAlign="Bottom" onErrorType="Icon">
				<reportElement x="385" y="5" width="170" height="26" uuid="5e9454d0-b16e-4eba-a486-6cddd256b092">
					<property name="local_mesure_unity" value="pixel"/>
				</reportElement>
				<imageExpression><![CDATA["repo:Jaspersoft_logo.png"]]></imageExpression>
				<hyperlinkTooltipExpression><![CDATA["JasperReports Logo"]]></hyperlinkTooltipExpression>
			</image>
			<textField isBlankWhenNull="true">
				<reportElement key="" x="19" y="0" width="121" height="35" forecolor="#004667" uuid="deee9a28-7326-47ec-b7a0-525d7ba7ed4c"/>
				<box>
					<rightPen lineWidth="1.0"/>
				</box>
				<textElement textAlignment="Center" verticalAlignment="Middle">
					<font fontName="Calibri" size="16" isBold="true"/>
				</textElement>
				<textFieldExpression><![CDATA["Accounts"]]></textFieldExpression>
			</textField>
			<textField pattern="MM/dd/yy">
				<reportElement x="150" y="9" width="131" height="20" forecolor="#58595B" uuid="53fd2336-42d6-45f1-953b-75e9ad17783e">
					<property name="local_mesure_unity" value="pixel"/>
					<property name="local_mesure_unitheight" value="pixel"/>
					<property name="com.jaspersoft.studio.unit.height" value="px"/>
					<property name="com.jaspersoft.studio.unit.y" value="px"/>
				</reportElement>
				<box leftPadding="2"/>
				<textElement verticalAlignment="Middle">
					<font fontName="Calibri" size="14"/>
				</textElement>
				<textFieldExpression><![CDATA[new java.util.Date()]]></textFieldExpression>
			</textField>
		</band>
	</title>
	<pageFooter>
		<band height="80">
			<textField isStretchWithOverflow="true">
				<reportElement x="458" y="15" width="80" height="16" forecolor="#58595B" uuid="e3de1926-447d-4841-bacb-c59e2b0cfcfc"/>
				<textElement textAlignment="Right">
					<font fontName="Calibri" size="11"/>
				</textElement>
				<textFieldExpression><![CDATA["Page " + String.valueOf($V{PAGE_NUMBER}) + " of"]]></textFieldExpression>
			</textField>
			<textField isStretchWithOverflow="true" evaluationTime="Report">
				<reportElement x="538" y="15" width="27" height="16" forecolor="#58595B" uuid="10d04f85-a2c5-4c4e-abf1-259b61c72cb2"/>
				<textElement textAlignment="Left">
					<font fontName="Calibri" size="11"/>
				</textElement>
				<textFieldExpression><![CDATA[" " + String.valueOf($V{PAGE_NUMBER})]]></textFieldExpression>
			</textField>
			<textField>
				<reportElement x="55" y="15" width="216" height="16" forecolor="#58595B" uuid="5cd547ad-b274-472e-8f0c-ef7b58bd67e6">
					<property name="local_mesure_unity" value="pixel"/>
					<property name="local_mesure_unitx" value="pixel"/>
					<property name="com.jaspersoft.studio.unit.x" value="px"/>
				</reportElement>
				<textElement>
					<font fontName="Calibri" size="11"/>
				</textElement>
				<textFieldExpression><![CDATA[$P{LoggedInUsername}]]></textFieldExpression>
			</textField>
			<staticText>
				<reportElement x="20" y="15" width="49" height="16" forecolor="#58595B" uuid="0eda833c-2a93-4d96-8b34-462418fefa01"/>
				<textElement>
					<font fontName="Calibri" size="11"/>
				</textElement>
				<text><![CDATA[Run by: ]]></text>
			</staticText>
		</band>
	</pageFooter>
	<summary>
		<band height="90" splitType="Stretch">
			<componentElement>
				<reportElement key="table" x="15" y="12" width="555" height="70" uuid="f60eaf95-57ee-4fd0-bddd-ad38fce3bd29"/>
				<jr:table xmlns:jr="http://jasperreports.sourceforge.net/jasperreports/components" xsi:schemaLocation="http://jasperreports.sourceforge.net/jasperreports/components http://jasperreports.sourceforge.net/xsd/components.xsd" whenNoDataType="AllSectionsNoDetail">
					<datasetRun subDataset="Table Dataset 1" uuid="b9577ca4-652f-45f9-a10d-5d0b08ca33d9">
						<connectionExpression><![CDATA[$P{REPORT_CONNECTION}]]></connectionExpression>
					</datasetRun>
					<jr:columnGroup width="555" uuid="59b21e85-a0b4-43a8-86d0-dba588c4be0b">
						<property name="local_mesure_unitheight" value="pixel"/>
						<jr:groupHeader groupName="CityGroup">
							<jr:cell height="31" rowSpan="1">
								<textField evaluationTime="Group" evaluationGroup="CityGroup">
									<reportElement positionType="Float" stretchType="RelativeToBandHeight" mode="Opaque" x="0" y="10" width="555" height="21" isPrintWhenDetailOverflows="true" forecolor="#58595B" backcolor="#D3D4D4" uuid="1c2bc952-227c-4364-ad2e-26044934d0e1">
										<property name="local_mesure_unitheight" value="pixel"/>
										<property name="com.jaspersoft.studio.unit.height" value="px"/>
									</reportElement>
									<box leftPadding="0" bottomPadding="0" rightPadding="0">
										<topPen lineWidth="1.0" lineColor="#D7DAD9"/>
										<leftPen lineWidth="1.0" lineColor="#D7DAD9"/>
										<bottomPen lineWidth="0.5" lineStyle="Solid" lineColor="#D7DAD9"/>
										<rightPen lineWidth="1.0" lineColor="#D7DAD9"/>
									</box>
									<textElement textAlignment="Left" verticalAlignment="Middle">
										<font fontName="Calibri" size="11" isBold="true"/>
									</textElement>
									<textFieldExpression><![CDATA["    " + String.valueOf($V{CityyNumber}) + "    " + $F{billing_address_city}+ ", " + $F{billing_address_country}]]></textFieldExpression>
									<anchorNameExpression><![CDATA[String.valueOf($F{billing_address_city})]]></anchorNameExpression>
								</textField>
							</jr:cell>
						</jr:groupHeader>
						<jr:column width="30" uuid="5a33eb3b-13f8-44d4-9442-0da06e603407">
							<property name="local_mesure_unitheight" value="pixel"/>
							<jr:columnHeader height="20" rowSpan="1">
								<textField isStretchWithOverflow="true">
									<reportElement style="h9" positionType="Float" stretchType="RelativeToBandHeight" mode="Opaque" x="0" y="0" width="30" height="20" isPrintWhenDetailOverflows="true" forecolor="#58595B" uuid="a2eb12b9-6027-49db-b990-2757dc46d72d">
										<property name="net.sf.jasperreports.export.pdf.tag.th" value="full"/>
										<property name="net.sf.jasperreports.export.pdf.tag.colspan" value="1"/>
										<property name="local_mesure_unitheight" value="pixel"/>
									</reportElement>
									<box>
										<topPen lineWidth="1.0" lineColor="#D7DAD9"/>
										<leftPen lineWidth="1.0" lineColor="#D7DAD9"/>
										<bottomPen lineWidth="1.0" lineColor="#D7DAD9"/>
										<rightPen lineWidth="0.5" lineColor="#D7DAD9"/>
									</box>
									<textElement textAlignment="Center" verticalAlignment="Middle">
										<font fontName="Calibri" size="11" isBold="true"/>
									</textElement>
									<textFieldExpression><![CDATA["#"]]></textFieldExpression>
								</textField>
							</jr:columnHeader>
							<jr:detailCell height="20" rowSpan="1">
								<textField>
									<reportElement style="evenodd" positionType="Float" stretchType="RelativeToBandHeight" mode="Opaque" x="0" y="0" width="30" height="20" isPrintWhenDetailOverflows="true" forecolor="#58595B" uuid="53095fc7-7438-46dc-96d9-218839437414">
										<property name="net.sf.jasperreports.export.pdf.tag.td" value="full"/>
										<property name="local_mesure_unitheight" value="pixel"/>
									</reportElement>
									<box topPadding="0" bottomPadding="0">
										<topPen lineWidth="0.5" lineColor="#D7DAD9"/>
										<leftPen lineWidth="1.0" lineColor="#D7DAD9"/>
										<bottomPen lineWidth="0.5" lineStyle="Solid" lineColor="#D7DAD9"/>
										<rightPen lineWidth="0.5" lineColor="#D7DAD9"/>
									</box>
									<textElement textAlignment="Center" verticalAlignment="Middle">
										<font fontName="Calibri" size="10"/>
									</textElement>
									<textFieldExpression><![CDATA[$V{CityGroup_COUNT}+""]]></textFieldExpression>
								</textField>
							</jr:detailCell>
						</jr:column>
						<jr:column width="265" uuid="acec75e8-4b51-41db-86b3-9dd5aa6e6d40">
							<jr:columnHeader height="20" rowSpan="1">
								<textField isStretchWithOverflow="true">
									<reportElement style="h9" positionType="Float" stretchType="RelativeToBandHeight" mode="Opaque" x="0" y="0" width="265" height="20" isPrintWhenDetailOverflows="true" forecolor="#58595B" uuid="c0948dac-b0b3-4ebd-8bfc-32d5a2807984">
										<property name="net.sf.jasperreports.export.pdf.tag.th" value="full"/>
										<property name="net.sf.jasperreports.export.pdf.tag.colspan" value="2"/>
										<property name="local_mesure_unitheight" value="pixel"/>
									</reportElement>
									<box leftPadding="8" bottomPadding="0" rightPadding="0">
										<topPen lineWidth="1.0" lineColor="#D7DAD9"/>
										<leftPen lineWidth="0.5" lineColor="#D7DAD9"/>
										<bottomPen lineWidth="1.0" lineColor="#D7DAD9"/>
										<rightPen lineWidth="0.5" lineColor="#D7DAD9"/>
									</box>
									<textElement verticalAlignment="Middle">
										<font fontName="Calibri" size="11" isBold="true"/>
									</textElement>
									<textFieldExpression><![CDATA["Name"]]></textFieldExpression>
								</textField>
							</jr:columnHeader>
							<jr:detailCell height="20" rowSpan="1">
								<textField isStretchWithOverflow="true">
									<reportElement key="" style="evenodd" positionType="Float" stretchType="RelativeToBandHeight" mode="Opaque" x="0" y="0" width="265" height="20" isPrintWhenDetailOverflows="true" forecolor="#58595B" uuid="ba7885f0-f5c9-4d81-903b-dedff461b9bd">
										<property name="net.sf.jasperreports.export.pdf.tag.td" value="full"/>
									</reportElement>
									<box topPadding="0" leftPadding="8" bottomPadding="0">
										<topPen lineWidth="0.5" lineColor="#D7DAD9"/>
										<leftPen lineWidth="0.5" lineColor="#D7DAD9"/>
										<bottomPen lineWidth="0.5" lineStyle="Solid" lineColor="#D7DAD9"/>
										<rightPen lineWidth="0.5" lineColor="#D7DAD9"/>
									</box>
									<textElement verticalAlignment="Middle">
										<font fontName="Calibri" size="10"/>
									</textElement>
									<textFieldExpression><![CDATA[$F{name}]]></textFieldExpression>
								</textField>
							</jr:detailCell>
						</jr:column>
						<jr:column width="130" uuid="be65bb66-1769-4b97-8dd1-b250c15d977d">
							<jr:columnHeader height="20" rowSpan="1">
								<textField isStretchWithOverflow="true">
									<reportElement style="h9" positionType="Float" stretchType="RelativeToBandHeight" mode="Opaque" x="0" y="0" width="130" height="20" isPrintWhenDetailOverflows="true" forecolor="#58595B" uuid="7db8e43f-4c1f-4a78-8782-38b54a43419f">
										<property name="net.sf.jasperreports.export.pdf.tag.th" value="full"/>
									</reportElement>
									<box leftPadding="8" bottomPadding="0" rightPadding="0">
										<topPen lineWidth="1.0" lineColor="#D7DAD9"/>
										<leftPen lineWidth="0.5" lineColor="#D7DAD9"/>
										<bottomPen lineWidth="1.0" lineColor="#D7DAD9"/>
										<rightPen lineWidth="0.5" lineColor="#D7DAD9"/>
									</box>
									<textElement verticalAlignment="Middle">
										<font fontName="Calibri" size="11" isBold="true"/>
									</textElement>
									<textFieldExpression><![CDATA["Phone"]]></textFieldExpression>
								</textField>
							</jr:columnHeader>
							<jr:detailCell height="20" rowSpan="1">
								<textField isStretchWithOverflow="true">
									<reportElement key="" style="evenodd" positionType="Float" stretchType="RelativeToBandHeight" mode="Opaque" x="0" y="0" width="130" height="20" isPrintWhenDetailOverflows="true" forecolor="#58595B" uuid="80b0adac-bc22-4e39-8e49-a01f0b2701ff">
										<property name="net.sf.jasperreports.export.pdf.tag.td" value="full"/>
									</reportElement>
									<box topPadding="0" leftPadding="8" bottomPadding="0">
										<topPen lineWidth="0.5" lineColor="#D7DAD9"/>
										<leftPen lineWidth="0.5" lineColor="#D7DAD9"/>
										<bottomPen lineWidth="0.5" lineStyle="Solid" lineColor="#D7DAD9"/>
										<rightPen lineWidth="0.5" lineColor="#D7DAD9"/>
									</box>
									<textElement verticalAlignment="Middle">
										<font fontName="Calibri" size="10"/>
									</textElement>
									<textFieldExpression><![CDATA[$F{phone_office}]]></textFieldExpression>
								</textField>
							</jr:detailCell>
						</jr:column>
						<jr:column width="130" uuid="5d2d8006-1bbe-4353-9a76-808595eab7a1">
							<property name="local_mesure_unitheight" value="pixel"/>
							<jr:columnHeader height="20" rowSpan="1">
								<textField isStretchWithOverflow="true">
									<reportElement style="h9" positionType="Float" stretchType="RelativeToBandHeight" mode="Opaque" x="0" y="0" width="130" height="20" isPrintWhenDetailOverflows="true" forecolor="#58595B" uuid="5e7ed0ad-67ed-4c27-9398-4bc3a055279d">
										<property name="net.sf.jasperreports.export.pdf.tag.th" value="full"/>
									</reportElement>
									<box leftPadding="8" bottomPadding="0" rightPadding="0">
										<topPen lineWidth="1.0" lineColor="#D7DAD9"/>
										<leftPen lineWidth="0.5" lineColor="#D7DAD9"/>
										<bottomPen lineWidth="1.0" lineColor="#D7DAD9"/>
										<rightPen lineWidth="1.0" lineColor="#D7DAD9"/>
									</box>
									<textElement verticalAlignment="Middle">
										<font fontName="Calibri" size="11" isBold="true"/>
									</textElement>
									<textFieldExpression><![CDATA["Address"]]></textFieldExpression>
								</textField>
							</jr:columnHeader>
							<jr:detailCell height="20" rowSpan="1">
								<textField isStretchWithOverflow="true">
									<reportElement key="" style="evenodd" positionType="Float" stretchType="RelativeToBandHeight" mode="Opaque" x="0" y="0" width="130" height="20" isPrintWhenDetailOverflows="true" forecolor="#58595B" uuid="300aed5e-5074-4e24-989e-323af6fc93a0">
										<property name="net.sf.jasperreports.export.pdf.tag.td" value="full"/>
										<property name="local_mesure_unitheight" value="pixel"/>
									</reportElement>
									<box topPadding="0" leftPadding="8" bottomPadding="0">
										<topPen lineWidth="0.5" lineColor="#D7DAD9"/>
										<leftPen lineWidth="0.5" lineColor="#D7DAD9"/>
										<bottomPen lineWidth="0.5" lineStyle="Solid" lineColor="#D7DAD9"/>
										<rightPen lineWidth="1.0" lineColor="#D7DAD9"/>
									</box>
									<textElement verticalAlignment="Middle">
										<font fontName="Calibri" size="10"/>
									</textElement>
									<textFieldExpression><![CDATA[$F{billing_address_street}]]></textFieldExpression>
								</textField>
							</jr:detailCell>
						</jr:column>
					</jr:columnGroup>
				</jr:table>
			</componentElement>
		</band>
	</summary>
</jasperReport>
