supermart.inventory_fact_ALL.label=Inventaire
supermart.inventory_fact_ALL.description=Ventes de l\u2019entrep\u00f4t et co\u00fbt.\\nUnit\u00e9s command\u00e9es et exp\u00e9di\u00e9es.\\nTemps d\u2019approvisionnement et facture en magasin.
supermart.inventory_fact_2012.units_ordered.label=Unit\u00e9s command\u00e9es 2012
supermart.inventory_fact_2012.units_ordered.description=Unit\u00e9s command\u00e9es 2012
supermart.inventory_fact_2012.units_shipped.label=Unit\u00e9s exp\u00e9di\u00e9es 2012
supermart.inventory_fact_2012.units_shipped.description=Unit\u00e9s exp\u00e9di\u00e9es 2012
supermart.inventory_fact_2012.warehouse_sales.label=Ventes de l\u2019entrep\u00f4t 2012
supermart.inventory_fact_2012.warehouse_sales.description=Ventes de l\u2019entrep\u00f4t 2012
supermart.inventory_fact_2012.warehouse_cost.label=Co\u00fbt d\u2019entreposage 2012
supermart.inventory_fact_2012.warehouse_cost.description=Co\u00fbt d\u2019entreposage 2012
supermart.inventory_fact_2012.supply_time.label=Temps d\u2019approvisionnement 2012
supermart.inventory_fact_2012.supply_time.description=Temps d\u2019approvisionnement 2012
supermart.inventory_fact_2012.store_invoice.label=Facture magasin 2012
supermart.inventory_fact_2012.store_invoice.description=Facture magasin 2012
supermart.inventory_fact_2013.units_ordered.label=Unit\u00e9s command\u00e9es 2013
supermart.inventory_fact_2013.units_ordered.description=Unit\u00e9s command\u00e9es 2013
supermart.inventory_fact_2013.units_shipped.label=Unit\u00e9s exp\u00e9di\u00e9es 2013
supermart.inventory_fact_2013.units_shipped.description=Unit\u00e9s exp\u00e9di\u00e9es 2013
supermart.inventory_fact_2013.warehouse_sales.label=Ventes de l\u2019entrep\u00f4t 2013
supermart.inventory_fact_2013.warehouse_sales.description=Ventes de l\u2019entrep\u00f4t 2013
supermart.inventory_fact_2013.warehouse_cost.label=Co\u00fbt d\u2019entreposage 2013
supermart.inventory_fact_2013.warehouse_cost.description=Co\u00fbt d\u2019entreposage 2013
supermart.inventory_fact_2013.warehouse_profit.label=B\u00e9n\u00e9fice de l\u2019entrep\u00f4t 2013
supermart.inventory_fact_2013.warehouse_profit.description=B\u00e9n\u00e9fice de l\u2019entrep\u00f4t 2013
supermart.inventory_fact_2013.supply_time.label=Temps d\u2019approvisionnement 2013
supermart.inventory_fact_2013.supply_time.description=Temps d\u2019approvisionnement 2013
supermart.inventory_fact_2013.store_invoice.label=Facture magasin 2013
supermart.inventory_fact_2013.store_invoice.description=Facture magasin 2013
supermart.salary.label=Salaire
supermart.salary.description=Salaire, heures suppl\u00e9mentaires pay\u00e9es. Vacances accumul\u00e9es et prises.
supermart.salary.pay_date.label=Date de paie
supermart.salary.pay_date.description=Date de paie
supermart.salary.salary_paid.label=Salaire vers\u00e9
supermart.salary.salary_paid.description=Salaire vers\u00e9
supermart.salary.overtime_paid.label=Heures suppl\u00e9mentaires pay\u00e9es
supermart.salary.overtime_paid.description=Heures suppl\u00e9mentaires pay\u00e9es
supermart.salary.vacation_accrued.label=Vacances accumul\u00e9es
supermart.salary.vacation_accrued.description=Vacances accumul\u00e9es
supermart.salary.vacation_used.label=Vacances prises
supermart.salary.vacation_used.description=Vacances prises
supermart.expense_fact.label=D\u00e9penses
supermart.expense_fact.description=Montant et date des d\u00e9penses.
supermart.expense_fact.exp_date.label=Date des d\u00e9penses
supermart.expense_fact.exp_date.description=Date des d\u00e9penses
supermart.expense_fact.amount.label=Montant des d\u00e9penses
supermart.expense_fact.amount.description=Montant des d\u00e9penses
supermart.sales_fact_ALL.label=Ventes
supermart.sales_fact_ALL.description=Ventes
supermart.sales_fact_2012.store_sales.label=Ventes du magasin 2012
supermart.sales_fact_2012.store_sales.description=Ventes du magasin 2012
supermart.sales_fact_2012.store_cost.label=Co\u00fbt du magasin 2012
supermart.sales_fact_2012.store_cost.description=Co\u00fbt du magasin 2012
supermart.sales_fact_2012.unit_sales.label=Ventes unitaires 2012
supermart.sales_fact_2012.unit_sales.description=Ventes unitaires 2012
supermart.sales_fact_2013.store_sales.label=Ventes du magasin 2013
supermart.sales_fact_2013.store_sales.description=Ventes du magasin 2013
supermart.sales_fact_2013.store_cost.label=Co\u00fbt du magasin 2013
supermart.sales_fact_2013.store_cost.description=Co\u00fbt du magasin 2013
supermart.sales_fact_2013.unit_sales.label=Ventes unitaires 2013
supermart.sales_fact_2013.unit_sales.description=Ventes unitaires 2013
supermart.time_by_day.label=Heure
supermart.time_by_day.description=Heures par jour et p\u00e9riode
supermart.time_by_day.the_date.label=Date
supermart.time_by_day.the_date.description=Date
supermart.time_by_day.the_day.label=Jour de la semaine
supermart.time_by_day.the_day.description=Jour de la semaine (lundi - dimanche)
supermart.time_by_day.the_month.label=Mois
supermart.time_by_day.the_month.description=Nom du mois (janvier \u2013 d\u00e9cembre)
supermart.time_by_day.the_year.label=Ann\u00e9e
supermart.time_by_day.the_year.description=Ann\u00e9e
supermart.time_by_day.day_of_month.label=Jour du mois
supermart.time_by_day.day_of_month.description=Jour du mois (1 \u2013 31)
supermart.time_by_day.week_of_year.label=Semaine de l'ann\u00e9e
supermart.time_by_day.week_of_year.description=Semaine de l\u2019ann\u00e9e (1 \u2013 52)
supermart.time_by_day.month_of_year.label=Mois de l'ann\u00e9e
supermart.time_by_day.month_of_year.description=Mois de l\u2019ann\u00e9e (1 \u2013 12)
supermart.time_by_day.quarter.label=Trimestre
supermart.time_by_day.quarter.description=Trimestre (T1, T2, T3, T4)
supermart.time_by_day.fiscal_period.label=Exercice fiscal
supermart.time_by_day.fiscal_period.description=Exercice fiscal
supermart.time_by_day.day_of_week.label=Jour de la semaine
supermart.time_by_day.day_of_week.description=Jour de la semaine (1 \u2013 7)
supermart.store.label=Magasins
supermart.store.description=Magasins
supermart.store.store_type.label=Type de magasin
supermart.store.store_type.description=Type de magasin (HQ, Small, Mid-Size, Deluxe, Gourmet Supermarket)
supermart.store.store_name.label=Nom du magasin
supermart.store.store_name.description=Nom du magasin (HQ, Magasin 1 \u2013 Magasin 24)
supermart.store_contact.label=Contact au magasin
supermart.store_contact.description=Coordonn\u00e9es du contact au magasin
supermart.store.store_number.description=Num\u00e9ro du magasin
supermart.store.store_number.description=Num\u00e9ro du magasin (1 \u2013 24)
supermart.store.store_street_address.label=Adresse du magasin
supermart.store.store_street_address.description=Adresse du magasin
supermart.store.store_city.label=Ville
supermart.store.store_city.description=Ville du magasin
supermart.store.store_state.label=\u00c9tat/Province
supermart.store.store_state.description=\u00c9tat/Province du magasin
supermart.store.store_postal_code.label=Code postal
supermart.store.store_postal_code.description=Code postal du magasin
supermart.store.store_country.label=Pays
supermart.store.store_country.description=Pays du magasin
supermart.store.store_manager.label=Responsable
supermart.store.store_manager.description=Responsable du magasin
supermart.store.store_phone.label=T\u00e9l\u00e9phone
supermart.store.store_phone.description=T\u00e9l\u00e9phone du magasin
supermart.store.store_fax.label=Fax
supermart.store.store_fax.description=Fax du magasin
supermart.region.label=R\u00e9gions
supermart.region.description=R\u00e9gions des ventes
supermart.region.sales_city.label=Ville
supermart.region.sales_city.description=Ville des ventes
supermart.region.sales_state_province.label=\u00c9tat
supermart.region.sales_state_province.description=\u00c9tat/Province des ventes
supermart.region.sales_district.label=District
supermart.region.sales_district.description=District des ventes
supermart.region.sales_region.label=R\u00e9gion
supermart.region.sales_region.description=R\u00e9gion des ventes
supermart.region.sales_country.label=Pays
supermart.region.sales_country.description=Pays des ventes
supermart.store_features.label=Caract\u00e9ristiques du magasin
supermart.store_features.description=Services et caract\u00e9ristiques des sp\u00e9cialit\u00e9s du magasin
supermart.store.first_opened_date.label=Date d\u2019ouverture
supermart.store.first_opened_date.description=Date de premi\u00e8re ouverture du magasin
supermart.store.last_remodel_date.label=Date de r\u00e9novation
supermart.store.last_remodel_date.description=Date de derni\u00e8re r\u00e9novation du magasin
supermart.store.store_sqft.label=Pieds carr\u00e9s
supermart.store.store_sqft.description=Surface totale du magasin en pieds carr\u00e9s
supermart.store.grocery_sqft.label=Surface \u00e9picerie (en pieds carr\u00e9s)
supermart.store.grocery_sqft.description=Surface du rayon \u00e9picerie en pieds carr\u00e9s
supermart.store.frozen_sqft.label=Surface surgel\u00e9s (en pieds carr\u00e9s)
supermart.store.frozen_sqft.description=Surface du rayon surgel\u00e9s en pieds carr\u00e9s
supermart.store.meat_sqft.label=Surface boucherie (en pieds carr\u00e9s)
supermart.store.meat_sqft.description=Surface du rayon boucherie en pieds carr\u00e9s
supermart.store.coffee_bar.label=Caf\u00e9
supermart.store.coffee_bar.description=Caf\u00e9 (Non = 0, Oui = 1)
supermart.store.video_store.label=Magasin de vid\u00e9os
supermart.store.video_store.description=Magasin de vid\u00e9os (Non = 0, Oui = 1)
supermart.store.salad_bar.label=Bar \u00e0 salades
supermart.store.salad_bar.description=Bar \u00e0 salades (Non = 0, Oui = 1)
supermart.store.prepared_food.label=Plats pr\u00e9par\u00e9s
supermart.store.prepared_food.description=Plats pr\u00e9par\u00e9s (Non = 0, Oui = 1)
supermart.store.florist.label=Fleuriste
supermart.store.florist.description=Fleuriste (Non = 0, Oui = 1)
supermart.account.label=Comptabilit\u00e9
supermart.account.description=Types de comptabilit\u00e9 et descriptions
supermart.account.account_description.label=Description de compte
supermart.account.account_description.description=Descriptions des comptes d\u2019actif, de passif, de produits, de charges
supermart.account.account_type.label=Type de compte
supermart.account.account_type.description=Type de compte (actif, passif, produits, charges)
supermart.category.category_id.label=ID cat\u00e9gorie
supermart.category.category_id.description=ID cat\u00e9gorie comptabilit\u00e9 (r\u00e9elle, corrective, budg\u00e9taire, pr\u00e9visionnelle)
supermart.category.category_description.label=Description de cat\u00e9gorie
supermart.category.category_description.description=Description de cat\u00e9gorie
supermart.currency.date.label=Date devise
supermart.currency.date.description=Date de change de devise au taux de conversion
supermart.currency.currency.label=Devise
supermart.currency.currency.description=Devise (USD, MXN, CAD)
supermart.currency.conversion_ratio.label=Taux de conversion
supermart.currency.conversion_ratio.description=Taux de conversion (1 = 1 USD)
supermart.employee.label=Employ\u00e9s
supermart.employee.description=Coordonn\u00e9es de l\u2019employ\u00e9 et informations professionnelles
supermart.employee.employee_id.label=ID employ\u00e9
supermart.employee.employee_id.description=ID employ\u00e9
supermart.employee.full_name.label=Nom complet
supermart.employee.full_name.description=Nom complet de l\u2019employ\u00e9
supermart.employee.first_name.label=Pr\u00e9nom
supermart.employee.first_name.description=Pr\u00e9nom de l\u2019employ\u00e9
supermart.employee.last_name.label=Nom de famille
supermart.employee.last_name.description=Nom de famille de l\u2019employ\u00e9
supermart.department.department_description.label=Secteur
supermart.department.department_description.description=Secteur
supermart.employee.position_title.label=Poste
supermart.employee.position_title.description=Intitul\u00e9 du poste
supermart.employee.management_role.label=Statut
supermart.employee.management_role.description=Statut (S\u00e9nior / Magasin / Cadre moyen\u00a0; Temps plein / Int\u00e9rimaire)
supermart.employee.hire_date.label=Date d\u2019embauche
supermart.employee.hire_date.description=Date d\u2019embauche de l\u2019employ\u00e9
supermart.employee.end_date.label=Date de fin
supermart.employee.end_date.description=Date de fin de contrat de l\u2019employ\u00e9
supermart.employee_private.label=Informations confidentielles sur l\u2019employ\u00e9
supermart.employee_private.labeldescription=Informations confidentielles sur l\u2019employ\u00e9 (pour les RH)
supermart.employee.birth_date.label=Date de naissance
supermart.employee.birth_date.description=Date de naissance de l\u2019employ\u00e9
supermart.employee.salary.label=Salaire
supermart.employee.salary.description=Salaire de l\u2019employ\u00e9
supermart.employee.education_level.label=\u00c9tudes
supermart.employee.education_level.description=Niveau d\u2019\u00e9tudes de l\u2019employ\u00e9
supermart.employee.marital_status.label=Situation familiale
supermart.employee.marital_status.description=Situation familiale de l\u2019employ\u00e9
supermart.employee.gender.label=Sexe
supermart.employee.gender.description=Sexe de l\u2019employ\u00e9
supermart.position.pay_type.label=Fr\u00e9quence de paie
supermart.position.pay_type.description=Fr\u00e9quence de paie de l\u2019employ\u00e9 (mensuelle)
supermart.position.min_scale.label=\u00c9chelon min.
supermart.position.min_scale.description=\u00c9chelon salarial du poste (minimum)
supermart.position.max_scale.label=\u00c9chelon max.
supermart.position.max_scale.description=\u00c9chelon salarial du poste (maximum)
supermart.currency.date.label=Date devise
supermart.currency.date.description=Date devise
supermart.currency.currency.label=Devise
supermart.currency.currency.description=Devise (USD, MXN, CAD)
supermart.currency.conversion_ratio.label=Taux de conversion
supermart.currency.conversion_ratio.description=Taux de change de devise (1 = 1 USD)
supermart.warehouse.label=Entrep\u00f4ts
supermart.warehouse.description=Entrep\u00f4ts
supermart.warehouse.warehouse_name.label=Nom
supermart.warehouse.warehouse_name.description=Nom de l\u2019entrep\u00f4t
supermart.warehouse_class.description.label=Description de cat\u00e9gorie
supermart.warehouse_class.description.description=Description de cat\u00e9gorie d\u2019entrep\u00f4t
supermart.warehouse_contact.label=Contact \u00e0 l\u2019entrep\u00f4t
supermart.warehouse_contact.description=Coordonn\u00e9es du contact \u00e0 l\u2019entrep\u00f4t
supermart.warehouse.wa_address1.label=Adresse 1 
supermart.warehouse.wa_address1.description=Adresse de l\u2019entrep\u00f4t - 1
supermart.warehouse.wa_address2.label=Adresse 2
supermart.warehouse.wa_address2.description=Adresse de l\u2019entrep\u00f4t - 2
supermart.warehouse.wa_address3.label=Adresse 3
supermart.warehouse.wa_address3.description=Adresse de l\u2019entrep\u00f4t - 3
supermart.warehouse.wa_address4.label=Adresse 4
supermart.warehouse.wa_address4.description=Adresse de l\u2019entrep\u00f4t - 4
supermart.warehouse.warehouse_city.label=Ville
supermart.warehouse.warehouse_city.description=Ville de l\u2019entrep\u00f4t
supermart.warehouse.warehouse_state_province.label=\u00c9tat/Province
supermart.warehouse.warehouse_state_province.description=\u00c9tat/Province de l\u2019entrep\u00f4t
supermart.warehouse.warehouse_postal_code.label=Code postal
supermart.warehouse.warehouse_postal_code.description=Code postal de l\u2019entrep\u00f4t
supermart.warehouse.warehouse_country.label=Pays
supermart.warehouse.warehouse_country.description=Pays de l\u2019entrep\u00f4t
supermart.warehouse.warehouse_owner_name.label=Propri\u00e9taire
supermart.warehouse.warehouse_owner_name.description=Nom du propri\u00e9taire de l\u2019entrep\u00f4t
supermart.warehouse.warehouse_phone.label=T\u00e9l\u00e9phone
supermart.warehouse.warehouse_phone.description=T\u00e9l\u00e9phone de l\u2019entrep\u00f4t
supermart.warehouse.warehouse_fax.label=Fax
supermart.warehouse.warehouse_fax.description=Fax de l\u2019entrep\u00f4t
supermart.customer.label=Clients
supermart.customer.description=Clients
supermart.customer.account_num.label=N\u00ba compte
supermart.customer.account_num.description=N\u00b0 compte client
supermart.customer.lname.label=Nom de famille
supermart.customer.lname.description=Nom de famille du client
supermart.customer.fname.label=Pr\u00e9nom
supermart.customer.fname.description=Pr\u00e9nom du client
supermart.customer.mi.label=MI
supermart.customer.mi.description=Initiale deuxi\u00e8me pr\u00e9nom du client
supermart.customer.customer_contact.label=Contact chez le client
supermart.customer.customer_contact.description=Coordonn\u00e9es du contact chez le client
supermart.customer.address1.label=Adresse 1
supermart.customer.address1.description=Adresse du client - 1
supermart.customer.address2.label=Adresse 2
supermart.customer.address2.description=Adresse du client - 2
supermart.customer.address3.label=Adresse 3
supermart.customer.address3.description=Adresse du client - 3
supermart.customer.address4.label=Adresse 4
supermart.customer.address4.description=Adresse du client - 4
supermart.customer.city.label=Ville
supermart.customer.city.description=Ville du client
supermart.customer.state_province.label=\u00c9tat/Province
supermart.customer.state_province.description=\u00c9tat/Province du client
supermart.customer.postal_code.label=Code postal
supermart.customer.postal_code.description=Code postal du client
supermart.customer.country.label=Pays
supermart.customer.country.description=Pays du client
supermart.customer.phone1.label=T\u00e9l\u00e9phone 1
supermart.customer.phone1.description=T\u00e9l\u00e9phone du client - 1
supermart.customer.phone2.label=T\u00e9l\u00e9phone 2
supermart.customer.phone2.description=T\u00e9l\u00e9phone du client - 2
supermart.customer.birthdate.label=Date de naissance
supermart.customer.birthdate.description=Date de naissance du client
supermart.customer.marital_status.label=Situation familiale
supermart.customer.marital_status.description=\u00c9tat matrimonial du client
supermart.customer.yearly_income.label=Revenu annuel
supermart.customer.yearly_income.description=Revenu annuel du client
supermart.customer.gender.label=Sexe
supermart.customer.gender.description=Sexe du client
supermart.customer.total_children.label=Nombre total d'enfants
supermart.customer.total_children.description=Nombre total d\u2019enfants du client
supermart.customer.num_children_at_home.label=Enfants \u00e0 charge
supermart.customer.num_children_at_home.description=Enfants vivant au domicile du client
supermart.customer.education.label=\u00c9tudes
supermart.customer.education.description=Niveau d\u2019\u00e9tudes du client
supermart.customer.date_accnt_opened.label=Date d'ouverture du compte
supermart.customer.date_accnt_opened.description=Date d\u2019ouverture du compte du client
supermart.customer.member_card.label=Carte de membre
supermart.customer.member_card.description=Niveau de carte de membre (standard, bronze, argent, or)
supermart.customer.occupation.label=Emploi
supermart.customer.occupation.description=Emploi du client
supermart.customer.houseowner.label=Propri\u00e9taire
supermart.customer.houseowner.description=Client propri\u00e9taire (O | N)
supermart.customer.num_cars_owned.label=Nombre de voitures
supermart.customer.num_cars_owned.description=Nombre de voitures
supermart.customer.fullname.label=Nom complet
supermart.customer.fullname.description=Nom complet du client
supermart.product.label=Produits
supermart.product.description=Produits
supermart.product.brand_name.label=Marque
supermart.product.brand_name.description=Nom de la marque
supermart.product.product_name.label=Nom du produit
supermart.product.product_name.description=Nom du produit
supermart.product.SKU.label=SKU
supermart.product.SKU.description=Unit\u00e9 de gestion des stocks
supermart.product.SRP.label=SRP
supermart.product.SRP.description=Prix de vente conseill\u00e9
supermart.product.gross_weight.label=Poids brut
supermart.product.gross_weight.description=Poids brut
supermart.product.net_weight.label=Poids net
supermart.product.net_weight.description=Poids net
supermart.product.recyclable_package.label=Emballage recyclable
supermart.product.recyclable_package.description=Emballage recyclable (N = 0, O = 1)
supermart.product.low_fat.label=All\u00e9g\u00e9
supermart.product.low_fat.description=Produit all\u00e9g\u00e9 (N = 0, O = 1)
supermart.product.units_per_case.label=Unit\u00e9s par carton
supermart.product.units_per_case.description=Unit\u00e9s par carton
supermart.product.cases_per_pallet.label=Cartons par palette
supermart.product.cases_per_pallet.description=Cartons par palette
supermart.product.shelf_width.label=Largeur de l'\u00e9tag\u00e8re
supermart.product.shelf_width.description=Largeur de l'\u00e9tag\u00e8re
supermart.product.shelf_height.label=Hauteur de l'\u00e9tag\u00e8re
supermart.product.shelf_height.description=Hauteur de l'\u00e9tag\u00e8re
supermart.product.shelf_depth.label=Profondeur de l'\u00e9tag\u00e8re
supermart.product.shelf_depth.description=Profondeur de l'\u00e9tag\u00e8re
supermart.product_class.label=Classe de produit
supermart.product_class.description=Classification du produit par famille, secteur, cat\u00e9gorie et sous-cat\u00e9gorie
supermart.product_class.product_subcategory.label=Sous-cat\u00e9gorie
supermart.product_class.product_subcategory.description=Sous-cat\u00e9gorie de produit (lait, yaourt, cr\u00e8me, fromage, etc.)
supermart.product_class.product_category.label=Cat\u00e9gorie
supermart.product_class.product_category.description=Cat\u00e9gorie de produit (laitage, fruit, etc.) par secteur
supermart.product_class.product_department.label=Secteur
supermart.product_class.product_department.description=Secteur de produit (produits laitiers, conserves, etc.) par famille
supermart.product_class.product_family.label=Famille de produits
supermart.product_class.product_family.description=Famille de produits (nourriture, boissons, non consommables) \u2013 niveau le plus \u00e9lev\u00e9
supermart.promotion.label=Promotions
supermart.promotion.description=Promotions
supermart.promotion.promotion_name.label=Nom de la promotion
supermart.promotion.promotion_name.description=Nom de la promotion
supermart.promotion.media_type.label=Type de support
supermart.promotion.media_type.description=Type de support promotionnel (tv, radio, coupon en magasin, etc.)
supermart.promotion.cost.label=Co\u00fbt
supermart.promotion.cost.description=Co\u00fbt de promotion
supermart.promotion.start_date.label=Date de d\u00e9but
supermart.promotion.start_date.description=Date de d\u00e9but de la p\u00e9riode promotionnelle
supermart.promotion.end_date.label=Date de fin
supermart.promotion.end_date.description=Date de fin de la p\u00e9riode promotionnelle
