<unifiedState filterPanelShowing="true" hasMargins="false" ignoreMaxRows="false" initedSubFilterList="true" launchType="ADH_045a_DOMAIN" maxDisplayColumns="0" maxDisplayRows="0" maxRowChoices="0" maxRows="0" mode="ichart" pageOrientation="Portrait" paperSize="content" showTableDetails="true" showTableTotals="false" summaryRowTitle="Totals" theme="default" titleBarShowing="true" titleHeight="0" topicName="Supermart Domain">
  <chartState availableChartHeight="0" availableChartWidth="0" backgroundFilled="false" chartHeight="0" chartIsVertical="true" chartWidth="0" displayXAxisLabel="true" displayYAxisLabel="false" offsetX="0" offsetY="0">
    <chartTitle />
    <chartType>1_bar</chartType>
    <displayLegendMap>
      <entry key="2_pie">
        <boolean>false</boolean>
      </entry>
      <entry key="5_scatter">
        <boolean>true</boolean>
      </entry>
      <entry key="6_timeSeries">
        <boolean>true</boolean>
      </entry>
      <entry key="1_bar">
        <boolean>true</boolean>
      </entry>
      <entry key="3_line">
        <boolean>true</boolean>
      </entry>
      <entry key="4_area">
        <boolean>true</boolean>
      </entry>
    </displayLegendMap>
    <gradient>topDown</gradient>
    <hasLinesMap>
      <entry key="2_pie">
        <boolean>false</boolean>
      </entry>
      <entry key="5_scatter">
        <boolean>false</boolean>
      </entry>
      <entry key="6_timeSeries">
        <boolean>true</boolean>
      </entry>
      <entry key="1_bar">
        <boolean>false</boolean>
      </entry>
      <entry key="3_line">
        <boolean>true</boolean>
      </entry>
      <entry key="4_area">
        <boolean>false</boolean>
      </entry>
    </hasLinesMap>
    <hasPointsMap>
      <entry key="2_pie">
        <boolean>false</boolean>
      </entry>
      <entry key="5_scatter">
        <boolean>true</boolean>
      </entry>
      <entry key="6_timeSeries">
        <boolean>false</boolean>
      </entry>
      <entry key="1_bar">
        <boolean>false</boolean>
      </entry>
      <entry key="3_line">
        <boolean>true</boolean>
      </entry>
      <entry key="4_area">
        <boolean>false</boolean>
      </entry>
    </hasPointsMap>
    <stackedMap>
      <entry key="2_pie">
        <boolean>false</boolean>
      </entry>
      <entry key="5_scatter">
        <boolean>false</boolean>
      </entry>
      <entry key="6_timeSeries">
        <boolean>false</boolean>
      </entry>
      <entry key="1_bar">
        <boolean>false</boolean>
      </entry>
      <entry key="3_line">
        <boolean>false</boolean>
      </entry>
      <entry key="4_area">
        <boolean>false</boolean>
      </entry>
    </stackedMap>
    <threeDMap>
      <entry key="2_pie">
        <boolean>true</boolean>
      </entry>
      <entry key="5_scatter">
        <boolean>true</boolean>
      </entry>
      <entry key="6_timeSeries">
        <boolean>true</boolean>
      </entry>
      <entry key="1_bar">
        <boolean>true</boolean>
      </entry>
      <entry key="3_line">
        <boolean>true</boolean>
      </entry>
      <entry key="4_area">
        <boolean>true</boolean>
      </entry>
    </threeDMap>
  </chartState>
  <complexFilter>
    <subFilter sourceString="TOP_LEVEL">
      <expressionString>A and D and (B or C)</expressionString>
    </subFilter>
  </complexFilter>
  <crosstabState numberOfColumns="0" safeColumnMode="true" safeRowMode="true" showLabels="true">
    <columnGroups>
      <queryDimension fieldDisplay="Measures" fieldDisplayExpression="Measures" includeAll="true" name="Measures" sortStatus="0" type="java.lang.String">
        <visibleLevels>
          <string>Measures</string>
        </visibleLevels>
      </queryDimension>
    </columnGroups>
    <rowGroups>
      <queryDimension categorizerName="all" fieldDisplay="Store Type" fieldDisplayExpression="$R{supermart.store.store_type.label}" includeAll="true" name="sales_fact_ALL.sales__store.sales__store__store_type" sortStatus="0" type="java.lang.String">
        <expandedLevels>
          <string>sales_fact_ALL.sales__store.sales__store__store_type</string>
        </expandedLevels>
        <visibleLevels>
          <string>sales_fact_ALL.sales__store.sales__store__store_type</string>
        </visibleLevels>
      </queryDimension>
      <queryDimension categorizerName="all" fieldDisplay="Country" fieldDisplayExpression="$R{supermart.region.sales_country.label}" includeAll="true" name="sales_fact_ALL.sales__store.sales__store__region.sales__store__region__sales_country" sortStatus="0" type="java.lang.String">
        <expandedLevels>
          <string>sales_fact_ALL.sales__store.sales__store__region.sales__store__region__sales_country</string>
        </expandedLevels>
        <visibleLevels>
          <string>sales_fact_ALL.sales__store.sales__store__region.sales__store__region__sales_country</string>
        </visibleLevels>
      </queryDimension>
    </rowGroups>
    <sortingState />
  </crosstabState>
  <filterPodOperatorStates>
    <entry key="filter_1">
      <string>filter_1</string>
    </entry>
    <entry key="filter_4">
      <string>filter_4</string>
    </entry>
  </filterPodOperatorStates>
  <groups>
    <queryDimension categorizerName="all" fieldDisplay="Store Type" fieldDisplayExpression="$R{supermart.store.store_type.label}" includeAll="true" name="sales_fact_ALL.sales__store.sales__store__store_type" sortStatus="0" type="java.lang.String">
      <expandedLevels>
        <string>sales_fact_ALL.sales__store.sales__store__store_type</string>
      </expandedLevels>
      <visibleLevels>
        <string>sales_fact_ALL.sales__store.sales__store__store_type</string>
      </visibleLevels>
    </queryDimension>
    <queryDimension categorizerName="all" fieldDisplay="Country" fieldDisplayExpression="$R{supermart.region.sales_country.label}" includeAll="true" name="sales_fact_ALL.sales__store.sales__store__region.sales__store__region__sales_country" sortStatus="0" type="java.lang.String">
      <expandedLevels>
        <string>sales_fact_ALL.sales__store.sales__store__region.sales__store__region__sales_country</string>
      </expandedLevels>
      <visibleLevels>
        <string>sales_fact_ALL.sales__store.sales__store__region.sales__store__region__sales_country</string>
      </visibleLevels>
    </queryDimension>
  </groups>
  <intelligentChartState XAxisRotation="0" XAxisStep="1" YAxisRotation="0" YAxisStep="1" showDataPoints="true" showMeasureOnValueAxis="false" typeString="multi_axis_column" />
  <measures>
    <measure function="Sum" mask="#,##0.00" measure="true" name="sales_fact_ALL.sales_fact_ALL__store_sales_2013" type="java.math.BigDecimal" width="125" />
    <measure function="Sum" mask="#,##0.00" measure="true" name="sales_fact_ALL.sales_fact_ALL__store_cost_2013" type="java.math.BigDecimal" width="125" />
    <measure function="Sum" functionMask="#,##0.00" mask="#,##0.00" measure="true" name="field_2" showSummary="false" type="java.math.BigDecimal" width="125" />
  </measures>
  <propertyMap>
    <entry key="hideEmptyRows">
      <string>false</string>
    </entry>
    <entry key="modFlags">
      <string />
    </entry>
    <entry key="typeOfViewChange">
      <string>unexpectedBehavior</string>
    </entry>
  </propertyMap>
  <subFilterList>
    <subFilter id="filter_1" letter="A" sourceString="DYNAMIC">
      <expressionString>sales_fact_ALL.sales_fact_ALL__store_sales_2013 &gt; 19</expressionString>
      <parameterizedExpressionString>sales_fact_ALL.sales_fact_ALL__store_sales_2013 &gt; sales_fact_ALL__store_sales_2013_1</parameterizedExpressionString>
    </subFilter>
    <subFilter id="filter_2" letter="B" sourceString="DYNAMIC">
      <expressionString>sales_fact_ALL.sales__product.sales__product__low_fat in (true)</expressionString>
      <parameterizedExpressionString>sales_fact_ALL.sales__product.sales__product__low_fat in sales__product__low_fat_1</parameterizedExpressionString>
    </subFilter>
    <subFilter id="filter_3" letter="C" sourceString="DYNAMIC">
      <expressionString>sales_fact_ALL.sales__product.sales__product__recyclable_package in (false)</expressionString>
      <parameterizedExpressionString>sales_fact_ALL.sales__product.sales__product__recyclable_package in sales__product__recyclable_package_1</parameterizedExpressionString>
    </subFilter>
    <subFilter id="filter_4" letter="D" sourceString="DYNAMIC">
      <expressionString>isAnyValue(sales_fact_ALL.sales__product.sales__product__product_name)</expressionString>
      <parameterizedExpressionString>sales_fact_ALL.sales__product.sales__product__product_name in sales__product__product_name_1</parameterizedExpressionString>
    </subFilter>
  </subFilterList>
</unifiedState>