<?xml version="1.0" encoding="utf-8"?>
<!-- Generator: Adobe Illustrator 16.0.0, SVG Export Plug-In . SVG Version: 6.00 Build 0)  -->
<!DOCTYPE svg PUBLIC "-//W3C//DTD SVG 1.1//EN" "http://www.w3.org/Graphics/SVG/1.1/DTD/svg11.dtd">
<svg version="1.1" id="Layer_1" xmlns="http://www.w3.org/2000/svg" xmlns:xlink="http://www.w3.org/1999/xlink" x="0px" y="0px"
	 width="34px" height="44.481px" viewBox="0 0 34 44.481" enable-background="new 0 0 34 44.481" xml:space="preserve">
<g>
	<g>
		<path fill="#FFFFFF" d="M28.332,12.696c-0.693-4.626-5.369-8.215-11.02-8.215c-5.652,0-10.328,3.589-11.02,8.215H0v31.785h34
			V12.696H28.332z M17.313,6.655c4.23,0,7.742,2.619,8.416,6.041H8.896C9.569,9.274,13.082,6.655,17.313,6.655z M7.72,16.258
			c-0.689,0-1.248-0.472-1.248-1.055c0-0.584,0.559-1.057,1.248-1.057c0.689,0,1.248,0.473,1.248,1.057
			C8.968,15.787,8.41,16.258,7.72,16.258z M26.982,16.258c-0.689,0-1.248-0.472-1.248-1.055c0-0.584,0.559-1.057,1.248-1.057
			s1.246,0.473,1.246,1.057C28.229,15.787,27.672,16.258,26.982,16.258z"/>
	</g>
</g>
</svg>
