<?xml version="1.0" encoding="utf-8"?>
<!-- Generator: Adobe Illustrator 16.0.0, SVG Export Plug-In . SVG Version: 6.00 Build 0)  -->
<!DOCTYPE svg PUBLIC "-//W3C//DTD SVG 1.1//EN" "http://www.w3.org/Graphics/SVG/1.1/DTD/svg11.dtd">
<svg version="1.1" xmlns="http://www.w3.org/2000/svg" xmlns:xlink="http://www.w3.org/1999/xlink" x="0px" y="0px" width="95px"
	 height="95px" viewBox="0 0 95 95" enable-background="new 0 0 95 95" xml:space="preserve">
<g id="Layer_1">
	<g>
		<circle fill="#231F20" cx="47.5" cy="47.499" r="47.5"/>
		<g>
			
				<rect x="50.474" y="32.531" transform="matrix(0.7071 0.7071 -0.7071 0.7071 48.5728 -22.2662)" fill="#FFFFFF" stroke="#FFFFFF" stroke-width="4" stroke-miterlimit="10" width="1.381" height="29.937"/>
			
				<rect x="36.469" y="48.16" transform="matrix(0.7073 -0.7069 0.7069 0.7073 -27.0759 41.9848)" fill="#FFFFFF" stroke="#FFFFFF" stroke-width="4" stroke-miterlimit="10" width="1.381" height="11.054"/>
		</g>
	</g>
</g>
<g id="Layer_3" display="none">
	<g display="inline">
		<circle fill="#231F20" cx="47.501" cy="47.5" r="47.501"/>
	</g>
	<g display="inline">
		<g>
			<path fill="#FFFFFF" d="M62.778,27.333c-0.941-6.1-7.301-10.833-14.984-10.833c-7.687,0-14.045,4.733-14.987,10.833H24.25V69.25
				h46.238V27.333H62.778z M47.794,19.367c5.752,0,10.529,3.454,11.444,7.966H36.349C37.263,22.821,42.04,19.367,47.794,19.367z
				 M34.749,32.031c-0.937,0-1.696-0.622-1.696-1.391c0-0.77,0.759-1.393,1.696-1.393c0.938,0,1.696,0.624,1.696,1.393
				C36.445,31.409,35.687,32.031,34.749,32.031z M60.944,32.031c-0.938,0-1.698-0.622-1.698-1.391c0-0.77,0.761-1.393,1.698-1.393
				c0.936,0,1.695,0.624,1.695,1.393C62.64,31.409,61.88,32.031,60.944,32.031z"/>
		</g>
		<rect x="32.382" y="28.213" fill="#FFFFFF" width="30.763" height="3.96"/>
		<g>
			<polygon points="45.764,45.845 45.764,35.468 55.218,40.656 			"/>
			<path d="M57.137,43.129l-4.21,2.311c1.059,1.215,1.671,2.759,1.671,4.374c0,3.79-3.241,6.87-7.229,6.87
				c-3.984,0-7.227-3.08-7.227-6.87c0-2.011,0.922-3.845,2.41-5.111c0.891-0.76,1.986-1.312,3.212-1.576v-4.656
				c-0.082,0.011-0.165,0.02-0.246,0.032c-1.041,0.154-2.035,0.437-2.966,0.829c-4.273,1.794-7.228,5.893-7.228,10.483
				c0,6.314,5.404,11.451,12.045,11.451c6.642,0,12.046-5.137,12.046-11.451C59.415,47.388,58.595,45.055,57.137,43.129z"/>
		</g>
	</g>
</g>
<g id="Layer_4" display="none">
	<circle display="inline" fill="#231F20" cx="47.501" cy="47.501" r="47.501"/>
	<path display="inline" fill="none" stroke="#FFFFFF" stroke-width="3" stroke-miterlimit="10" d="M47.502,65.94
		c-0.302,0-0.603-0.088-0.863-0.26C31.396,55.499,31.625,45.281,31.807,37.071c0.02-0.894,0.039-1.737,0.039-2.573
		c0-0.859,0.695-1.554,1.554-1.554c8.562,0,12.955-3.404,13.137-3.549c0.283-0.224,0.624-0.335,0.966-0.335
		c0.341,0,0.682,0.111,0.965,0.335c0.184,0.145,4.576,3.549,13.137,3.549c0.857,0,1.555,0.694,1.555,1.554
		c0,0.836,0.018,1.68,0.037,2.573c0.182,8.21,0.412,18.428-14.829,28.609C48.104,65.853,47.802,65.94,47.502,65.94z"/>
</g>
<g id="Layer_2">
</g>
</svg>
