<?xml version="1.0" encoding="utf-8"?>
<!-- Generator: Adobe Illustrator 16.0.0, SVG Export Plug-In . SVG Version: 6.00 Build 0)  -->
<!DOCTYPE svg PUBLIC "-//W3C//DTD SVG 1.1//EN" "http://www.w3.org/Graphics/SVG/1.1/DTD/svg11.dtd">
<svg version="1.1" id="Layer_1" xmlns="http://www.w3.org/2000/svg" xmlns:xlink="http://www.w3.org/1999/xlink" x="0px" y="0px"
	 width="105.953px" height="95.561px" viewBox="0 0 105.953 95.561" enable-background="new 0 0 105.953 95.561"
	 xml:space="preserve">
<symbol  id="Arrow_26" viewBox="-22.86 -13.14 45.72 26.279">
	<polygon fill="none" points="-22.86,-13.14 22.86,-13.14 22.86,13.14 -22.86,13.14 	"/>
	<g>
		<polygon fill="#FFFFFF" points="-22.86,-6.339 0.069,-6.339 0.069,-13.14 22.86,0.001 0.069,13.14 0.069,6.339 -22.86,6.339 		"/>
	</g>
</symbol>
<g opacity="0.8">
	<circle fill="#FFFFFF" cx="58.173" cy="47.781" r="47.779"/>
	
		<use xlink:href="#Arrow_26"  width="45.72" height="26.279" id="XMLID_1_" x="-22.86" y="-13.14" transform="matrix(-1.1037 0.6404 0.4658 0.8029 26.4512 74.0989)" overflow="visible"/>
</g>
</svg>
