<?xml version="1.0" encoding="utf-8"?>
<!-- Generator: Adobe Illustrator 16.0.0, SVG Export Plug-In . SVG Version: 6.00 Build 0)  -->
<!DOCTYPE svg PUBLIC "-//W3C//DTD SVG 1.1//EN" "http://www.w3.org/Graphics/SVG/1.1/DTD/svg11.dtd">
<svg version="1.1" id="Ñëîé_1" xmlns="http://www.w3.org/2000/svg" xmlns:xlink="http://www.w3.org/1999/xlink" x="0px" y="0px"
	 width="59.332px" height="50.463px" viewBox="0 0 59.332 50.463" enable-background="new 0 0 59.332 50.463" xml:space="preserve">
<g>
	<path fill="#F26522" d="M38.917,34.854L6.29,34.51L0.079,12.556c-0.313-1.115,0.336-2.27,1.442-2.583
		c1.114-0.313,2.27,0.327,2.583,1.442L9.46,30.36l26.258,0.274L43.934,0l13.332,0.159c1.154,0.015,2.08,0.96,2.066,2.114
		c-0.014,1.158-0.971,2.084-2.117,2.07L47.133,4.22L38.917,34.854z"/>
	<path fill="#F26522" d="M12.58,50.228c-3.724,0-6.745-3.058-6.745-6.816c0-3.76,3.021-6.814,6.745-6.814
		c3.716,0,6.744,3.057,6.744,6.814C19.324,47.17,16.296,50.228,12.58,50.228z M12.58,40.776c-1.414,0-2.567,1.183-2.567,2.634
		c0,1.452,1.153,2.633,2.567,2.633c1.411,0,2.558-1.183,2.558-2.633C15.138,41.959,13.991,40.776,12.58,40.776z"/>
	<path fill="#F26522" d="M32.229,50.463c-3.715,0-6.747-3.06-6.747-6.817s3.031-6.815,6.747-6.815c3.722,0,6.746,3.058,6.746,6.815
		S35.949,50.463,32.229,50.463z M32.229,41.013c-1.412,0-2.561,1.182-2.561,2.633s1.146,2.633,2.561,2.633
		c1.416,0,2.564-1.182,2.564-2.633S33.645,41.013,32.229,41.013z"/>
</g>
</svg>
