<?xml version="1.0" encoding="utf-8"?>
<!-- Generator: Adobe Illustrator 16.0.0, SVG Export Plug-In . SVG Version: 6.00 Build 0)  -->
<!DOCTYPE svg PUBLIC "-//W3C//DTD SVG 1.1//EN" "http://www.w3.org/Graphics/SVG/1.1/DTD/svg11.dtd">
<svg version="1.1" id="Layer_1" xmlns="http://www.w3.org/2000/svg" xmlns:xlink="http://www.w3.org/1999/xlink" x="0px" y="0px"
	 width="140px" height="156.666px" viewBox="0 0 140 156.666" enable-background="new 0 0 140 156.666" xml:space="preserve">
<g>
	<path d="M117.995,0H22.006C12.72,0,0,12.719,0,22.006v103.923c0,9.287,7.529,16.814,16.816,16.814h1.486v6.566
		c0,4.063,3.295,7.356,7.357,7.356h4.75c4.062,0,7.357-3.295,7.357-7.356v-6.566h66.178v6.566c0,4.063,3.295,7.356,7.358,7.356h4.75
		c4.063,0,7.357-3.295,7.357-7.356v-6.57c9.182-0.12,16.59-7.598,16.59-16.811V22.006C140.001,12.719,127.282,0,117.995,0z
		 M41.193,14.149c0-4.063,3.293-7.356,7.357-7.356h42.9c4.064,0,7.357,3.292,7.357,7.356v2.415c0,4.064-3.294,7.358-7.357,7.358
		h-42.9c-4.063,0-7.357-3.294-7.357-7.358V14.149z M27.179,128.249c-5.374,0-9.732-4.357-9.732-9.732
		c0-5.376,4.358-9.733,9.731-9.733c5.375,0,9.732,4.357,9.732,9.733C36.911,123.891,32.553,128.249,27.179,128.249z
		 M112.822,128.249c-5.376,0-9.731-4.357-9.731-9.732c0-5.376,4.356-9.733,9.731-9.733c5.374,0,9.731,4.357,9.731,9.733
		C122.554,123.891,118.196,128.249,112.822,128.249z M127.543,79.213c0,5.266-4.284,9.549-9.548,9.549H22.006
		c-5.265,0-9.547-4.283-9.547-9.549V42.249c0-5.264,4.284-9.547,9.547-9.547h95.989c5.264,0,9.548,4.283,9.548,9.547V79.213
		L127.543,79.213z"/>
</g>
</svg>
