<?xml version="1.0" encoding="utf-8"?>
<!-- Generator: Adobe Illustrator 16.0.0, SVG Export Plug-In . SVG Version: 6.00 Build 0)  -->
<!DOCTYPE svg PUBLIC "-//W3C//DTD SVG 1.1//EN" "http://www.w3.org/Graphics/SVG/1.1/DTD/svg11.dtd">
<svg version="1.1" id="Ñëîé_1" xmlns="http://www.w3.org/2000/svg" xmlns:xlink="http://www.w3.org/1999/xlink" x="0px" y="0px"
	 width="75px" height="63.792px" viewBox="0 0 75 63.792" enable-background="new 0 0 75 63.792" xml:space="preserve">
<g>
	<path fill="#FFFFFF" d="M49.195,44.06L7.949,43.624L0.101,15.868c-0.397-1.405,0.419-2.866,1.825-3.264
		c1.405-0.397,2.866,0.42,3.264,1.825l6.771,23.948l33.189,0.351L55.537,0l16.851,0.203c1.46,0.018,2.63,1.215,2.612,2.676
		c-0.018,1.46-1.226,2.626-2.676,2.612L59.58,5.337L49.195,44.06z"/>
	<path fill="#FFFFFF" d="M15.898,63.494c-4.702,0-8.527-3.865-8.527-8.617c0-4.751,3.825-8.616,8.527-8.616s8.527,3.865,8.527,8.616
		C24.426,59.628,20.601,63.494,15.898,63.494z M15.898,51.548c-1.786,0-3.239,1.494-3.239,3.329c0,1.836,1.453,3.329,3.239,3.329
		s3.24-1.493,3.24-3.329C19.138,53.042,17.685,51.548,15.898,51.548z"/>
	<path fill="#FFFFFF" d="M40.74,63.791c-4.702,0-8.527-3.866-8.527-8.617c0-4.751,3.825-8.617,8.527-8.617s8.528,3.865,8.528,8.617
		C49.268,59.925,45.442,63.791,40.74,63.791z M40.74,51.846c-1.786,0-3.24,1.493-3.24,3.329s1.454,3.329,3.24,3.329
		c1.787,0,3.24-1.493,3.24-3.329S42.527,51.846,40.74,51.846z"/>
</g>
</svg>
