<?xml version="1.0" encoding="utf-8"?>
<!-- Generator: Adobe Illustrator 16.0.0, SVG Export Plug-In . SVG Version: 6.00 Build 0)  -->
<!DOCTYPE svg PUBLIC "-//W3C//DTD SVG 1.1//EN" "http://www.w3.org/Graphics/SVG/1.1/DTD/svg11.dtd">
<svg version="1.1" id="Layer_1" xmlns="http://www.w3.org/2000/svg" xmlns:xlink="http://www.w3.org/1999/xlink" x="0px" y="0px"
	 width="44px" height="77px" viewBox="0 -2.25 44 77" enable-background="new 0 -2.25 44 77" xml:space="preserve">
<g id="Layer_1_1_">
	<g>
		<circle fill="#FFFFFF" stroke="#FFFFFF" stroke-width="3" stroke-miterlimit="10" cx="22.058" cy="24.246" r="20"/>
		<polygon fill="#FFFDFE" points="11,74.75 21.688,59.625 32.375,74.75 		"/>
	</g>
</g>
<g id="Layer_2">
</g>
</svg>
