<?xml version="1.0" encoding="utf-8"?>
<!-- Generator: Adobe Illustrator 16.0.0, SVG Export Plug-In . SVG Version: 6.00 Build 0)  -->
<!DOCTYPE svg PUBLIC "-//W3C//DTD SVG 1.1//EN" "http://www.w3.org/Graphics/SVG/1.1/DTD/svg11.dtd">
<svg version="1.1" id="Layer_1" xmlns="http://www.w3.org/2000/svg" xmlns:xlink="http://www.w3.org/1999/xlink" x="0px" y="0px"
	 width="103.405px" height="103.663px" viewBox="0 0 103.405 103.663" enable-background="new 0 0 103.405 103.663"
	 xml:space="preserve">
<g>
	<circle fill="#FFFFFF" stroke="#333333" stroke-width="2" stroke-miterlimit="10" cx="51.405" cy="52" r="50"/>
	<g>
		<rect x="28.962" y="49.028" fill="#333333" width="49.047" height="5.942"/>
		<g>
			
				<rect x="35.666" y="25.602" transform="matrix(0.7072 0.707 -0.707 0.7072 41.1464 -14.9619)" fill="#333333" width="5.942" height="33.186"/>
			
				<rect x="35.665" y="45.212" transform="matrix(-0.7071 0.7071 -0.7071 -0.7071 109.6599 78.1877)" fill="#333333" width="5.943" height="33.186"/>
		</g>
	</g>
</g>
</svg>
