<?xml version="1.0" encoding="utf-8"?>
<!-- Generator: Adobe Illustrator 16.0.0, SVG Export Plug-In . SVG Version: 6.00 Build 0)  -->
<!DOCTYPE svg PUBLIC "-//W3C//DTD SVG 1.1//EN" "http://www.w3.org/Graphics/SVG/1.1/DTD/svg11.dtd">
<svg version="1.1" id="Layer_1" xmlns="http://www.w3.org/2000/svg" xmlns:xlink="http://www.w3.org/1999/xlink" x="0px" y="0px"
	 width="107.333px" height="106.333px" viewBox="0 0 107.333 106.333" enable-background="new 0 0 107.333 106.333"
	 xml:space="preserve">
<g>
	<circle fill="none" stroke="#00AEEF" stroke-width="3" stroke-miterlimit="10" cx="53.82" cy="52.951" r="50"/>
	<g>
		<line fill="none" stroke="#00AEEF" stroke-width="3" stroke-miterlimit="10" x1="53.82" y1="24.746" x2="53.82" y2="81.156"/>
		<line fill="none" stroke="#00AEEF" stroke-width="3" stroke-miterlimit="10" x1="82.025" y1="52.951" x2="25.615" y2="52.951"/>
	</g>
</g>
</svg>
