<?xml version="1.0" encoding="UTF-8"?>
<jasperReport xmlns="http://jasperreports.sourceforge.net/jasperreports" xmlns:xsi="http://www.w3.org/2001/XMLSchema-instance" xsi:schemaLocation="http://jasperreports.sourceforge.net/jasperreports http://jasperreports.sourceforge.net/xsd/jasperreport.xsd" name="efareOrderHistory2 Report" pageWidth="612" pageHeight="792" columnWidth="572" leftMargin="20" rightMargin="20" topMargin="20" bottomMargin="20" isFloatColumnFooter="true" uuid="ec71230e-213e-485e-b4fd-4cdfc19129b7">
	<property name="net.sf.jasperreports.export.xls.collapse.row.span" value="false"/>
	<property name="net.sf.jasperreports.export.html.border.collapse" value="separate"/>
	<property name="net.sf.jasperreports.export.docx.frames.as.nested.tables" value="false"/>
	<property name="com.jaspersoft.jasperserver.adhoc.actual.size" value="true"/>
	<property name="com.jaspersoft.jasperserver.adhoc.group.indent" value="0"/>
	<property name="com.jaspersoft.jasperserver.adhoc.min.group.label.width" value="100"/>
	<property name="com.jaspersoft.jasperserver.adhoc.detail.band.height" value="25"/>
	<property name="com.jaspersoft.jasperserver.adhoc.header.band.height" value="25"/>
	<property name="com.jaspersoft.jasperserver.adhoc.crosstab.row.header.width" value="125"/>
	<property name="com.jaspersoft.jasperserver.adhoc.crosstab.cell.width" value="100"/>
	<property name="com.jaspersoft.jasperserver.adhoc.crosstab.cell.height" value="20"/>
	<property name="com.jaspersoft.ji.adhoc.data.adapter" value="true"/>
	<property name="com.jaspersoft.ji.adhoc" value="1"/>
	<property name="com.jaspersoft.ji.adhoc.preferredDataStrategy" value="domainDataStrategy"/>
	<property name="net.sf.jasperreports.export.pdf.tagged" value="false"/>
	<property name="net.sf.jasperreports.export.pdf.tag.language" value="EN-US"/>
	<property name="net.sf.jasperreports.text.truncate.suffix" value="..."/>
	<property name="net.sf.jasperreports.print.keep.full.text" value="true"/>
	<import value="com.jaspersoft.ji.adhoc.service.AdhocEngineServiceImpl"/>
	<import value="com.jaspersoft.ji.adhoc.jr.AdhocReportUtils"/>
	<style name="ReportDefault" isDefault="true" mode="Transparent" forecolor="#666666" backcolor="#FFFFFF" hAlign="Left" vAlign="Middle" fontName="DejaVu Sans" fontSize="11">
		<box>
			<pen lineColor="#AAAAAA"/>
		</box>
	</style>
	<style name="TableBaseFrameStyle" mode="Transparent">
		<box padding="0">
			<pen lineWidth="0.0"/>
		</box>
	</style>
	<style name="TableFrameStyle" style="TableBaseFrameStyle">
		<box padding="1">
			<topPen lineWidth="1.0" lineColor="#AAAAAA"/>
			<leftPen lineWidth="1.0" lineColor="#AAAAAA"/>
			<bottomPen lineWidth="1.0" lineColor="#AAAAAA"/>
			<rightPen lineWidth="1.0" lineColor="#AAAAAA"/>
		</box>
	</style>
	<style name="TableColumnHeaderFrameStyle" style="TableBaseFrameStyle">
		<box>
			<topPen lineWidth="1.0" lineColor="#AAAAAA"/>
			<leftPen lineWidth="1.0" lineColor="#AAAAAA"/>
			<bottomPen lineWidth="1.0" lineColor="#AAAAAA"/>
			<rightPen lineWidth="1.0" lineColor="#AAAAAA"/>
		</box>
	</style>
	<style name="TableColumnFooterFrameStyle" style="TableBaseFrameStyle">
		<box>
			<topPen lineWidth="1.0" lineColor="#AAAAAA"/>
		</box>
	</style>
	<style name="TableColumnHeaderTextStyle" style="ReportDefault" mode="Opaque" forecolor="#666666" backcolor="#D5DEE8" hAlign="Left" vAlign="Middle" fontName="DejaVu Sans" fontSize="11" isBold="true">
		<box leftPadding="5" rightPadding="5">
			<pen lineWidth="1.0" lineStyle="Solid"/>
			<topPen lineWidth="1.0" lineColor="#FFFFFF"/>
			<leftPen lineWidth="1.0" lineColor="#FFFFFF"/>
			<bottomPen lineWidth="1.0" lineColor="#B1B6BB"/>
			<rightPen lineWidth="1.0" lineColor="#B1B6BB"/>
		</box>
	</style>
	<style name="TableGroupHeaderFrameStyle" style="TableBaseFrameStyle" mode="Opaque" backcolor="#E3E9EF">
		<box>
			<topPen lineWidth="1.0" lineColor="#B1B6BB"/>
		</box>
	</style>
	<style name="TableGroupHeaderTextStyle" style="ReportDefault" mode="Opaque" forecolor="#666666" backcolor="#E3E9EF" hAlign="Left" vAlign="Middle" fontName="DejaVu Sans" fontSize="11" isBold="true">
		<box leftPadding="5" rightPadding="5">
			<topPen lineWidth="1.0" lineColor="#B1B6BB"/>
			<leftPen lineWidth="0.0"/>
			<bottomPen lineWidth="0.0"/>
			<rightPen lineWidth="0.0"/>
		</box>
	</style>
	<style name="TableGroupFooterFrameStyle" style="TableBaseFrameStyle" mode="Opaque" backcolor="#E7ECF2">
		<box>
			<topPen lineWidth="1.0" lineColor="#E3E9EF"/>
			<leftPen lineWidth="1.0" lineColor="#E3E9EF"/>
			<bottomPen lineWidth="1.0" lineColor="#E3E9EF"/>
			<rightPen lineWidth="1.0" lineColor="#E3E9EF"/>
		</box>
	</style>
	<style name="TableGroupFooterTextStyle" style="ReportDefault" mode="Opaque" forecolor="#666666" backcolor="#E7ECF2" hAlign="Left" vAlign="Middle" fontName="DejaVu Sans" fontSize="11" isBold="true">
		<box leftPadding="5" rightPadding="5">
			<topPen lineWidth="1.0" lineColor="#E3E9EF"/>
			<leftPen lineWidth="1.0" lineColor="#E3E9EF"/>
			<bottomPen lineWidth="1.0" lineColor="#E3E9EF"/>
			<rightPen lineWidth="1.0" lineColor="#E3E9EF"/>
		</box>
	</style>
	<style name="TableSummaryFrameStyle" style="TableBaseFrameStyle">
		<box>
			<leftPen lineWidth="1.0" lineColor="#AAAAAA"/>
			<rightPen lineWidth="1.0" lineColor="#AAAAAA"/>
		</box>
	</style>
	<style name="TableSummaryTextNoBorderStyle" style="ReportDefault" mode="Opaque" forecolor="#666666" fontName="DejaVu Sans" isBold="true">
		<box leftPadding="5" rightPadding="5"/>
	</style>
	<style name="TableSummaryTextStyle" style="TableSummaryTextNoBorderStyle">
		<box>
			<pen lineWidth="1.0"/>
		</box>
	</style>
	<style name="TableTitleFrameStyle" style="TableFrameStyle">
		<box topPadding="0" bottomPadding="0">
			<topPen lineWidth="0.0"/>
			<leftPen lineWidth="0.0"/>
			<bottomPen lineWidth="0.0"/>
			<rightPen lineWidth="0.0"/>
		</box>
	</style>
	<style name="TableTitleTextStyle" style="ReportDefault" mode="Opaque" forecolor="#333333" backcolor="#FFFFFF" hAlign="Center" fontSize="18" isBold="false">
		<box bottomPadding="8">
			<pen lineColor="#000000"/>
			<topPen lineWidth="0.0"/>
		</box>
	</style>
	<style name="TableDetailFrameStyle" style="TableBaseFrameStyle">
		<box>
			<leftPen lineWidth="1.0" lineColor="#AAAAAA"/>
			<rightPen lineWidth="1.0" lineColor="#AAAAAA"/>
		</box>
	</style>
	<style name="TableDetailTextStyle" style="ReportDefault" mode="Opaque" forecolor="#666666" backcolor="#FFFFFF" hAlign="Left" vAlign="Middle" fontName="DejaVu Sans" fontSize="11" isBold="false">
		<box leftPadding="5" rightPadding="5">
			<pen lineWidth="1.0" lineStyle="Solid"/>
			<topPen lineWidth="1.0" lineColor="#E3E9EF"/>
			<leftPen lineWidth="1.0" lineColor="#E3E9EF"/>
			<bottomPen lineWidth="1.0" lineColor="#E3E9EF"/>
			<rightPen lineWidth="1.0" lineColor="#E3E9EF"/>
		</box>
	</style>
	<style name="ChartReportTitle" style="ReportDefault" mode="Opaque" forecolor="#333333" backcolor="#FFFFFF" hAlign="Center" fontSize="18" isBold="false">
		<box>
			<pen lineColor="#000000"/>
			<topPen lineWidth="0.0" lineStyle="Solid"/>
		</box>
	</style>
	<style name="ChartTitle" forecolor="#000000" fontName="DejaVu Sans" fontSize="12" isBold="true"/>
	<style name="ChartSubtitle" forecolor="#000000" fontName="DejaVu Sans" fontSize="9" isBold="false"/>
	<style name="ChartLegend" forecolor="#000000" backcolor="#FFFFFF" fontName="DejaVu Sans" fontSize="9" isBold="false"/>
	<style name="ChartSeriesColor0" backcolor="#87C4FE"/>
	<style name="ChartSeriesColor1" backcolor="#E96270"/>
	<style name="ChartSeriesColor2" backcolor="#D1D1D1"/>
	<style name="ChartSeriesColor3" backcolor="#FFEE99"/>
	<style name="ChartSeriesColor4" backcolor="#6164FF"/>
	<style name="ChartSeriesColor5" backcolor="#B0E992"/>
	<style name="ChartSeriesColor6" backcolor="#AE9CEA"/>
	<style name="ChartSeriesColor7" backcolor="#F5B05E"/>
	<style name="ChartSeriesColor8" backcolor="#589EE1"/>
	<style name="ChartSeriesColor9" backcolor="#AE4E59"/>
	<style name="ChartSeriesColor10" backcolor="#747474"/>
	<style name="ChartSeriesColor11" backcolor="#E2DC77"/>
	<style name="ChartSeriesColor12" backcolor="#4749A5"/>
	<style name="ChartSeriesColor13" backcolor="#81B963"/>
	<style name="ChartSeriesColor14" backcolor="#7764B4"/>
	<style name="ChartSeriesColor15" backcolor="#F27B4C"/>
	<style name="ChartCategoryAxisLabelFormat" forecolor="#000000" fontName="DejaVu Sans" fontSize="11" isBold="true"/>
	<style name="ChartCategoryAxisTickFormat" forecolor="#000000" fontName="DejaVu Sans" fontSize="9" isBold="false"/>
	<style name="ChartValueAxisLabelFormat" forecolor="#000000" fontName="DejaVu Sans" fontSize="11" isBold="true"/>
	<style name="ChartValueAxisTickFormat" forecolor="#000000" fontName="DejaVu Sans" fontSize="9" isBold="false"/>
	<style name="ChartContext" backcolor="#D1CA67"/>
	<style name="CrosstabElementStyle" mode="Transparent" forecolor="#000033" backcolor="#FFFFFF" hAlign="Center" vAlign="Middle" fontName="DejaVu Sans" fontSize="11">
		<box bottomPadding="1" rightPadding="1">
			<topPen lineWidth="0.0"/>
			<leftPen lineWidth="0.0"/>
			<bottomPen lineWidth="1.0" lineColor="#AAAAAA"/>
			<rightPen lineWidth="1.0" lineColor="#AAAAAA"/>
		</box>
	</style>
	<style name="CrosstabBaseCellStyle" mode="Transparent">
		<box padding="0">
			<pen lineWidth="0.0"/>
		</box>
	</style>
	<style name="CrosstabBaseTextStyle" mode="Opaque" forecolor="#666666" backcolor="#FFFFFF" hAlign="Left" vAlign="Top" fontName="DejaVu Sans" fontSize="11" isBold="true">
		<box topPadding="3" leftPadding="5" bottomPadding="3" rightPadding="5">
			<topPen lineWidth="1.0" lineColor="#FFFFFF"/>
			<leftPen lineWidth="1.0" lineColor="#FFFFFF"/>
			<bottomPen lineWidth="1.0" lineColor="#B1B6BB"/>
			<rightPen lineWidth="1.0" lineColor="#B1B6BB"/>
		</box>
	</style>
	<style name="CrosstabTitleTextStyle" style="CrosstabBaseTextStyle" forecolor="#333333" fontSize="18" isBold="false">
		<box>
			<pen lineWidth="0.0" lineColor="#000000"/>
		</box>
	</style>
	<style name="CrosstabHeaderTextStyle" style="CrosstabBaseTextStyle" backcolor="#D5DEE8"/>
	<style name="CrosstabHeaderLabelStyle" style="CrosstabHeaderTextStyle" mode="Transparent">
		<box>
			<pen lineWidth="0.0"/>
		</box>
	</style>
	<style name="CrosstabMeasureHeaderTextStyle" style="CrosstabBaseTextStyle" backcolor="#D3C8EB"/>
	<style name="CrosstabMeasureHeaderLabelStyle" style="CrosstabMeasureHeaderTextStyle" mode="Transparent">
		<box>
			<pen lineWidth="0.0"/>
		</box>
	</style>
	<style name="CrosstabColumnMeasureHeaderTextStyle" style="CrosstabMeasureHeaderTextStyle"/>
	<style name="CrosstabRowMeasureHeaderTextStyle" style="CrosstabMeasureHeaderTextStyle" isBold="false"/>
	<style name="CrosstabDimensionHeaderTextStyle" style="CrosstabBaseTextStyle" backcolor="#E7ECF2" isBold="false"/>
	<style name="CrosstabDetailTextStyle" style="CrosstabBaseTextStyle" backcolor="#FFFFFF" hAlign="Right" isBold="false">
		<box>
			<topPen lineWidth="1.0" lineColor="#E3E9EF"/>
			<leftPen lineWidth="1.0" lineColor="#E3E9EF"/>
			<bottomPen lineWidth="1.0" lineColor="#E3E9EF"/>
			<rightPen lineWidth="1.0" lineColor="#E3E9EF"/>
		</box>
		<conditionalStyle>
			<conditionExpression><![CDATA[$V{CROSSTAB_TOTAL_DISCRIMINATOR}]]></conditionExpression>
			<style backcolor="#F0F4F8" hAlign="Right" isBold="true">
				<box>
					<topPen lineWidth="1.0" lineColor="#E3E9EF"/>
					<leftPen lineWidth="1.0" lineColor="#E3E9EF"/>
					<bottomPen lineWidth="1.0" lineColor="#E3E9EF"/>
					<rightPen lineWidth="1.0" lineColor="#E3E9EF"/>
				</box>
			</style>
		</conditionalStyle>
	</style>
	<style name="CrosstabDummyHeaderTextStyle" style="CrosstabBaseTextStyle" backcolor="#D4D4D4"/>
	<subDataset name="tableDataset" whenResourceMissingType="Key" uuid="2dfe8f02-27cf-449b-8755-ba1dbc79b73d">
		<property name="net.sf.jasperreports.create.sort.fields.for.groups" value="true"/>
		<parameter name="_offerings.Description_AdHocMask" class="java.lang.String" isForPrompting="false">
			<defaultValueExpression><![CDATA[AdhocEngineServiceImpl.getInstance().getDefaultMask("java.lang.Integer", $P{REPORT_LOCALE}, $P{REPORT_TIME_ZONE})]]></defaultValueExpression>
		</parameter>
		<parameter name="_orderitems.Quantity_AdHocMask" class="java.lang.String" isForPrompting="false">
			<defaultValueExpression><![CDATA[AdhocEngineServiceImpl.getInstance().getDefaultMask("java.lang.Integer", $P{REPORT_LOCALE}, $P{REPORT_TIME_ZONE})]]></defaultValueExpression>
		</parameter>
		<parameter name="_orderitems.Amount_AdHocMask" class="java.lang.String" isForPrompting="false">
			<defaultValueExpression><![CDATA[AdhocEngineServiceImpl.getInstance().getDefaultMask("java.math.BigDecimal", $P{REPORT_LOCALE}, $P{REPORT_TIME_ZONE})]]></defaultValueExpression>
		</parameter>
		<field name="orderitems.Amount" class="java.math.BigDecimal">
			<fieldDescription><![CDATA[orderitems.Amount]]></fieldDescription>
		</field>
		<field name="orderitems.Quantity" class="java.lang.Short">
			<fieldDescription><![CDATA[orderitems.Quantity]]></fieldDescription>
		</field>
		<field name="orders.DateOrdered" class="java.sql.Timestamp">
			<fieldDescription><![CDATA[orders.DateOrdered]]></fieldDescription>
		</field>
		<field name="offerings.Description" class="java.lang.String">
			<fieldDescription><![CDATA[offerings.Description]]></fieldDescription>
		</field>
		<variable name="InnerRowCount" class="java.lang.Integer" resetType="None">
			<variableExpression><![CDATA[$V{orders.DateOrdered_COUNT}]]></variableExpression>
		</variable>
		<variable name="s_Count_offerings.Description" class="java.lang.Integer" calculation="Count">
			<variableExpression><![CDATA[$F{offerings.Description}]]></variableExpression>
		</variable>
		<variable name="orders.DateOrdered_s_Count_offerings.Description" class="java.lang.Integer" resetType="Group" resetGroup="orders.DateOrdered" calculation="Count">
			<variableExpression><![CDATA[$F{offerings.Description}]]></variableExpression>
		</variable>
		<variable name="s_Sum_orderitems.Quantity" class="java.lang.Integer" calculation="Sum">
			<variableExpression><![CDATA[Integer.valueOf($F{orderitems.Quantity}.intValue())]]></variableExpression>
		</variable>
		<variable name="orders.DateOrdered_s_Sum_orderitems.Quantity" class="java.lang.Integer" resetType="Group" resetGroup="orders.DateOrdered" calculation="Sum">
			<variableExpression><![CDATA[Integer.valueOf($F{orderitems.Quantity}.intValue())]]></variableExpression>
		</variable>
		<variable name="s_Sum_orderitems.Amount" class="java.math.BigDecimal" calculation="Sum">
			<variableExpression><![CDATA[$F{orderitems.Amount}]]></variableExpression>
		</variable>
		<variable name="orders.DateOrdered_s_Sum_orderitems.Amount" class="java.math.BigDecimal" resetType="Group" resetGroup="orders.DateOrdered" calculation="Sum">
			<variableExpression><![CDATA[$F{orderitems.Amount}]]></variableExpression>
		</variable>
		<group name="orders.DateOrdered" minHeightToStartNewPage="60">
			<groupExpression><![CDATA[$F{orders.DateOrdered}]]></groupExpression>
		</group>
	</subDataset>
	<parameter name="REPORT_TITLE" class="java.lang.String" isForPrompting="false">
		<property name="net.sf.jasperreports.data.cache.included" value="true"/>
		<defaultValueExpression><![CDATA[null]]></defaultValueExpression>
	</parameter>
	<title>
		<band splitType="Stretch">
			<frame>
				<reportElement style="TableTitleFrameStyle" x="0" y="0" width="502" height="0" uuid="fdbde293-bb2f-47d4-81b8-a42abe4e602c">
					<printWhenExpression><![CDATA[$P{REPORT_TITLE} != null && $P{REPORT_TITLE}.length() > 0]]></printWhenExpression>
				</reportElement>
				<textField isStretchWithOverflow="true">
					<reportElement key="staticText" style="TableTitleTextStyle" x="0" y="0" width="500" height="0" uuid="d4904967-6f54-4151-8b13-bb0bc4a3cf62">
						<printWhenExpression><![CDATA[$P{REPORT_TITLE} != null && $P{REPORT_TITLE}.length() > 0]]></printWhenExpression>
					</reportElement>
					<textElement textAlignment="Center"/>
					<textFieldExpression><![CDATA[$P{REPORT_TITLE}]]></textFieldExpression>
				</textField>
			</frame>
		</band>
	</title>
	<summary>
		<band height="25" splitType="Stretch">
			<componentElement>
				<reportElement style="TableFrameStyle" x="0" y="0" width="500" height="25" uuid="3ebfab6c-bb42-431a-a413-3d494c203d12"/>
				<c:table xmlns:c="http://jasperreports.sourceforge.net/jasperreports/components" xsi:schemaLocation="http://jasperreports.sourceforge.net/jasperreports/components http://jasperreports.sourceforge.net/xsd/components.xsd" whenNoDataType="AllSectionsNoDetail">
					<datasetRun subDataset="tableDataset" uuid="e4e9cf1d-308f-4c40-9e45-8924049eb93f">
						<dataSourceExpression><![CDATA[$P{REPORT_PARAMETERS_MAP}.get("com.jaspersoft.ji.adhoc.report.data.source")]]></dataSourceExpression>
					</datasetRun>
					<c:columnGroup width="463" uuid="b51230d3-52df-4bee-8f38-5e0f9683b7b4">
						<c:groupHeader groupName="orders.DateOrdered">
							<c:cell style="TableGroupHeaderFrameStyle" height="25">
								<textField isStretchWithOverflow="true" isBlankWhenNull="true" bookmarkLevel="1">
									<reportElement style="TableGroupHeaderTextStyle" mode="Opaque" x="0" y="0" width="463" height="25" forecolor="#434343" backcolor="#E3E9EF" uuid="e02b07f8-61e5-4d79-aa2a-53272b631a43">
										<property name="net.sf.jasperreports.components.condition.type" value="Text"/>
									</reportElement>
									<textElement textAlignment="Left">
										<font fontName="DejaVu Sans" size="11" isBold="true" isItalic="false" isUnderline="false"/>
									</textElement>
									<textFieldExpression><![CDATA[AdhocEngineServiceImpl.getInstance().formatValue($F{orders.DateOrdered}, "medium,hide","java.sql.Timestamp", $P{REPORT_LOCALE}, $P{REPORT_TIME_ZONE})]]></textFieldExpression>
								</textField>
							</c:cell>
						</c:groupHeader>
						<c:column width="125" uuid="a0a7f139-d430-4afa-8f03-3ab8846d47b4">
							<c:tableFooter height="25">
								<textField isStretchWithOverflow="true">
									<reportElement key="staticText-1" style="TableSummaryTextStyle" stretchType="RelativeToBandHeight" x="0" y="0" width="125" height="25" uuid="b2b54653-923d-4bfb-a08c-e1fe62aca75e"/>
									<textFieldExpression><![CDATA["Totals"]]></textFieldExpression>
								</textField>
							</c:tableFooter>
							<c:groupFooter groupName="orders.DateOrdered">
								<c:cell style="TableGroupFooterFrameStyle" height="25">
									<textField isStretchWithOverflow="true" isBlankWhenNull="true">
										<reportElement style="TableGroupFooterTextStyle" stretchType="RelativeToBandHeight" x="0" y="0" width="125" height="25" uuid="846a50de-d6be-417a-87b6-2fae0ad7d7d4">
											<property name="net.sf.jasperreports.components.condition.type" value="Text"/>
										</reportElement>
										<textFieldExpression><![CDATA[AdhocEngineServiceImpl.getInstance().getMessages().getMessage("ADH_088_TABLE_TOTALS", new Object[]{AdhocEngineServiceImpl.getInstance().formatValue($F{orders.DateOrdered}, "medium,hide","java.sql.Timestamp", $P{REPORT_LOCALE}, $P{REPORT_TIME_ZONE})}, $P{REPORT_LOCALE})]]></textFieldExpression>
									</textField>
								</c:cell>
							</c:groupFooter>
							<c:columnHeader height="25">
								<textField isStretchWithOverflow="true" isBlankWhenNull="true">
									<reportElement style="TableColumnHeaderTextStyle" stretchType="RelativeToBandHeight" mode="Opaque" x="0" y="0" width="125" height="25" forecolor="#666666" backcolor="#D5DEE8" uuid="1c763af6-9082-4f44-80bb-61967eb35570">
										<property name="net.sf.jasperreports.components.condition.type" value="Text"/>
									</reportElement>
									<textElement textAlignment="Left">
										<font fontName="DejaVu Sans" size="11" isBold="true" isItalic="false" isUnderline="false"/>
									</textElement>
									<textFieldExpression><![CDATA[""]]></textFieldExpression>
								</textField>
							</c:columnHeader>
							<c:detailCell height="25">
								<textField isStretchWithOverflow="true" isBlankWhenNull="true">
									<reportElement key="textField" style="TableDetailTextStyle" stretchType="RelativeToBandHeight" x="0" y="0" width="125" height="25" uuid="186699a2-e578-428f-ae92-d61da9ba855e"/>
									<textElement textAlignment="Left"/>
								</textField>
							</c:detailCell>
						</c:column>
						<c:column width="110" uuid="97a7e3e6-846a-48b4-b307-ac23db6fa580">
							<c:tableFooter height="25">
								<textField isStretchWithOverflow="true" pattern="#,##0" isBlankWhenNull="true">
									<reportElement key="textField" style="TableSummaryTextStyle" stretchType="RelativeToBandHeight" x="0" y="0" width="110" height="25" uuid="69266b23-1915-4e30-bd56-521a25a3e9ca"/>
									<textElement textAlignment="Left"/>
									<textFieldExpression><![CDATA[$V{s_Count_offerings.Description}]]></textFieldExpression>
								</textField>
							</c:tableFooter>
							<c:groupFooter groupName="orders.DateOrdered">
								<c:cell height="25">
									<textField isStretchWithOverflow="true" pattern="#,##0" isBlankWhenNull="true">
										<reportElement style="TableGroupFooterTextStyle" stretchType="RelativeToBandHeight" mode="Opaque" x="0" y="0" width="110" height="25" forecolor="#D0E0E3" backcolor="#C9DAF8" uuid="143bb0b3-aadc-4d70-8a9e-e69b35f10a68"/>
										<textElement textAlignment="Right">
											<font fontName="DejaVu Sans" size="11" isBold="false" isItalic="false" isUnderline="false"/>
										</textElement>
										<textFieldExpression><![CDATA[$V{orders.DateOrdered_s_Count_offerings.Description}]]></textFieldExpression>
									</textField>
								</c:cell>
							</c:groupFooter>
							<c:columnHeader height="25">
								<textField isStretchWithOverflow="true" isBlankWhenNull="true">
									<reportElement style="TableColumnHeaderTextStyle" stretchType="RelativeToBandHeight" mode="Opaque" x="0" y="0" width="110" height="25" forecolor="#434343" backcolor="#D5DEE8" uuid="b6b4c54d-76bc-42a6-a8d5-72a13f08d79f">
										<property name="net.sf.jasperreports.components.condition.type" value="Text"/>
									</reportElement>
									<textElement textAlignment="Left">
										<font fontName="DejaVu Sans" size="11" isBold="true" isItalic="false" isUnderline="false"/>
									</textElement>
									<textFieldExpression><![CDATA["Description"]]></textFieldExpression>
								</textField>
							</c:columnHeader>
							<c:detailCell height="25">
								<textField isStretchWithOverflow="true" isBlankWhenNull="true">
									<reportElement key="textField" style="TableDetailTextStyle" stretchType="RelativeToBandHeight" x="0" y="0" width="110" height="25" uuid="35b029b8-6e95-4dbb-898d-fc7ec189a585"/>
									<textElement textAlignment="Left"/>
									<textFieldExpression><![CDATA[$F{offerings.Description}]]></textFieldExpression>
									<patternExpression><![CDATA[$P{_offerings.Description_AdHocMask}]]></patternExpression>
								</textField>
							</c:detailCell>
						</c:column>
						<c:column width="103" uuid="9a08a0a0-bebb-4e29-a742-b284c1ee0445">
							<c:tableFooter height="25">
								<textField isStretchWithOverflow="true" pattern="#,##0" isBlankWhenNull="true">
									<reportElement key="textField" style="TableSummaryTextStyle" stretchType="RelativeToBandHeight" x="0" y="0" width="103" height="25" uuid="380f98ed-c40a-434b-86d3-ba9f2fa1b4eb"/>
									<textElement textAlignment="Right"/>
									<textFieldExpression><![CDATA[$V{s_Sum_orderitems.Quantity}]]></textFieldExpression>
								</textField>
							</c:tableFooter>
							<c:groupFooter groupName="orders.DateOrdered">
								<c:cell height="25">
									<textField isStretchWithOverflow="true" pattern="#,##0" isBlankWhenNull="true">
										<reportElement style="TableGroupFooterTextStyle" stretchType="RelativeToBandHeight" mode="Opaque" x="0" y="0" width="103" height="25" forecolor="#C9DAF8" backcolor="#C9DAF8" uuid="d68e6b57-b946-4e82-ab67-8992a333c7c5"/>
										<textElement textAlignment="Right">
											<font fontName="DejaVu Sans" size="11" isBold="false" isItalic="false" isUnderline="false"/>
										</textElement>
										<textFieldExpression><![CDATA[$V{orders.DateOrdered_s_Sum_orderitems.Quantity}]]></textFieldExpression>
									</textField>
								</c:cell>
							</c:groupFooter>
							<c:columnHeader height="25">
								<textField isStretchWithOverflow="true" isBlankWhenNull="true">
									<reportElement style="TableColumnHeaderTextStyle" stretchType="RelativeToBandHeight" mode="Opaque" x="0" y="0" width="103" height="25" forecolor="#000000" backcolor="#D5DEE8" uuid="3438e14e-433e-459d-a94c-4a14c0f2eeb7">
										<property name="net.sf.jasperreports.components.condition.type" value="Text"/>
									</reportElement>
									<textElement textAlignment="Right">
										<font fontName="DejaVu Sans" size="11" isBold="true" isItalic="false" isUnderline="false"/>
									</textElement>
									<textFieldExpression><![CDATA["Quantity"]]></textFieldExpression>
								</textField>
							</c:columnHeader>
							<c:detailCell height="25">
								<textField isStretchWithOverflow="true" pattern="#,##0" isBlankWhenNull="true">
									<reportElement key="textField" style="TableDetailTextStyle" stretchType="RelativeToBandHeight" x="0" y="0" width="103" height="25" uuid="2a87ff3c-63b2-465f-8599-31db9490879f"/>
									<textElement textAlignment="Right"/>
									<textFieldExpression><![CDATA[$F{orderitems.Quantity}]]></textFieldExpression>
								</textField>
							</c:detailCell>
						</c:column>
						<c:column width="125" uuid="ea4ea55e-3b5e-4bb4-a58a-8f8d0c040189">
							<c:tableFooter height="25">
								<textField isStretchWithOverflow="true" pattern="Total: $#,##0.00" isBlankWhenNull="true">
									<reportElement key="textField" style="TableSummaryTextStyle" stretchType="RelativeToBandHeight" mode="Opaque" x="0" y="0" width="125" height="25" forecolor="#666666" backcolor="#FFFFFF" uuid="39b9eefa-89cd-4239-ba93-25b57cf59fb1"/>
									<textElement textAlignment="Right">
										<font fontName="DejaVu Sans" size="11" isBold="true" isItalic="false" isUnderline="false"/>
									</textElement>
									<textFieldExpression><![CDATA[$V{s_Sum_orderitems.Amount}]]></textFieldExpression>
								</textField>
							</c:tableFooter>
							<c:groupFooter groupName="orders.DateOrdered">
								<c:cell height="25">
									<textField isStretchWithOverflow="true" pattern="$#,##0.00" isBlankWhenNull="true">
										<reportElement style="TableGroupFooterTextStyle" stretchType="RelativeToBandHeight" mode="Opaque" x="0" y="0" width="125" height="25" forecolor="#666666" backcolor="#C9DAF8" uuid="63aaf579-4e7f-46f5-b702-9112b4b3f586"/>
										<textElement textAlignment="Right">
											<font fontName="DejaVu Sans" size="11" isBold="true" isItalic="false" isUnderline="false"/>
										</textElement>
										<textFieldExpression><![CDATA[$V{orders.DateOrdered_s_Sum_orderitems.Amount}]]></textFieldExpression>
									</textField>
								</c:cell>
							</c:groupFooter>
							<c:columnHeader height="25">
								<textField isStretchWithOverflow="true" isBlankWhenNull="true">
									<reportElement style="TableColumnHeaderTextStyle" stretchType="RelativeToBandHeight" mode="Opaque" x="0" y="0" width="125" height="25" forecolor="#666666" backcolor="#D5DEE8" uuid="18c50e8c-16e5-467d-b71e-02c257458a33">
										<property name="net.sf.jasperreports.components.condition.type" value="Text"/>
									</reportElement>
									<textElement textAlignment="Right">
										<font fontName="DejaVu Sans" size="11" isBold="true" isItalic="false" isUnderline="false"/>
									</textElement>
									<textFieldExpression><![CDATA["Amount"]]></textFieldExpression>
								</textField>
							</c:columnHeader>
							<c:detailCell height="25">
								<textField isStretchWithOverflow="true" pattern="$#,##0.00" isBlankWhenNull="true">
									<reportElement key="textField" style="TableDetailTextStyle" stretchType="RelativeToBandHeight" mode="Opaque" x="0" y="0" width="125" height="25" forecolor="#666666" backcolor="#FFFFFF" uuid="9b50203d-14ce-48fe-a057-13b67b5d0f46"/>
									<textElement textAlignment="Right">
										<font fontName="DejaVu Sans" size="11" isBold="false" isItalic="false" isUnderline="false"/>
									</textElement>
									<textFieldExpression><![CDATA[$F{orderitems.Amount}]]></textFieldExpression>
								</textField>
							</c:detailCell>
						</c:column>
					</c:columnGroup>
				</c:table>
			</componentElement>
		</band>
	</summary>
</jasperReport>
