supermart.inventory_fact_ALL.label=Inventario
supermart.inventory_fact_ALL.description=Ventas y costes de almac\u00e9n.\\nUnidades pedidas y enviadas.\\nTiempo de suministro y factura de almac\u00e9n.
supermart.inventory_fact_1997.units_ordered.label=Unidades pedidas 1997
supermart.inventory_fact_1997.units_ordered.description=Unidades pedidas 1997
supermart.inventory_fact_1997.units_shipped.label=Unidades enviadas 1997
supermart.inventory_fact_1997.units_shipped.description=Unidades enviadas 1997
supermart.inventory_fact_1997.warehouse_sales.label=Ventas de almac\u00e9n 1997
supermart.inventory_fact_1997.warehouse_sales.description=Ventas de almac\u00e9n 1997
supermart.inventory_fact_1997.warehouse_cost.label=Coste de almac\u00e9n 1997
supermart.inventory_fact_1997.warehouse_cost.description=Coste de almac\u00e9n 1997
supermart.inventory_fact_1997.supply_time.label=Tiempo de suministro 1997
supermart.inventory_fact_1997.supply_time.description=L\u00edmite de suministro 1997
supermart.inventory_fact_1997.store_invoice.label=Factura de tienda 1997
supermart.inventory_fact_1997.store_invoice.description=Factura de tienda 1997
supermart.inventory_fact_1998.units_ordered.label=Unidades pedidas 1998
supermart.inventory_fact_1998.units_ordered.description=Unidades pedidas 1998
supermart.inventory_fact_1998.units_shipped.label=Unidades enviadas 1998
supermart.inventory_fact_1998.units_shipped.description=Unidades enviadas 1998
supermart.inventory_fact_1998.warehouse_sales.label=Ventas de almac\u00e9n 1998
supermart.inventory_fact_1998.warehouse_sales.description=Ventas de almac\u00e9n 1998
supermart.inventory_fact_1998.warehouse_cost.label=Coste de almac\u00e9n 1998
supermart.inventory_fact_1998.warehouse_cost.description=Coste de almac\u00e9n 1998
supermart.inventory_fact_1998.warehouse_profit.label=Beneficio de almac\u00e9n 1998
supermart.inventory_fact_1998.warehouse_profit.description=Beneficio de almac\u00e9n 1998
supermart.inventory_fact_1998.supply_time.label=Tiempo de suministro 1998
supermart.inventory_fact_1998.supply_time.description=Tiempo de suministro 1998
supermart.inventory_fact_1998.store_invoice.label=Factura de tienda 1998
supermart.inventory_fact_1998.store_invoice.description=Factura de tienda 1998
supermart.salary.label=Salario
supermart.salary.description=Salario, horas extra pagadas. Vacaciones acumuladas y disfrutadas.
supermart.salary.pay_date.label=Fecha de pago
supermart.salary.pay_date.description=Fecha de pago
supermart.salary.salary_paid.label=Salario pagado
supermart.salary.salary_paid.description=Salario pagado
supermart.salary.overtime_paid.label=Horas extra pagadas
supermart.salary.overtime_paid.description=Horas extra pagadas
supermart.salary.vacation_accrued.label=Vacaciones acumuladas
supermart.salary.vacation_accrued.description=Vacaciones acumuladas
supermart.salary.vacation_used.label=Vacaciones disfrutadas
supermart.salary.vacation_used.description=Vacaciones disfrutadas
supermart.expense_fact.label=Gastos
supermart.expense_fact.description=Importe y fecha de gastos.
supermart.expense_fact.exp_date.label=Fecha de gasto
supermart.expense_fact.exp_date.description=Fecha de gasto
supermart.expense_fact.amount.label=Importe de gasto
supermart.expense_fact.amount.description=Importe de gasto
supermart.sales_fact_ALL.label=Ventas
supermart.sales_fact_ALL.description=Ventas
supermart.sales_fact_1997.store_sales.label=Ventas de tienda 1997
supermart.sales_fact_1997.store_sales.description=Ventas de tienda 1997
supermart.sales_fact_1997.store_cost.label=Coste de tienda 1997
supermart.sales_fact_1997.store_cost.description=Coste de tienda 1997
supermart.sales_fact_1997.unit_sales.label=Ventas de unidad 1997
supermart.sales_fact_1997.unit_sales.description=Ventas de unidad 1997
supermart.sales_fact_1998.store_sales.label=Ventas de tienda 1998
supermart.sales_fact_1998.store_sales.description=Ventas de tienda 1998
supermart.sales_fact_1998.store_cost.label=Coste de tienda 1998
supermart.sales_fact_1998.store_cost.description=Coste de tienda 1998
supermart.sales_fact_1998.unit_sales.label=Ventas de unidad 1998
supermart.sales_fact_1998.unit_sales.description=Ventas de unidad 1998
supermart.time_by_day.label=Tiempo
supermart.time_by_day.description=Tiempo por d\u00eda y per\u00edodo
supermart.time_by_day.the_date.label=Fecha
supermart.time_by_day.the_date.description=Fecha
supermart.time_by_day.the_day.label=D\u00eda de la semana
supermart.time_by_day.the_day.description=D\u00eda de la semana (lunes - domingo)
supermart.time_by_day.the_month.label=Mes
supermart.time_by_day.the_month.description=Nombre de mes (enero - diciembre)
supermart.time_by_day.the_year.label=A\u00f1o
supermart.time_by_day.the_year.description=A\u00f1o
supermart.time_by_day.day_of_month.label=D\u00eda del mes
supermart.time_by_day.day_of_month.description=D\u00eda del mes (1-31)
supermart.time_by_day.week_of_year.label=Semana del a\u00f1o
supermart.time_by_day.week_of_year.description=Semana del a\u00f1o (1-52)
supermart.time_by_day.month_of_year.label=Mes del a\u00f1o
supermart.time_by_day.month_of_year.description=Mes del a\u00f1o (1-12)
supermart.time_by_day.quarter.label=Trimestre
supermart.time_by_day.quarter.description=Trimestre (T1, T2, T3, T4)
supermart.time_by_day.fiscal_period.label=Per\u00edodo fiscal
supermart.time_by_day.fiscal_period.description=Per\u00edodo fiscal
supermart.time_by_day.day_of_week.label=D\u00eda de la semana
supermart.time_by_day.day_of_week.description=D\u00eda de la semana (1-7)
supermart.store.label=Tiendas
supermart.store.description=Tiendas
supermart.store.store_type.label=Tipo de tienda
supermart.store.store_type.description=Tipo de tienda (Oficinas, Peque\u00f1a, Mediana, Lujo, Supermercado gourmet)
supermart.store.store_name.label=Nombre de tienda
supermart.store.store_name.description=Nombre de tienda (Oficinas, Tienda 1 \u2013 Tienda 24)
supermart.store_contact.label=Contacto de tienda
supermart.store_contact.description=Informaci\u00f3n de contacto de tienda
supermart.store.store_number.description=N\u00famero de tienda
supermart.store.store_number.description=N\u00famero de tienda (1-24)
supermart.store.store_street_address.label=Direcci\u00f3n de tienda
supermart.store.store_street_address.description=Direcci\u00f3n de tienda
supermart.store.store_city.label=Ciudad
supermart.store.store_city.description=Ciudad de tienda
supermart.store.store_state.label=Estado/Provincia
supermart.store.store_state.description=Estado/Provincia de tienda
supermart.store.store_postal_code.label=C\u00f3digo postal
supermart.store.store_postal_code.description=C\u00f3digo postal de tienda
supermart.store.store_country.label=Pa\u00eds
supermart.store.store_country.description=Pa\u00eds de tienda
supermart.store.store_manager.label=Director
supermart.store.store_manager.description=Director de tienda
supermart.store.store_phone.label=Tel\u00e9fono
supermart.store.store_phone.description=Tel\u00e9fono de tienda
supermart.store.store_fax.label=Fax
supermart.store.store_fax.description=Fax de tienda
supermart.region.label=Regiones
supermart.region.description=Regiones de ventas
supermart.region.sales_city.label=Ciudad
supermart.region.sales_city.description=Ciudad de ventas
supermart.region.sales_state_province.label=Estado
supermart.region.sales_state_province.description=Estado/Provincia de ventas
supermart.region.sales_district.label=Distrito
supermart.region.sales_district.description=Distrito de ventas
supermart.region.sales_region.label=Regi\u00f3n
supermart.region.sales_region.description=Regi\u00f3n de ventas
supermart.region.sales_country.label=Pa\u00eds
supermart.region.sales_country.description=Pa\u00eds de ventas
supermart.store_features.label=Ofertas de tienda
supermart.store_features.description=Servicios y ofertas especiales de tienda
supermart.store.first_opened_date.label=Fecha de apertura
supermart.store.first_opened_date.description=Fecha de apertura de tienda
supermart.store.last_remodel_date.label=Fecha de reforma
supermart.store.last_remodel_date.description=\u00daltima fecha de reforma de tienda
supermart.store.store_sqft.label=M2
supermart.store.store_sqft.description=Tama\u00f1o total de tienda en metros cuadrados
supermart.store.grocery_sqft.label=M2 de comestibles
supermart.store.grocery_sqft.description=Tama\u00f1o de departamento de comestibles en metros cuadrados
supermart.store.frozen_sqft.label=M2 de congelados
supermart.store.frozen_sqft.description=Tama\u00f1o de departamento de congelados en metros cuadrados
supermart.store.meat_sqft.label=M2 de carnes
supermart.store.meat_sqft.description=Tama\u00f1o de departamento de carnes en metros cuadrados
supermart.store.coffee_bar.label=Cafeter\u00eda
supermart.store.coffee_bar.description=Cafeter\u00eda (No=0 S\u00ed=1)
supermart.store.video_store.label=Videoclub
supermart.store.video_store.description=Videoclub (No=0 S\u00ed=1)
supermart.store.salad_bar.label=Bar de ensaladas
supermart.store.salad_bar.description=Bar de ensaladas (No=0 S\u00ed=1)
supermart.store.prepared_food.label=Comida preparada
supermart.store.prepared_food.description=Comida preparada (No=0 S\u00ed=1)
supermart.store.florist.label=Florister\u00eda
supermart.store.florist.description=Florister\u00eda (No=0 S\u00ed=1)
supermart.account.label=Contabilidad
supermart.account.description=Tipos de contabilidad y descripciones
supermart.account.account_description.label=Descripci\u00f3n de cuenta
supermart.account.account_description.description=Descripci\u00f3n de cuentas de activo, pasivo, ingresos y gastos
supermart.account.account_type.label=Tipo de cuenta
supermart.account.account_type.description=Tipo de cuenta (activo, pasivo, ingresos, gastos)
supermart.category.category_id.label=ID de categor\u00eda
supermart.category.category_id.description=ID de categor\u00eda de contabilidad (real, liquidaci\u00f3n, presupuesto, previsi\u00f3n)
supermart.category.category_description.label=Descripci\u00f3n de categor\u00eda
supermart.category.category_description.description=Descripci\u00f3n de categor\u00eda
supermart.currency.date.label=Fecha de moneda
supermart.currency.date.description=Fecha del cambio de moneda al tipo de conversi\u00f3n
supermart.currency.currency.label=Moneda
supermart.currency.currency.description=Moneda(d\u00f3lar estadounidense, peso mexicano, d\u00f3lar canadiense)
supermart.currency.conversion_ratio.label=Tipo de cambio
supermart.currency.conversion_ratio.description=Tipo de cambio (1 = 1 d\u00f3lar estadounidense)
supermart.employee.label=Empleados
supermart.employee.description=Contacto de empleados e informaci\u00f3n de empleados
supermart.employee.employee_id.label=ID de empleado
supermart.employee.employee_id.description=ID de empleado
supermart.employee.full_name.label=Nombre completo
supermart.employee.full_name.description=Nombre completo de empleado
supermart.employee.first_name.label=Nombre
supermart.employee.first_name.description=Nombre de empleado
supermart.employee.last_name.label=Apellido
supermart.employee.last_name.description=Apellido de empleado
supermart.department.department_description.label=Departamento
supermart.department.department_description.description=Departamento
supermart.employee.position_title.label=Puesto
supermart.employee.position_title.description=Cargo
supermart.employee.management_role.label=Funci\u00f3n de administraci\u00f3n
supermart.employee.management_role.description=Funci\u00f3n de administraci\u00f3n (superior / tienda / administraci\u00f3n media; personal fijo / personal temporal)
supermart.employee.hire_date.label=Fecha de contrataci\u00f3n
supermart.employee.hire_date.description=Fecha de contrataci\u00f3n de empleado
supermart.employee.end_date.label=Fecha de fin
supermart.employee.end_date.description=Fecha de fin de empleado
supermart.employee_private.label=Datos confidenciales del empleado
supermart.employee_private.labeldescription=Informaci\u00f3n privada del empleado para RR.HH.
supermart.employee.birth_date.label=Fecha de nacimiento
supermart.employee.birth_date.description=Fecha de nacimiento de empleado
supermart.employee.salary.label=Salario
supermart.employee.salary.description=Salario de empleado
supermart.employee.education_level.label=Educaci\u00f3n
supermart.employee.education_level.description=Nivel de educaci\u00f3n del empleado
supermart.employee.marital_status.label=Estado civil
supermart.employee.marital_status.description=Estado civil del empleado
supermart.employee.gender.label=Sexo
supermart.employee.gender.description=Sexo de empleado
supermart.position.pay_type.label=Tipo de pago
supermart.position.pay_type.description=Tipo de pago del empleado (mensual)
supermart.position.min_scale.label=Escala m\u00ednima
supermart.position.min_scale.description=Escala de pago de puesto - M\u00ednima
supermart.position.max_scale.label=Escala m\u00e1xima
supermart.position.max_scale.description=Escala de pago de puesto - M\u00e1xima
supermart.currency.date.label=Fecha de moneda
supermart.currency.date.description=Fecha de moneda
supermart.currency.currency.label=Moneda
supermart.currency.currency.description=Moneda(d\u00f3lar estadounidense, peso mexicano, d\u00f3lar canadiense)
supermart.currency.conversion_ratio.label=Tipo de cambio
supermart.currency.conversion_ratio.description=Tipo de cambio de moneda (1=1 d\u00f3lar estadounidense)
supermart.warehouse.label=Almacenes
supermart.warehouse.description=Almacenes
supermart.warehouse.warehouse_name.label=Nombre
supermart.warehouse.warehouse_name.description=Nombre de almac\u00e9n
supermart.warehouse_class.description.label=Descripci\u00f3n de clase
supermart.warehouse_class.description.description=Descripci\u00f3n de clase de almac\u00e9n
supermart.warehouse_contact.label=Contacto de almac\u00e9n
supermart.warehouse_contact.description=Informaci\u00f3n de contacto de almac\u00e9n
supermart.warehouse.wa_address1.label=Direcci\u00f3n1 
supermart.warehouse.wa_address1.description=Direcci\u00f3n de almac\u00e9n 1
supermart.warehouse.wa_address2.label=Direcci\u00f3n2
supermart.warehouse.wa_address2.description=Direcci\u00f3n de almac\u00e9n 2
supermart.warehouse.wa_address3.label=Direcci\u00f3n3
supermart.warehouse.wa_address3.description=Direcci\u00f3n de almac\u00e9n 3
supermart.warehouse.wa_address4.label=Direcci\u00f3n4
supermart.warehouse.wa_address4.description=Direcci\u00f3n de almac\u00e9n 4
supermart.warehouse.warehouse_city.label=Ciudad
supermart.warehouse.warehouse_city.description=Ciudad de almac\u00e9n
supermart.warehouse.warehouse_state_province.label=Estado/Provincia
supermart.warehouse.warehouse_state_province.description=Estado/Provincia de almac\u00e9n
supermart.warehouse.warehouse_postal_code.label=C\u00f3digo postal
supermart.warehouse.warehouse_postal_code.description=C\u00f3digo postal de almac\u00e9n
supermart.warehouse.warehouse_country.label=Pa\u00eds
supermart.warehouse.warehouse_country.description=Pa\u00eds de almac\u00e9n
supermart.warehouse.warehouse_owner_name.label=Propietario
supermart.warehouse.warehouse_owner_name.description=Nombre de propietario de almac\u00e9n
supermart.warehouse.warehouse_phone.label=Tel\u00e9fono
supermart.warehouse.warehouse_phone.description=Tel\u00e9fono de almac\u00e9n
supermart.warehouse.warehouse_fax.label=Fax
supermart.warehouse.warehouse_fax.description=Fax de almac\u00e9n
supermart.customer.label=Clientes
supermart.customer.description=Clientes
supermart.customer.account_num.label=N\u00famero de cuenta
supermart.customer.account_num.description=N\u00famero de cuenta de cliente
supermart.customer.lname.label=Apellido
supermart.customer.lname.description=Apellido de cliente
supermart.customer.fname.label=Nombre
supermart.customer.fname.description=Nombre de cliente
supermart.customer.mi.label=Inicial de segundo nombre
supermart.customer.mi.description=Inicial de segundo nombre de cliente
supermart.customer.customer_contact.label=Contacto de cliente
supermart.customer.customer_contact.description=Informaci\u00f3n de contacto de cliente
supermart.customer.address1.label=Direcci\u00f3n1
supermart.customer.address1.description=Direcci\u00f3n de cliente 1
supermart.customer.address2.label=Direcci\u00f3n2
supermart.customer.address2.description=Direcci\u00f3n de cliente 2
supermart.customer.address3.label=Direcci\u00f3n3
supermart.customer.address3.description=Direcci\u00f3n de cliente 3
supermart.customer.address4.label=Direcci\u00f3n4
supermart.customer.address4.description=Direcci\u00f3n de cliente 4
supermart.customer.city.label=Ciudad
supermart.customer.city.description=Ciudad de cliente
supermart.customer.state_province.label=Estado/Provincia
supermart.customer.state_province.description=Estado/Provincia de cliente
supermart.customer.postal_code.label=C\u00f3digo postal
supermart.customer.postal_code.description=C\u00f3digo postal de cliente
supermart.customer.country.label=Pa\u00eds
supermart.customer.country.description=Pa\u00eds de cliente
supermart.customer.phone1.label=Tel\u00e9fono1
supermart.customer.phone1.description=Tel\u00e9fono de cliente 1
supermart.customer.phone2.label=Tel\u00e9fono2
supermart.customer.phone2.description=Tel\u00e9fono de cliente 2
supermart.customer.birthdate.label=Fecha de nacimiento
supermart.customer.birthdate.description=Fecha de nacimiento de cliente
supermart.customer.marital_status.label=Estado civil
supermart.customer.marital_status.description=Estado civil de cliente
supermart.customer.yearly_income.label=Ingresos anuales
supermart.customer.yearly_income.description=Ingresos anuales de cliente
supermart.customer.gender.label=Sexo
supermart.customer.gender.description=Sexo de cliente
supermart.customer.total_children.label=Total de hijos
supermart.customer.total_children.description=N\u00famero total de hijos de cliente
supermart.customer.num_children_at_home.label=Hijos a cargo
supermart.customer.num_children_at_home.description=N\u00famero total de hijos de cliente a cargo
supermart.customer.education.label=Educaci\u00f3n
supermart.customer.education.description=Nivel de educaci\u00f3n de cliente
supermart.customer.date_accnt_opened.label=Fecha de apertura de cuenta
supermart.customer.date_accnt_opened.description=Fecha de apertura de cuenta de cliente
supermart.customer.member_card.label=Tarjeta de socio
supermart.customer.member_card.description=Nivel de tarjeta de socio (normal, bronce, plata, oro)
supermart.customer.occupation.label=Ocupaci\u00f3n
supermart.customer.occupation.description=Ocupaci\u00f3n de cliente
supermart.customer.houseowner.label=Vivienda propia
supermart.customer.houseowner.description=Vivienda propia de cliente (S | N)
supermart.customer.num_cars_owned.label=N\u00famero de tarjetas que posee
supermart.customer.num_cars_owned.description=N\u00famero de coches que posee:
supermart.customer.fullname.label=Nombre completo
supermart.customer.fullname.description=Nombre completo de cliente
supermart.product.label=Productos
supermart.product.description=Productos
supermart.product.brand_name.label=Marca
supermart.product.brand_name.description=Nombre de marca
supermart.product.product_name.label=Nombre de producto
supermart.product.product_name.description=Nombre de producto
supermart.product.SKU.label=SKU
supermart.product.SKU.description=N\u00famero de referencia
supermart.product.SRP.label=Precio de venta recomendado
supermart.product.SRP.description=Precio de venta recomendado
supermart.product.gross_weight.label=Peso bruto
supermart.product.gross_weight.description=Peso bruto
supermart.product.net_weight.label=Peso neto
supermart.product.net_weight.description=Peso neto
supermart.product.recyclable_package.label=Embalaje reciclable
supermart.product.recyclable_package.description=Embalaje reciclable (N=0 S=1)
supermart.product.low_fat.label=Bajo en grasas
supermart.product.low_fat.description=Producto reciclable (N=0 S=1)
supermart.product.units_per_case.label=Unidades por caja
supermart.product.units_per_case.description=Unidades por caja
supermart.product.cases_per_pallet.label=Cajas por pal\u00e9
supermart.product.cases_per_pallet.description=Cajas por pal\u00e9
supermart.product.shelf_width.label=Ancho de estanter\u00eda
supermart.product.shelf_width.description=Ancho de estanter\u00eda
supermart.product.shelf_height.label=Alto de estanter\u00eda
supermart.product.shelf_height.description=Alto de estanter\u00eda
supermart.product.shelf_depth.label=Profundidad de estanter\u00eda
supermart.product.shelf_depth.description=Profundidad de estanter\u00eda
supermart.product_class.label=Clase de producto
supermart.product_class.description=Clasificaci\u00f3n del producto por familia de producto, departamento, categor\u00eda y subcategor\u00eda
supermart.product_class.product_subcategory.label=Subcategor\u00eda
supermart.product_class.product_subcategory.description=Subcategor\u00eda de productos (leche, yogur, nata, queso, etc.)
supermart.product_class.product_category.label=Categor\u00eda
supermart.product_class.product_category.description=Categor\u00eda de productos (l\u00e1cteos, frutas, etc.) pasa a departamento
supermart.product_class.product_department.label=Departamento
supermart.product_class.product_department.description=Departamento de productos (l\u00e1cteos, conservas, etc.) pasa a familia
supermart.product_class.product_family.label=Familia de productos
supermart.product_class.product_family.description=Familia de productos (comida, bebida, no consumible) nivel superior
supermart.promotion.label=Promociones
supermart.promotion.description=Promociones
supermart.promotion.promotion_name.label=Nombre de promo
supermart.promotion.promotion_name.description=Nombre de promoci\u00f3n
supermart.promotion.media_type.label=Tipo de soporte
supermart.promotion.media_type.description=Tipo de soporte promocional (TV, radio, prensa, cupones de tienda, etc.)
supermart.promotion.cost.label=Coste
supermart.promotion.cost.description=Coste de promoci\u00f3n
supermart.promotion.start_date.label=Fecha de inicio
supermart.promotion.start_date.description=Fecha de inicio de per\u00edodo promocional
supermart.promotion.end_date.label=Fecha de fin
supermart.promotion.end_date.description=Fecha de fin de per\u00edodo promocional
